#Mapping quality	mapping quality
2.0	4937719.0
3.0	271026.0
4.0	5481160.0
5.0	531531.0
6.0	5584141.0
7.0	721490.0
8.0	4093241.0
9.0	693808.0
10.0	5490084.0
11.0	588366.0
12.0	3096350.0
13.0	515210.0
14.0	2937948.0
15.0	392465.0
16.0	4488435.0
17.0	274332.0
18.0	1922008.0
19.0	220892.0
20.0	2020246.0
21.0	203659.0
22.0	1473762.0
23.0	162521.0
24.0	1316287.0
25.0	140720.0
26.0	1437607.0
27.0	132144.0
28.0	962437.0
29.0	134565.0
30.0	1076231.0
31.0	128311.0
32.0	1379781.0
33.0	121014.0
34.0	726289.0
35.0	121221.0
36.0	800924.0
37.0	129008.0
38.0	567019.0
39.0	129672.0
40.0	570844.0
41.0	131941.0
42.0	607244.0
43.0	134280.0
44.0	440794.0
45.0	139417.0
46.0	558051.0
47.0	145335.0
48.0	618430.0
49.0	148185.0
50.0	407294.0
51.0	133526.0
52.0	430927.0
53.0	131500.0
54.0	324689.0
55.0	169405.0
56.0	365773.0
57.0	181626.0
58.0	362696.0
59.0	173068.0
60.0	299772.0
61.0	153546.0
62.0	359619.0
63.0	147453.0
64.0	327195.0
65.0	134208.0
66.0	319244.0
67.0	189152.0
68.0	369580.0
69.0	226613.0
70.0	343917.0
71.0	209975.0
72.0	332958.0
73.0	179627.0
74.0	286600.0
75.0	173014.0
76.0	269008.0
77.0	142361.0
78.0	289644.0
79.0	137503.0
80.0	263297.0
81.0	121764.0
82.0	242428.0
83.0	113061.0
84.0	222377.0
85.0	96714.0
86.0	243593.0
87.0	320850.0
88.0	349274.0
89.0	443856.0
90.0	380753.0
91.0	435018.0
92.0	360568.0
93.0	362684.0
94.0	311662.0
95.0	315346.0
96.0	271959.0
97.0	216501.0
98.0	248333.0
99.0	184498.0
100.0	229371.0
101.0	163151.0
102.0	214317.0
103.0	139358.0
104.0	231630.0
105.0	155988.0
106.0	267516.0
107.0	158085.0
108.0	247827.0
109.0	140454.0
110.0	230204.0
111.0	133115.0
112.0	217438.0
113.0	125195.0
114.0	210696.0
115.0	116820.0
116.0	199135.0
117.0	111853.0
118.0	190311.0
119.0	99312.0
120.0	182571.0
121.0	93296.0
122.0	179009.0
123.0	87499.0
124.0	172234.0
125.0	80512.0
126.0	161321.0
127.0	77167.0
128.0	1306302.0
129.0	1271487.0
130.0	1336489.0
131.0	1014992.0
132.0	1243276.0
133.0	828099.0
134.0	867503.0
135.0	849669.0
136.0	656049.0
137.0	553897.0
138.0	533613.0
139.0	393235.0
140.0	477142.0
141.0	302520.0
142.0	397841.0
143.0	328832.0
144.0	322920.0
145.0	235971.0
146.0	287893.0
147.0	199253.0
148.0	293431.0
149.0	171693.0
150.0	277828.0
151.0	183265.0
152.0	248633.0
153.0	153814.0
154.0	251409.0
155.0	198428.0
156.0	265858.0
157.0	185661.0
158.0	255716.0
159.0	175102.0
160.0	225660.0
161.0	152464.0
162.0	217774.0
163.0	136899.0
164.0	203201.0
165.0	130920.0
166.0	200734.0
167.0	125784.0
168.0	191478.0
169.0	115701.0
170.0	483628.0
171.0	430310.0
172.0	687086.0
173.0	382051.0
174.0	525969.0
175.0	312677.0
176.0	412053.0
177.0	219252.0
178.0	330345.0
179.0	184148.0
180.0	292463.0
181.0	165189.0
182.0	243052.0
183.0	172521.0
184.0	224729.0
185.0	169793.0
186.0	218403.0
187.0	159306.0
188.0	195809.0
189.0	154340.0
190.0	192527.0
191.0	254323.0
192.0	367293.0
193.0	306007.0
194.0	299760.0
195.0	259767.0
196.0	259531.0
197.0	219398.0
198.0	232561.0
199.0	208063.0
200.0	221926.0
201.0	198096.0
202.0	217275.0
203.0	199825.0
204.0	280489.0
205.0	257917.0
206.0	286891.0
207.0	240626.0
208.0	256596.0
209.0	225792.0
210.0	252636.0
211.0	224026.0
212.0	257775.0
213.0	267264.0
214.0	277978.0
215.0	251473.0
216.0	272373.0
217.0	249070.0
218.0	274356.0
219.0	271677.0
220.0	300159.0
221.0	267221.0
222.0	290956.0
223.0	288286.0
224.0	310645.0
225.0	299309.0
226.0	318359.0
227.0	316359.0
228.0	336193.0
229.0	327018.0
230.0	357490.0
231.0	342767.0
232.0	378692.0
233.0	366201.0
234.0	396327.0
235.0	390583.0
236.0	419802.0
237.0	420618.0
238.0	447394.0
239.0	448010.0
240.0	484567.0
241.0	484476.0
242.0	521214.0
243.0	527134.0
244.0	558295.0
245.0	569173.0
246.0	604050.0
247.0	605461.0
248.0	636644.0
249.0	626623.0
250.0	628859.0
251.0	560370.0
252.0	461490.0
253.0	247487.0
254.0	33340.0
255.0	2.55950794E8
