#name	absolute_pos	mapped_bases	mean_coverage	std_coverage
1	1:249250621	153325456	0.63	7.41
2	249250622:492449994	122229787	0.51	5.48
3	492449995:690472424	98219995	0.5	5.24
4	690472425:881626700	71624450	0.38	3.99
5	881626701:1062541960	77325892	0.43	4.8
6	1062541961:1233657027	84834019	0.5	7.39
7	1233657028:1392795690	81448584	0.52	6.26
8	1392795691:1539159712	60585888	0.42	8.23
9	1539159713:1680373143	66518221	0.48	5.52
10	1680373144:1815907890	69358107	0.52	4.95
11	1815907891:1950914406	83791394	0.63	9.69
12	1950914407:2084766301	84068997	0.64	5.89
13	2084766302:2199936179	35683873	0.31	3.45
14	2199936180:2307285719	54319796	0.51	11.24
15	2307285720:2409817111	55629540	0.55	5.81
16	2409817112:2500171864	55727507	0.63	7.88
17	2500171865:2581367074	76390997	0.98	9.27
18	2581367075:2659444322	28436876	0.37	3.58
19	2659444323:2718573305	66052633	1.18	8.55
20	2718573306:2781598825	37554770	0.61	5.55
21	2781598826:2829728720	17694910	0.37	4.25
22	2829728721:2881033286	30051708	0.6	5.51
X	2881033287:3036303846	48149256	0.31	3.84
Y	3036303847:3095677412	7524474	0.13	4.98
MT	3095677413:3095693981	128032	7.73	6.16
GL000207.1	3095693982:3095698243	727	0.17	0.52
GL000226.1	3095698244:3095713251	3322	0.22	1.13
GL000229.1	3095713252:3095733164	177153	8.9	37.04
GL000231.1	3095733165:3095760550	33499	1.22	5.98
GL000210.1	3095760551:3095788232	3572	0.13	0.43
GL000239.1	3095788233:3095822056	70	0	0.05
GL000235.1	3095822057:3095856530	43661	1.27	12.82
GL000201.1	3095856531:3095892678	627	0.02	0.29
GL000247.1	3095892679:3095929100	326	0.01	0.12
GL000245.1	3095929101:3095965751	167	0	0.08
GL000197.1	3095965752:3096002926	3289	0.09	0.42
GL000203.1	3096002927:3096040424	4394	0.12	0.51
GL000246.1	3096040425:3096078578	12324	0.32	2.69
GL000249.1	3096078579:3096117080	100	0	0.07
GL000196.1	3096117081:3096155994	6350	0.16	0.67
GL000248.1	3096155995:3096195780	476	0.01	0.13
GL000244.1	3096195781:3096235709	1873	0.05	0.35
GL000238.1	3096235710:3096275648	37767	0.95	3.53
GL000202.1	3096275649:3096315751	12343	0.31	1.66
GL000234.1	3096315752:3096356282	26912	0.66	2.98
GL000232.1	3096356283:3096396934	11125	0.27	1.49
GL000206.1	3096396935:3096437935	511	0.01	0.17
GL000240.1	3096437936:3096479868	7694	0.18	1.35
GL000236.1	3096479869:3096521802	1744	0.04	0.69
GL000241.1	3096521803:3096563954	137250	3.26	16.5
GL000243.1	3096563955:3096607295	2635	0.06	0.77
GL000242.1	3096607296:3096650818	1633	0.04	0.48
GL000230.1	3096650819:3096694509	45175	1.03	6.47
GL000237.1	3096694510:3096740376	29961	0.65	4.67
GL000233.1	3096740377:3096786317	6087	0.13	0.48
GL000204.1	3096786318:3096867627	16662	0.2	0.76
GL000198.1	3096867628:3096957712	6526	0.07	0.34
GL000208.1	3096957713:3097050401	20297	0.22	0.68
GL000191.1	3097050402:3097156834	8541	0.08	1.36
GL000227.1	3097156835:3097285208	1496	0.01	0.18
GL000228.1	3097285209:3097414328	24410	0.19	2.91
GL000214.1	3097414329:3097552046	390069	2.83	19.53
GL000221.1	3097552047:3097707443	36541	0.24	4.69
GL000209.1	3097707444:3097866612	631058	3.96	18.61
GL000218.1	3097866613:3098027759	97304	0.6	5.71
GL000220.1	3098027760:3098189561	4339123	26.82	238.56
GL000213.1	3098189562:3098353800	20968	0.13	1.06
GL000211.1	3098353801:3098520366	344776	2.07	14.72
GL000199.1	3098520367:3098690240	75504	0.44	3.16
GL000217.1	3098690241:3098862389	24359	0.14	1.15
GL000216.1	3098862390:3099034683	333838	1.94	12.27
GL000215.1	3099034684:3099207228	10142	0.06	1.01
GL000205.1	3099207229:3099381816	245901	1.41	13.53
GL000219.1	3099381817:3099561014	199524	1.11	9.27
GL000224.1	3099561015:3099740707	103084	0.57	4.18
GL000223.1	3099740708:3099921162	50727	0.28	2.69
GL000195.1	3099921163:3100104058	240183	1.31	13.03
GL000212.1	3100104059:3100290916	975644	5.22	32.64
GL000222.1	3100290917:3100477777	227829	1.22	24.9
GL000200.1	3100477778:3100664812	441	0	0.15
GL000193.1	3100664813:3100854601	134651	0.71	7.81
GL000194.1	3100854602:3101046070	87936	0.46	4.09
GL000225.1	3101046071:3101257243	2375875	11.25	76.2
GL000192.1	3101257244:3101804739	242444	0.44	4.56
