#Coverage (X)	Coverage
1.0	92.98092197148888
2.0	91.06148802165623
3.0	89.53732323543136
4.0	88.15337575809735
5.0	86.81177362866921
6.0	85.49857504974696
7.0	84.1932417709443
8.0	82.89148027742043
9.0	81.58143247486576
10.0	80.26551188902003
11.0	78.94130693427675
12.0	77.61246700124394
13.0	76.2781539523657
14.0	74.94303574819646
15.0	73.60756637991238
16.0	72.27007151253486
17.0	70.93998795410079
18.0	69.61816548296551
19.0	68.30886075143843
20.0	67.00071427945042
21.0	65.71024436133257
22.0	64.43262006533902
23.0	63.1681479325203
24.0	61.91573954813365
25.0	60.68127933626955
26.0	59.45987040065225
27.0	58.25538136694492
28.0	57.067709408086294
29.0	55.89680020034591
30.0	54.74884470886476
31.0	53.6151802387652
32.0	52.50196089265684
33.0	51.408676415499855
34.0	50.332447649579024
35.0	49.27506727800005
36.0	48.23813397054551
37.0	47.2175598664971
38.0	46.21587877985486
39.0	45.23207214067238
40.0	44.26780264312886
41.0	43.32434689489048
42.0	42.39910123716087
43.0	41.49529793190334
44.0	40.60621053720504
45.0	39.738588776577586
46.0	38.88865521061969
47.0	38.05887962893476
48.0	37.24238619935116
49.0	36.44566272739427
50.0	35.666722516635275
51.0	34.905734358665285
