#Position (bp)	mapping quality
3877256.5	221.27488394342956
1.16317685E7	215.71718370716962
1.93862805E7	205.2371188526313
2.71407925E7	229.4246862923438
3.48953045E7	230.6531110375355
4.26498165E7	231.26419072550812
5.04043285E7	222.80396422720196
5.81588405E7	234.21077522460823
6.59133525E7	236.27001946859102
7.36678645E7	237.50702186244695
8.14223765E7	237.55139275969083
8.91768885E7	216.99387742527168
9.69314005E7	238.36499202976987
1.046859125E8	216.0916747239326
1.124404245E8	229.08565620212502
1.201949365E8	220.31803034191478
1.279494485E8	NaN
1.357039605E8	NaN
1.434584725E8	182.47621402513698
1.512129845E8	185.117689065256
1.589674965E8	223.98760758981297
1.667220085E8	230.04083987000774
1.744765205E8	237.7613590932775
1.822310325E8	234.4809382630271
1.899855445E8	228.1166881254191
1.977400565E8	232.6317239204989
2.054945685E8	224.23312472105147
2.132490805E8	239.1270010376444
2.210035925E8	240.21070378664726
2.287581045E8	220.48540811949465
2.365126165E8	238.29151421334083
2.442671285E8	218.4091693498926
2.48697503E8	141.8969465947054
2.52574759E8	230.69051367959256
2.597761525E8	236.487118173708
2.675306645E8	241.57401514859473
2.752851765E8	235.35912638727527
2.830396885E8	240.2469260553061
2.907942005E8	240.5617111656556
2.985487125E8	235.17162254301303
3.063032245E8	236.73493219673279
3.140577365E8	229.21595996952993
3.218122485E8	223.84612538936713
3.295667605E8	202.89811096926067
3.373212725E8	197.57143976550736
3.450757845E8	202.06973836966665
3.528302965E8	228.74093575822764
3.605848085E8	199.15378722219165
3.683393205E8	230.354715558135
3.760938325E8	233.69671516175188
3.838483445E8	199.15092418396827
3.916028565E8	229.99793310184273
3.993573685E8	225.18960441956926
4.071118805E8	231.46910950422307
4.148663925E8	219.98424103505073
4.226209045E8	229.5509961795379
4.303754165E8	240.16702002435022
4.381299285E8	238.30587225352215
4.458844405E8	239.49126645080642
4.536389525E8	234.1735914419505
4.613934645E8	236.93386232587886
4.691479765E8	235.4055507648042
4.769024885E8	228.22413971904456
4.846570005E8	221.62026877268676
4.904921255E8	235.10141885807494
4.943693815E8	242.1267385911296
5.001660245E8	232.33716271038247
5.079205365E8	227.08331436008325
5.156750485E8	238.21309568546616
5.234295605E8	231.51477951700784
5.311840725E8	233.5993470494037
5.389385845E8	232.8906350116375
5.466930965E8	238.7106792486614
5.544476085E8	241.5959390493714
5.622021205E8	233.267930769084
5.699566325E8	198.41897370137647
5.777111445E8	234.55902875108904
5.854656565E8	189.33551243011584
5.932201685E8	223.9688586889668
6.009746805E8	236.13008132689734
6.087291925E8	240.19901856633493
6.164837045E8	231.2270218884345
6.242382165E8	228.82513650126464
6.319927285E8	234.3677947785309
6.397472405E8	230.26511954731942
6.475017525E8	236.50666892633095
6.552562645E8	223.9158005269551
6.630107765E8	236.95132919800037
6.707652885E8	228.71927020099824
6.785198005E8	230.89963189286274
6.862743125E8	184.07917693818916
6.903119965E8	182.61744366614158
6.941892525E8	215.37968435537408
7.017833365E8	209.10391421846396
7.095378485E8	231.84084593403742
7.172923605E8	239.15798547901417
7.250468725E8	239.17681345922324
7.328013845E8	230.77262624067893
7.405558965E8	239.11352087186842
7.483104085E8	222.1397887083451
7.560649205E8	216.9356887281141
7.638194325E8	205.97810262874142
7.715739445E8	230.2480830807236
7.793284565E8	232.9136484982665
7.870829685E8	210.51649767197188
7.948374805E8	233.3815937247617
8.025919925E8	235.57120980976282
8.103465045E8	230.67406228958035
8.181010165E8	243.08684723697377
8.258555285E8	238.51966418205978
8.336100405E8	227.02112776491373
8.413645525E8	238.17007071075085
8.491190645E8	240.44225797384044
8.568735765E8	224.97570023681925
8.646280885E8	223.6871183471413
8.723826005E8	238.0044369149065
8.789432785E8	226.7527958877238
8.828205345E8	198.95563727633152
8.878916245E8	239.64707263575153
8.956461365E8	235.93333983151288
9.034006485E8	113.71876094497972
9.111551605E8	234.89565171678905
9.189096725E8	221.05800586431027
9.266641845E8	226.98648864669195
9.344186965E8	235.01544283168138
9.421732085E8	231.93016436381188
9.499277205E8	226.36638717740493
9.576822325E8	231.61371471367374
9.654367445E8	223.95829318910464
9.731912565E8	237.59546109273415
9.809457685E8	230.46257562075473
9.887002805E8	209.6740771112534
9.964547925E8	225.81529938939985
1.0042093045E9	230.63781462090623
1.0119638165E9	239.03809411011972
1.0197183285E9	211.42897587234285
1.0274728405E9	235.55299423898123
1.0352273525E9	231.454755419537
1.0429818645E9	229.67167942585772
1.0507363765E9	234.9488273891286
1.0584908885E9	217.23465861252217
1.0624550525E9	NaN
1.0663323085E9	233.91080927797938
1.0739999125E9	233.73603863609034
1.0817544245E9	234.12461774645806
1.0895089365E9	201.28992520235545
1.0972634485E9	225.35489576023488
1.1050179605E9	232.78873596126672
1.1127724725E9	227.1219135762079
1.1205269845E9	238.0355360620436
1.1282814965E9	220.9074272156207
1.1360360085E9	236.39756091540977
1.1437905205E9	232.78121636256236
1.1515450325E9	235.70281184388443
1.1592995445E9	240.4233939757739
1.1670540565E9	229.92949376092582
1.1748085685E9	235.64672230311118
1.1825630805E9	225.0472397228539
1.1903175925E9	239.34967306934675
1.1980721045E9	227.66545115212247
1.2058266165E9	242.06687713087558
1.2135811285E9	230.11858828893077
1.2213356405E9	224.56643960441053
1.2290901525E9	227.87671071392
1.233312218E9	205.29007541779535
1.237189474E9	213.5010738533689
1.2445991765E9	232.7079698780167
1.2523536885E9	233.48157070137438
1.2601082005E9	222.02295150540579
1.2678627125E9	227.59431861004958
1.2756172245E9	220.89906753798118
1.2833717365E9	240.41044711592167
1.2911262485E9	189.36334232638
1.2988807605E9	128.82926924139815
1.3066352725E9	176.40138744415236
1.3143897845E9	240.78050782628466
1.3221442965E9	224.90977930031045
1.3298988085E9	214.62162756915217
1.3376533205E9	182.90830935442997
1.3454078325E9	235.32288807821718
1.3531623445E9	239.32954098404133
1.3609168565E9	229.41025451482489
1.3686713685E9	228.66027149333206
1.3764258805E9	196.7506302380721
1.3841803925E9	224.58364239229658
1.3904266695E9	232.51490016386495
1.3943039255E9	237.49774652568425
1.3996894165E9	173.77120017497091
1.4074439285E9	163.5143924883132
1.4151984405E9	235.4928619445041
1.4229529525E9	234.85666170367588
1.4307074645E9	229.94872062644572
1.4384619765E9	234.29525298054173
1.4462164885E9	236.1767487094597
1.4539710005E9	234.43652067432052
1.4617255125E9	237.44325691545254
1.4694800245E9	228.2148995443224
1.4772345365E9	204.37321147296763
1.4849890485E9	235.716481693959
1.4927435605E9	232.88896607294163
1.5004980725E9	240.1026117926493
1.5082525845E9	237.24465732903903
1.5160070965E9	238.1823291372035
1.5237616085E9	234.73421968981435
1.5315161205E9	241.46569835615833
1.5372765445E9	222.06452177972972
1.5411538005E9	229.76175099894462
1.5470251445E9	226.41685541068532
1.5547796565E9	235.54827138588178
1.5625341685E9	197.24260188135256
1.5702886805E9	203.04613991672315
1.5780431925E9	221.99262826237427
1.5857977045E9	69.29579258037802
1.5935522165E9	NaN
1.6013067285E9	114.42717829128684
1.6090612405E9	219.20801466247832
1.6168157525E9	235.26965234382524
1.6245702645E9	181.68337495764052
1.6323247765E9	210.73908062881262
1.6400792885E9	226.44500602977985
1.6478338005E9	224.5088467138781
1.6555883125E9	238.27895264095682
1.6633428245E9	230.52336511248885
1.6710973365E9	235.5338754972018
1.677673868E9	212.57309159446064
1.681551124E9	228.2330980085158
1.6866063605E9	232.1804580948857
1.6943608725E9	229.54495150719538
1.7021153845E9	224.27578127333288
1.7098698965E9	215.93540886426692
1.7176244085E9	180.56576525685205
1.7253789205E9	173.52036383955243
1.7331334325E9	204.99543644693807
1.7408879445E9	235.27624393474883
1.7486424565E9	233.28639986860173
1.7563969685E9	233.5093765971148
1.7641514805E9	212.0660758995939
1.7719059925E9	215.9828567476391
1.7796605045E9	229.90299163323175
1.7874150165E9	236.65226514893467
1.7951695285E9	238.84089401911868
1.8029240405E9	205.16379217859938
1.8106785525E9	216.7619538098292
1.8152318495E9	230.91725859499863
1.8191091055E9	193.7096115896837
1.8261875765E9	233.9324805614883
1.8339420885E9	224.36036306937962
1.8416966005E9	234.41080732304167
1.8494511125E9	237.084437494571
1.8572056245E9	228.6181017701412
1.8649601365E9	211.03505185754113
1.8727146485E9	201.54264178823217
1.8804691605E9	222.38658073212787
1.8882236725E9	220.94103569449894
1.8959781845E9	236.69414951784165
1.9037326965E9	198.86679202282735
1.9114872085E9	238.32359009441606
1.9192417205E9	224.26051827554684
1.9269962325E9	232.9652866297252
1.9347507445E9	237.87672897197623
1.9425052565E9	220.81329793528937
1.9486484595E9	228.2821947998353
1.9525257155E9	226.99993734439275
1.9580142805E9	215.8612493111194
1.9657687925E9	200.43125105162312
1.9735233045E9	225.03932162015477
1.9812778165E9	212.04223256392342
1.9890323285E9	221.07293374179991
1.9967868405E9	231.03845498297554
2.0045413525E9	226.2270333071327
2.0122958645E9	234.99925671375385
2.0200503765E9	239.1562498061774
2.0278048885E9	238.25166188779625
2.0355594005E9	238.65581356626737
2.0433139125E9	228.58792305038887
2.0510684245E9	234.037722568581
2.0588229365E9	235.59503319739352
2.0665774485E9	237.82259511697205
2.0743319605E9	232.98667915841978
2.081487759E9	223.8624040964934
2.085365015E9	NaN
2.0898409845E9	NaN
2.0975954965E9	NaN
2.1053500085E9	204.3043384416145
2.1131045205E9	220.2248302364062
2.1208590325E9	237.18514874972092
2.1286135445E9	226.3140109536933
2.1363680565E9	215.36596365927898
2.1441225685E9	239.50464167194093
2.1518770805E9	219.0199379443407
2.1596315925E9	227.9605642217866
2.1673861045E9	239.75110476378083
2.1751406165E9	237.81584218526856
2.1828951285E9	235.2011312617119
2.1906496405E9	231.0029948482097
2.197231538E9	236.61920291674937
2.201108794E9	NaN
2.2061586645E9	NaN
2.2139131765E9	NaN
2.2216676885E9	216.12499839895196
2.2294222005E9	233.42539993899356
2.2371767125E9	217.31204332787644
2.2449312245E9	235.22455563459636
2.2526857365E9	233.05980488606892
2.2604402485E9	233.1840582529308
2.2681947605E9	233.8846987293723
2.2759492725E9	234.96439091297952
2.2837037845E9	241.6770198016971
2.2914582965E9	233.3115625673279
2.2992128085E9	234.82242795124495
2.305187892E9	147.60254705718586
2.309065148E9	NaN
2.3147218325E9	NaN
2.3224763445E9	NaN
2.3302308565E9	151.2073457838737
2.3379853685E9	217.46700377703434
2.3457398805E9	233.69876500801075
2.3534943925E9	228.704081163994
2.3612489045E9	234.75265446495516
2.3690034165E9	234.15515321581114
2.3767579285E9	231.95080855088466
2.3845124405E9	221.17029578749913
2.3922669525E9	221.91775080850886
2.4000214645E9	233.6129229034557
2.406857916E9	171.89870612195227
2.410735172E9	230.8830627617936
2.4155304885E9	229.76395626945927
2.4232850005E9	202.98789412136125
2.4310395125E9	216.6139314586358
2.4387940245E9	221.3753598569002
2.4465485365E9	87.89553786818615
2.4543030485E9	232.6046159025923
2.4620575605E9	221.15096044045166
2.4698120725E9	225.34485770719985
2.4775665845E9	228.91040314281778
2.4853210965E9	221.54501148130663
2.4930756085E9	229.5326591703893
2.4985623645E9	203.58689286383452
2.5024396205E9	230.2692820141742
2.5085846325E9	221.04005108211135
2.5163391445E9	208.80499639454138
2.5240936565E9	221.5243886739764
2.5318481685E9	214.0788613184998
2.5396026805E9	221.08193657707474
2.5473571925E9	215.1137113056047
2.5551117045E9	221.03354017435154
2.5628662165E9	209.14052591442453
2.5706207285E9	232.75432695356366
2.5779325295E9	234.8081618037115
2.5818097855E9	197.2404599705521
2.5861297525E9	237.32499876589603
2.5938842645E9	193.6376860691271
2.6016387765E9	229.83640894876848
2.6093932885E9	238.36492375596356
2.6171478005E9	229.11518534772927
2.6249023125E9	227.1674462298624
2.6326568245E9	239.535602544702
2.6404113365E9	230.7468198897441
2.6481658485E9	231.0113252045369
2.6557437135E9	240.98719783701947
2.6596209695E9	173.03600887707256
2.6636748725E9	223.84027465917808
2.6714293845E9	203.95608997122756
2.6791838965E9	197.41840872039703
2.6869384085E9	170.23417550668046
2.6946929205E9	220.1110687168623
2.7024474325E9	188.19978605760366
2.7102019445E9	194.6007790397355
2.716326253E9	190.56452017520138
2.720203509E9	225.53584219846996
2.7257109685E9	236.45485769863123
2.7334654805E9	225.021130599542
2.7412199925E9	228.61737285823608
2.7489745045E9	233.30447395068913
2.7567290165E9	238.8349166191045
2.7644835285E9	235.15597127489553
2.7722380405E9	229.5789871287926
2.778857061E9	235.75258098185446
2.782734317E9	NaN
2.7877470645E9	59.22196162046908
2.7955015765E9	154.39246811679726
2.8032560885E9	225.53249138565522
2.8110106005E9	218.16536587874518
2.8187651125E9	229.02180169029066
2.8261855445E9	229.16520859589085
2.8300628005E9	NaN
2.8342741365E9	NaN
2.8420286485E9	53.96205163749784
2.8497831605E9	200.07747563566963
2.8575376725E9	227.82426015337745
2.8652921845E9	224.5604959939128
2.8730466965E9	228.93193752707
2.8789786195E9	228.2715105734695
2.8828558755E9	209.91122221062002
2.8885557205E9	202.17789165358738
2.8963102325E9	231.5851014356856
2.9040647445E9	218.35581926397668
2.9118192565E9	211.2226022584993
2.9195737685E9	204.4661665623445
2.9273282805E9	204.27250096177727
2.9350827925E9	214.38871640740692
2.9428373045E9	228.08346200254528
2.9505918165E9	216.62269557138353
2.9583463285E9	226.8286907479447
2.9661008405E9	218.41743734728928
2.9738553525E9	155.62767318588922
2.9816098645E9	212.52165266759948
2.9893643765E9	235.35685653743286
2.9971188885E9	220.60468421763073
3.0048734005E9	218.231789708351
3.0126279125E9	225.84096478942936
3.0203824245E9	193.93966964602777
3.0281369365E9	224.1541685731699
3.0341590195E9	219.0228986709103
3.0380362755E9	121.28507795100222
3.0436459605E9	87.51858667648142
3.0514004725E9	122.5300056835278
3.0591549845E9	147.46512955504107
3.0669094965E9	87.07860395698596
3.0746640085E9	NaN
3.0824185205E9	NaN
3.0901730325E9	NaN
3.0948638505E9	NaN
3.095685697E9	NaN
3.0956961125E9	NaN
3.0957057475E9	NaN
3.095723208E9	NaN
3.0957468575E9	NaN
3.0957743915E9	NaN
3.0958051445E9	NaN
3.0958392935E9	NaN
3.0958746045E9	NaN
3.0959108895E9	NaN
3.095947426E9	NaN
3.095984339E9	NaN
3.0960216755E9	NaN
3.0960595015E9	NaN
3.0960978295E9	NaN
3.0961365375E9	NaN
3.0961758875E9	NaN
3.096215745E9	NaN
3.096255679E9	NaN
3.0962957E9	NaN
3.096336017E9	NaN
3.0963766085E9	NaN
3.096417435E9	NaN
3.096458902E9	NaN
3.0965008355E9	NaN
3.0965428785E9	NaN
3.096585625E9	NaN
3.096629057E9	NaN
3.096672664E9	NaN
3.096717443E9	NaN
3.096763347E9	NaN
3.0968269725E9	NaN
3.09691267E9	NaN
3.097004057E9	NaN
3.097103618E9	NaN
3.0972210215E9	NaN
3.0973497685E9	NaN
3.0974831875E9	NaN
3.097629745E9	NaN
3.097787028E9	NaN
3.097947186E9	NaN
3.0981086605E9	NaN
3.098271681E9	NaN
3.0984370835E9	NaN
3.0986053035E9	NaN
3.098776315E9	NaN
3.0989485365E9	NaN
3.099120956E9	NaN
3.0992945225E9	NaN
3.0994714155E9	NaN
3.099650861E9	NaN
3.099830935E9	NaN
3.1000126105E9	NaN
3.1001974875E9	NaN
3.100384347E9	NaN
3.100571295E9	NaN
3.100759707E9	NaN
3.100950336E9	NaN
3.101151657E9	NaN
3.1015309915E9	NaN
