<?xml version="1.0" encoding="UTF-8" standalone="no"?>
<!-- Created with Inkscape (http://www.inkscape.org/) -->

<svg
   xmlns:dc="http://purl.org/dc/elements/1.1/"
   xmlns:cc="http://creativecommons.org/ns#"
   xmlns:rdf="http://www.w3.org/1999/02/22-rdf-syntax-ns#"
   xmlns:svg="http://www.w3.org/2000/svg"
   xmlns="http://www.w3.org/2000/svg"
   xmlns:xlink="http://www.w3.org/1999/xlink"
   xmlns:sodipodi="http://sodipodi.sourceforge.net/DTD/sodipodi-0.dtd"
   xmlns:inkscape="http://www.inkscape.org/namespaces/inkscape"
   width="864"
   height="2557"
   id="svg2"
   version="1.1"
   inkscape:version="0.48.3.1 r9886"
   sodipodi:docname="tipos_de_variante_causa.svg"
   inkscape:export-filename="/home/rodrigo/absorto/tesis_ulsa/thesis/media/ch0_intro/tipos_de_variante_causa_es.png"
   inkscape:export-xdpi="65.995308"
   inkscape:export-ydpi="65.995308">
  <defs
     id="defs4" />
  <sodipodi:namedview
     id="base"
     pagecolor="#ffffff"
     bordercolor="#666666"
     borderopacity="1.0"
     inkscape:pageopacity="0.0"
     inkscape:pageshadow="2"
     inkscape:zoom="0.77655571"
     inkscape:cx="502.86735"
     inkscape:cy="2194.798"
     inkscape:document-units="px"
     inkscape:current-layer="layer2"
     showgrid="false"
     fit-margin-top="0"
     fit-margin-left="0"
     fit-margin-right="0"
     fit-margin-bottom="0"
     inkscape:window-width="1278"
     inkscape:window-height="798"
     inkscape:window-x="0"
     inkscape:window-y="0"
     inkscape:window-maximized="0" />
  <metadata
     id="metadata7">
    <rdf:RDF>
      <cc:Work
         rdf:about="">
        <dc:format>image/svg+xml</dc:format>
        <dc:type
           rdf:resource="http://purl.org/dc/dcmitype/StillImage" />
        <dc:title></dc:title>
      </cc:Work>
    </rdf:RDF>
  </metadata>
  <g
     inkscape:label="Layer 1"
     inkscape:groupmode="layer"
     id="layer1"
     transform="translate(-359.42856,600.42352)"
     sodipodi:insensitive="true">
    <image
       y="-600.42352"
       x="359.42856"
       id="image3044"
       xlink:href="file:///home/rodrigo/tesis_ulsa/thesis/media/ch0_intro/tipos_de_variante_causa.png"
       height="2557"
       width="864" />
  </g>
  <g
     inkscape:groupmode="layer"
     id="layer2"
     inkscape:label="es">
    <rect
       style="fill:#eff9f8;fill-opacity:1;stroke:#ffffff;stroke-width:0;stroke-linecap:round;stroke-linejoin:round;stroke-miterlimit:4;stroke-opacity:1;stroke-dasharray:none"
       id="rect3051"
       width="257.68719"
       height="36.19632"
       x="151.88319"
       y="326.5686" />
    <text
       xml:space="preserve"
       style="font-size:31.81195068px;font-style:normal;font-variant:normal;font-weight:normal;font-stretch:normal;line-height:125%;letter-spacing:0px;word-spacing:0px;fill:#000000;fill-opacity:1;stroke:none;font-family:Arial;-inkscape-font-specification:Sans"
       x="174.54404"
       y="350.96127"
       id="text3047"
       sodipodi:linespacing="125%"><tspan
         sodipodi:role="line"
         id="tspan3049"
         x="174.54404"
         y="350.96127">Cambio de base</tspan></text>
    <rect
       y="41.978588"
       x="86.208572"
       height="47.785957"
       width="399.33835"
       id="rect3846"
       style="fill:#4d4e4f;fill-opacity:1;stroke:#ffffff;stroke-width:0;stroke-linecap:round;stroke-linejoin:round;stroke-miterlimit:4;stroke-opacity:1;stroke-dasharray:none" />
    <text
       sodipodi:linespacing="125%"
       id="text3848"
       y="77.960899"
       x="74.100502"
       style="font-size:31.81195067999999893px;font-style:normal;font-variant:normal;font-weight:normal;font-stretch:normal;line-height:125%;letter-spacing:0px;word-spacing:0px;fill:#ffffff;fill-opacity:1;stroke:none;font-family:Arial;-inkscape-font-specification:Sans"
       xml:space="preserve"><tspan
         y="77.960899"
         x="74.100502"
         id="tspan3850"
         sodipodi:role="line">Cambios de un sólo par de bases</tspan></text>
    <rect
       style="fill:#4d4e4f;fill-opacity:1;stroke:#ffffff;stroke-width:0;stroke-linecap:round;stroke-linejoin:round;stroke-miterlimit:4;stroke-opacity:1;stroke-dasharray:none"
       id="rect3852"
       width="399.33835"
       height="47.785957"
       x="83.633095"
       y="652.36621" />
    <text
       xml:space="preserve"
       style="font-size:31.81195068px;font-style:normal;font-variant:normal;font-weight:normal;font-stretch:normal;line-height:125%;letter-spacing:0px;word-spacing:0px;fill:#ffffff;fill-opacity:1;stroke:none;font-family:Arial;-inkscape-font-specification:Sans"
       x="71.525024"
       y="688.34851"
       id="text3854"
       sodipodi:linespacing="125%"><tspan
         sodipodi:role="line"
         id="tspan3856"
         x="71.525024"
         y="688.34851">Inserciones y deleciones</tspan></text>
    <rect
       y="562.22461"
       x="51.439674"
       height="70.965233"
       width="561.59326"
       id="rect3858"
       style="fill:#eff9f8;fill-opacity:1;stroke:#ffffff;stroke-width:0;stroke-linecap:round;stroke-linejoin:round;stroke-miterlimit:4;stroke-opacity:1;stroke-dasharray:none" />
    <rect
       y="935.66846"
       x="375.94952"
       height="36.19632"
       width="257.68719"
       id="rect3864"
       style="fill:#eff9f8;fill-opacity:1;stroke:#ffffff;stroke-width:0;stroke-linecap:round;stroke-linejoin:round;stroke-miterlimit:4;stroke-opacity:1;stroke-dasharray:none" />
    <text
       sodipodi:linespacing="125%"
       id="text3866"
       y="960.06116"
       x="398.61035"
       style="font-size:31.81195068px;font-style:normal;font-variant:normal;font-weight:normal;font-stretch:normal;line-height:125%;letter-spacing:0px;word-spacing:0px;fill:#000000;fill-opacity:1;stroke:none;font-family:Arial;-inkscape-font-specification:Sans"
       xml:space="preserve"><tspan
         y="960.06116"
         x="398.61035"
         id="tspan3868"
         sodipodi:role="line">Deleción</tspan></text>
    <rect
       style="fill:#eff9f8;fill-opacity:1;stroke:#ffffff;stroke-width:0;stroke-linecap:round;stroke-linejoin:round;stroke-miterlimit:4;stroke-opacity:1;stroke-dasharray:none"
       id="rect3870"
       width="739.30109"
       height="82.554871"
       x="48.864166"
       y="1181.6263" />
    <rect
       style="fill:#eff9f8;fill-opacity:1;stroke:#ffffff;stroke-width:0;stroke-linecap:round;stroke-linejoin:round;stroke-miterlimit:4;stroke-opacity:1;stroke-dasharray:none"
       id="rect3872"
       width="257.68719"
       height="36.19632"
       x="213.6946"
       y="1522.8768" />
    <text
       xml:space="preserve"
       style="font-size:31.81195068px;font-style:normal;font-variant:normal;font-weight:normal;font-stretch:normal;line-height:125%;letter-spacing:0px;word-spacing:0px;fill:#000000;fill-opacity:1;stroke:none;font-family:Arial;-inkscape-font-specification:Sans"
       x="215.75162"
       y="1549.845"
       id="text3874"
       sodipodi:linespacing="125%"><tspan
         sodipodi:role="line"
         id="tspan3876"
         x="215.75162"
         y="1549.845">Inserción de base:</tspan></text>
    <rect
       y="1776.5612"
       x="43.713215"
       height="82.554871"
       width="739.30109"
       id="rect3878"
       style="fill:#eff9f8;fill-opacity:1;stroke:#ffffff;stroke-width:0;stroke-linecap:round;stroke-linejoin:round;stroke-miterlimit:4;stroke-opacity:1;stroke-dasharray:none" />
    <rect
       y="1883.4434"
       x="88.784042"
       height="47.785957"
       width="422.51764"
       id="rect3880"
       style="fill:#4d4e4f;fill-opacity:1;stroke:#ffffff;stroke-width:0;stroke-linecap:round;stroke-linejoin:round;stroke-miterlimit:4;stroke-opacity:1;stroke-dasharray:none" />
    <text
       sodipodi:linespacing="125%"
       id="text3882"
       y="1919.4257"
       x="76.675972"
       style="font-size:31.81195068px;font-style:normal;font-variant:normal;font-weight:normal;font-stretch:normal;line-height:125%;letter-spacing:0px;word-spacing:0px;fill:#ffffff;fill-opacity:1;stroke:none;font-family:Arial;-inkscape-font-specification:Sans"
       xml:space="preserve"><tspan
         y="1919.4257"
         x="76.675972"
         id="tspan3884"
         sodipodi:role="line">Reordenamientos estructurales</tspan></text>
    <rect
       y="2272.3401"
       x="632.20929"
       height="36.19632"
       width="192.01257"
       id="rect3886"
       style="fill:#eff9f8;fill-opacity:1;stroke:#ffffff;stroke-width:0;stroke-linecap:round;stroke-linejoin:round;stroke-miterlimit:4;stroke-opacity:1;stroke-dasharray:none" />
    <text
       sodipodi:linespacing="125%"
       id="text3888"
       y="2299.3083"
       x="634.2663"
       style="font-size:31.81195068px;font-style:normal;font-variant:normal;font-weight:normal;font-stretch:normal;line-height:125%;letter-spacing:0px;word-spacing:0px;fill:#000000;fill-opacity:1;stroke:none;font-family:Arial;-inkscape-font-specification:Sans"
       xml:space="preserve"><tspan
         y="2299.3083"
         x="634.2663"
         id="tspan3890"
         sodipodi:role="line">traslocación</tspan></text>
    <rect
       style="fill:#eff9f8;fill-opacity:1;stroke:#ffffff;stroke-width:0;stroke-linecap:round;stroke-linejoin:round;stroke-miterlimit:4;stroke-opacity:1;stroke-dasharray:none"
       id="rect3892"
       width="739.30109"
       height="82.554871"
       x="55.302853"
       y="2426.8687" />
    <rect
       style="fill:#eff9f8;fill-opacity:1;stroke:#ffffff;stroke-width:0;stroke-linecap:round;stroke-linejoin:round;stroke-miterlimit:4;stroke-opacity:1;stroke-dasharray:none"
       id="rect3894"
       width="231.93243"
       height="36.19632"
       x="185.36432"
       y="2035.3964" />
    <text
       xml:space="preserve"
       style="font-size:31.81195068px;font-style:normal;font-variant:normal;font-weight:normal;font-stretch:normal;line-height:125%;letter-spacing:0px;word-spacing:0px;fill:#000000;fill-opacity:1;stroke:none;font-family:Arial;-inkscape-font-specification:Sans"
       x="186.13361"
       y="2066.2278"
       id="text3896"
       sodipodi:linespacing="125%"><tspan
         sodipodi:role="line"
         id="tspan3898"
         x="186.13361"
         y="2066.2278">cromosoma 22</tspan></text>
    <rect
       y="1950.4056"
       x="45.000919"
       height="36.19632"
       width="231.93243"
       id="rect3900"
       style="fill:#eff9f8;fill-opacity:1;stroke:#ffffff;stroke-width:0;stroke-linecap:round;stroke-linejoin:round;stroke-miterlimit:4;stroke-opacity:1;stroke-dasharray:none" />
    <text
       sodipodi:linespacing="125%"
       id="text3902"
       y="1981.2371"
       x="45.770206"
       style="font-size:31.81195068px;font-style:normal;font-variant:normal;font-weight:normal;font-stretch:normal;line-height:125%;letter-spacing:0px;word-spacing:0px;fill:#000000;fill-opacity:1;stroke:none;font-family:Arial;-inkscape-font-specification:Sans"
       xml:space="preserve"><tspan
         y="1981.2371"
         x="45.770206"
         id="tspan3904"
         sodipodi:role="line">cromosoma 9</tspan></text>
  </g>
</svg>
