##FastQC	0.10.0
>>Basic Statistics	pass
#Measure	Value	
Filename	exm2_F3-P2.fastq	
File type	Colorspace converted to bases	
Encoding	Sanger / Illumina 1.9	
Total Sequences	110791533	
Filtered Sequences	0	
Sequence length	35	
%GC	49	
>>END_MODULE
>>Per base sequence quality	fail
#Base	Mean	Median	Lower Quartile	Upper Quartile	10th Percentile	90th Percentile
1	25.266443835559166	31.0	19.0	33.0	6.0	33.0
2	26.94000796071664	31.0	25.0	33.0	10.0	33.0
3	25.077298795026152	30.0	20.0	33.0	6.0	33.0
4	25.3473530779649	30.0	21.0	33.0	7.0	33.0
5	25.25827521494806	30.0	20.0	33.0	6.0	33.0
6	24.4719662377088	30.0	17.0	33.0	6.0	33.0
7	24.84058433418373	30.0	19.0	33.0	6.0	33.0
8	24.16825498749981	29.0	17.0	32.0	6.0	33.0
9	23.91860932188744	29.0	16.0	32.0	6.0	33.0
10	24.048582764894135	29.0	17.0	32.0	6.0	33.0
11	23.162953977719578	28.0	14.0	32.0	5.0	33.0
12	22.909774946430247	28.0	14.0	32.0	5.0	33.0
13	22.566946762980525	27.0	13.0	32.0	5.0	33.0
14	22.145369321679123	27.0	12.0	31.0	5.0	33.0
15	22.621660754527152	27.0	13.0	32.0	5.0	33.0
16	21.854550500713806	26.0	11.0	31.0	5.0	33.0
17	21.303680904929802	25.0	10.0	31.0	5.0	33.0
18	20.71122371779078	24.0	9.0	30.0	4.0	33.0
19	20.843545174160557	24.0	10.0	31.0	5.0	33.0
20	21.29076377163226	25.0	10.0	31.0	5.0	33.0
21	20.466414586031586	24.0	9.0	30.0	4.0	32.0
22	19.704490080482955	22.0	8.0	30.0	4.0	32.0
23	18.885352827458394	21.0	8.0	29.0	4.0	32.0
24	19.276714340616625	22.0	8.0	29.0	4.0	32.0
25	19.89603644170173	23.0	8.0	30.0	4.0	32.0
26	18.935543729681942	21.0	8.0	29.0	4.0	32.0
27	18.69635815040126	20.0	8.0	29.0	4.0	32.0
28	16.740666021834	16.0	6.0	27.0	4.0	31.0
29	17.475799545078956	18.0	7.0	27.0	4.0	31.0
30	18.3142440767563	20.0	7.0	28.0	4.0	31.0
31	17.280375044544243	17.0	7.0	27.0	4.0	31.0
32	17.138487866216273	17.0	7.0	27.0	4.0	31.0
33	14.923213428231922	13.0	6.0	24.0	4.0	29.0
34	15.679805946903903	14.0	6.0	25.0	4.0	30.0
35	16.552978655868944	16.0	6.0	26.0	4.0	30.0
>>END_MODULE
>>Per sequence quality scores	warn
#Quality	Count
2	556.0
3	92223.0
4	1438688.0
5	2379638.0
6	2187101.0
7	1838437.0
8	1733637.0
9	1761108.0
10	1836428.0
11	1995447.0
12	2229778.0
13	2511416.0
14	2816030.0
15	3130668.0
16	3438624.0
17	3740970.0
18	4027663.0
19	4318562.0
20	4647064.0
21	5045179.0
22	5524587.0
23	6087690.0
24	6674857.0
25	7230467.0
26	7613797.0
27	7706338.0
28	7314255.0
29	6125229.0
30	3934928.0
31	1337613.0
32	72554.0
33	1.0
>>END_MODULE
>>Per base sequence content	pass
#Base	G	A	T	C
1	22.717512627230217	28.72238507538929	16.217652592014286	32.342449705366214
2	27.52607961839398	23.382527535663712	24.468095332986252	24.623297512956057
3	22.5328315216659	26.21767873543373	24.285964259198416	26.96352548370195
4	23.21433472187746	27.1864661512764	23.85739439070598	25.741804736140157
5	25.879286325827135	26.146283008112114	23.723271030642106	24.251159635418645
6	25.628458959128935	25.27757513321699	24.61209184207694	24.481874065577138
7	25.761858363703222	26.07223075238715	23.824660004985233	24.34125087892439
8	24.400220511307314	25.1863280274478	25.21090952678804	25.202541934456846
9	24.446442728832857	24.891164128305594	25.863801737567393	24.798591405294154
10	25.08011509199269	25.425913858369746	24.89464290322237	24.599328146415196
11	25.129552184179303	25.54602049822437	24.852652542991425	24.471774774604903
12	25.12527395395758	25.569248172690518	24.839758304491227	24.46571956886067
13	25.179906302276265	25.66654795517839	24.76655854369388	24.38698719885146
14	25.11183127621121	25.623561327829087	24.97618256849757	24.288424827462133
15	25.026869549628373	25.566079274425835	24.997018067139244	24.41003310880655
16	25.091131670113615	25.545550736302484	25.103520438056982	24.259797155526925
17	25.190707672038844	25.665813726872756	25.007066216058032	24.13641238503037
18	25.144100989725832	25.565712639718168	25.03087080759656	24.259315562959436
19	25.120512493921172	25.60435823582694	25.014168160586514	24.260961109665377
20	25.146676855535542	25.623112181783963	25.040587100649176	24.18962386203131
21	25.152069124343168	25.58982165719767	25.107326109232776	24.15078310922639
22	25.33977032204427	25.63605423799567	24.978010684241	24.046164755719055
23	25.32124758766525	25.65931833713672	25.017748342825	24.001685732373023
24	25.25854540079349	25.650863647300543	24.989944902852322	24.10064604905365
25	25.24997300215909	25.634866111415676	24.971136528314812	24.144024358110418
26	25.285198724250392	25.656344123970854	24.99594544986131	24.06251170191745
27	25.275728654658074	25.600097875179696	25.05262671380686	24.07154675635537
28	25.27460642706106	25.611713708330363	25.004310466243446	24.109369398365132
29	25.242242042537466	25.64059961152524	24.98154224633137	24.135616099605926
30	25.187651670071244	25.62091412868044	25.01238802344809	24.179046177800227
31	25.226691027498916	25.589322710165792	24.973559277224492	24.210426985110807
32	25.298147107633216	25.556102154469578	24.99108426803153	24.154666469865678
33	25.19701116853416	25.504008910297323	25.036067436273335	24.26291248489518
34	25.18976964053913	25.500877104290854	24.97287074942203	24.33648250574799
35	25.17582276868629	25.51403158454526	24.965028559167205	24.34511708760125
>>END_MODULE
>>Per base GC content	warn
#Base	%GC
1	55.05996233259643
2	52.14937713135003
3	49.496357005367855
4	48.95613945801762
5	50.130445961245776
6	50.11033302470608
7	50.10310924262762
8	49.60276244576416
9	49.24503413412701
10	49.679443238407885
11	49.601326958784206
12	49.59099352281825
13	49.56689350112773
14	49.40025610367334
15	49.436902658434924
16	49.35092882564054
17	49.327120057069216
18	49.40341655268527
19	49.38147360358654
20	49.33630071756686
21	49.30285223356955
22	49.38593507776333
23	49.322933320038274
24	49.35919144984714
25	49.39399736026951
26	49.34771042616784
27	49.347275411013456
28	49.38397582542619
29	49.377858142143396
30	49.36669784787147
31	49.437118012609716
32	49.452813577498894
33	49.459923653429335
34	49.52625214628712
35	49.52093985628754
>>END_MODULE
>>Per sequence GC content	pass
#GC Content	Count
0	69600.0
1	78015.5
2	86431.0
3	86431.0
4	69576.5
5	52722.0
6	52722.0
7	53688.5
8	54655.0
9	54655.0
10	56076.5
11	57498.0
12	57498.0
13	61284.5
14	65071.0
15	65071.0
16	86143.0
17	107215.0
18	107215.0
19	159034.5
20	210854.0
21	307215.0
22	403576.0
23	403576.0
24	570736.0
25	737896.0
26	737896.0
27	1005247.0
28	1272598.0
29	1272598.0
30	1684433.5
31	2096269.0
32	2096269.0
33	2701847.5
34	3307426.0
35	3307426.0
36	4141350.0
37	4975274.0
38	4975274.0
39	6042320.5
40	7109367.0
41	8311688.5
42	9514010.0
43	9514010.0
44	1.06835265E7
45	1.1853043E7
46	1.1853043E7
47	1.26809665E7
48	1.350889E7
49	1.350889E7
50	1.3690861E7
51	1.3872832E7
52	1.3872832E7
53	1.32796485E7
54	1.2686465E7
55	1.2686465E7
56	1.150499E7
57	1.0323515E7
58	1.0323515E7
59	8922411.0
60	7521307.0
61	6224529.5
62	4927752.0
63	4927752.0
64	3925008.0
65	2922264.0
66	2922264.0
67	2251902.5
68	1581541.0
69	1581541.0
70	1187734.5
71	793928.0
72	793928.0
73	584195.0
74	374462.0
75	374462.0
76	271805.0
77	169148.0
78	169148.0
79	121771.0
80	74394.0
81	53743.5
82	33093.0
83	33093.0
84	24000.5
85	14908.0
86	14908.0
87	10993.0
88	7078.0
89	7078.0
90	5278.0
91	3478.0
92	3478.0
93	2657.5
94	1837.0
95	1837.0
96	1348.0
97	859.0
98	859.0
99	568.0
100	277.0
>>END_MODULE
>>Per base N content	pass
#Base	N-Count
1	0.015560755892781084
2	0.09762930169040986
3	0.12102188350440102
4	0.15097994898220246
5	0.15608593483402744
6	0.16169015370515724
7	0.2501924041433744
8	0.2651809141407945
9	0.2688490644858213
10	0.27713670141201135
11	0.2898994095514501
12	0.29373544276167746
13	0.30839721298919115
14	0.3408690084647534
15	0.3474597648179487
16	0.3475662711517856
17	0.3515124210800477
18	0.3742181273003958
19	0.37982956693992126
20	0.38154810981810316
21	0.3822205438749548
22	0.3839950477082035
23	0.39240453510107126
24	0.3967279701780099
25	0.39724696290645245
26	0.4028908960037587
27	0.40337739527442046
28	0.41107924736450757
29	0.4138375808916734
30	0.4162592460923886
31	0.4184534570886387
32	0.42140765395853846
33	0.44586349391879976
34	0.4638287656873563
35	0.49204662598178867
>>END_MODULE
>>Sequence Length Distribution	pass
#Length	Count
35	1.10791533E8
>>END_MODULE
>>Sequence Duplication Levels	pass
#Total Duplicate Percentage	18.246217981563756
#Duplication Level	Relative count
1	100.0
2	9.32706174432119
3	4.19437869282398
4	2.277609088530416
5	1.3727721356464382
6	0.8518976019082506
7	0.638923201431188
8	0.4003918728968778
9	0.31459361441897543
10++	2.3220294634870604
>>END_MODULE
>>Overrepresented sequences	pass
>>END_MODULE
>>Kmer Content	pass
>>END_MODULE
