#Coverage (X)	Coverage
1.0	93.30931086234808
2.0	91.61596063795616
3.0	90.28177757800441
4.0	89.0952095549544
5.0	87.98613433342804
6.0	86.92333516973412
7.0	85.88318318124888
8.0	84.86031971998756
9.0	83.84909899824713
10.0	82.83802378649905
11.0	81.82515589164527
12.0	80.80986865065208
13.0	79.7897427173801
14.0	78.76508075261339
15.0	77.73469733494763
16.0	76.69405061248841
17.0	75.64873980974122
18.0	74.5991665342849
19.0	73.54487291467689
20.0	72.48514110162162
21.0	71.42304620629064
22.0	70.36307381671469
23.0	69.30326633846337
24.0	68.2471198916195
25.0	67.1935712831723
26.0	66.14131480345713
27.0	65.0933964616471
28.0	64.05290300971316
29.0	63.0196772968636
30.0	61.99433240519947
31.0	60.97652881140532
32.0	59.961903155844006
33.0	58.959343188848
34.0	57.968474464703675
35.0	56.98821244893474
36.0	56.01674505710318
37.0	55.05963853144954
38.0	54.11261293806561
39.0	53.17756378711835
40.0	52.252351111653674
41.0	51.340280898697664
42.0	50.43722842500063
43.0	49.55002489966991
44.0	48.67403728454919
45.0	47.80891635565686
46.0	46.955696204005186
47.0	46.111693625335306
48.0	45.282191602435994
49.0	44.46292184219843
50.0	43.65593506544809
51.0	42.86345660500124
