#Position (bp)	insert size
3877256.5	168.52687777732362
1.16317685E7	170.8280429073499
1.93862805E7	170.22368760609783
2.71407925E7	170.82218075113948
3.48953045E7	170.8813567195469
4.26498165E7	171.16147682465314
5.04043285E7	171.2417770996597
5.81588405E7	171.55395532238137
6.59133525E7	171.91149486887053
7.36678645E7	171.61409293099913
8.14223765E7	171.3834876117891
8.91768885E7	172.73850504603914
9.69314005E7	171.66937265818865
1.046859125E8	171.10801152661432
1.124404245E8	171.4393035506772
1.201949365E8	172.04362641100158
1.279494485E8	NaN
1.357039605E8	NaN
1.434584725E8	170.97650043555143
1.512129845E8	179.44799201862247
1.589674965E8	171.29554078420156
1.667220085E8	171.24028666329548
1.744765205E8	172.27424508485615
1.822310325E8	171.10377579552883
1.899855445E8	171.33157104036127
1.977400565E8	171.53367925664028
2.054945685E8	170.96994037666605
2.132490805E8	171.76566842318135
2.210035925E8	171.8818280774772
2.287581045E8	172.03365198665958
2.365126165E8	172.12817404163977
2.442671285E8	172.5220180771237
2.48697503E8	174.94384921060453
2.52574759E8	170.7190856464226
2.597761525E8	170.49830250815938
2.675306645E8	172.64204139775038
2.752851765E8	170.90934760804151
2.830396885E8	171.11716724030194
2.907942005E8	171.8738749029891
2.985487125E8	171.91343701852935
3.063032245E8	171.95800782408185
3.140577365E8	171.61858379201763
3.218122485E8	171.69549309851388
3.295667605E8	172.65916375466924
3.373212725E8	171.21521710843257
3.450757845E8	172.20842447564033
3.528302965E8	172.8193961366275
3.605848085E8	171.6565577833228
3.683393205E8	170.80967232223804
3.760938325E8	170.256781588702
3.838483445E8	171.78730494672118
3.916028565E8	171.78874245817752
3.993573685E8	172.32031576986168
4.071118805E8	171.79329333704808
4.148663925E8	172.6090288828525
4.226209045E8	171.57290971202931
4.303754165E8	176.20559686441092
4.381299285E8	172.5176791594891
4.458844405E8	171.50021503966641
4.536389525E8	171.92369735547072
4.613934645E8	171.53924233045765
4.691479765E8	170.5515213581565
4.769024885E8	171.66145034529558
4.846570005E8	171.0833536848466
4.904921255E8	169.1827009779485
4.943693815E8	172.35576752145823
5.001660245E8	171.24006233652233
5.079205365E8	170.74002145987174
5.156750485E8	172.05223780816777
5.234295605E8	171.40434542811857
5.311840725E8	172.03509771234786
5.389385845E8	171.5131428768386
5.466930965E8	170.71503048470979
5.544476085E8	171.99634070071286
5.622021205E8	171.80503679739434
5.699566325E8	170.49692940854942
5.777111445E8	173.91379538880182
5.854656565E8	172.50848819013547
5.932201685E8	172.39890962155732
6.009746805E8	171.9394909229312
6.087291925E8	171.59925495023614
6.164837045E8	171.77348108195594
6.242382165E8	171.21606892374282
6.319927285E8	171.84713073186626
6.397472405E8	172.41725177950104
6.475017525E8	171.56782605280122
6.552562645E8	172.39763129973923
6.630107765E8	171.81366496325757
6.707652885E8	171.1872971868368
6.785198005E8	171.27282298722966
6.862743125E8	210.3677802635112
6.903119965E8	171.03887211454173
6.941892525E8	170.74900412169015
7.017833365E8	171.55485864832107
7.095378485E8	172.02672417626394
7.172923605E8	171.47322014075473
7.250468725E8	172.96240897299148
7.328013845E8	172.14142141264355
7.405558965E8	171.46332006355794
7.483104085E8	171.39565823762055
7.560649205E8	171.77782821777882
7.638194325E8	171.95402658164525
7.715739445E8	171.65832157772363
7.793284565E8	172.69971484667164
7.870829685E8	172.26380380252064
7.948374805E8	171.587105223246
8.025919925E8	171.74417725664463
8.103465045E8	172.3593617407239
8.181010165E8	172.9280371105538
8.258555285E8	173.08535947956432
8.336100405E8	172.4032498653324
8.413645525E8	171.73111969510822
8.491190645E8	172.01274752635743
8.568735765E8	172.36657146240378
8.646280885E8	171.95024522269162
8.723826005E8	172.05874198594296
8.789432785E8	172.909803719186
8.828205345E8	169.58301587875482
8.878916245E8	171.86610014430286
8.956461365E8	171.52789456394305
9.034006485E8	174.69828343253448
9.111551605E8	170.93076311391118
9.189096725E8	172.0248789116627
9.266641845E8	171.35902069747945
9.344186965E8	171.5176279000717
9.421732085E8	172.03654588393235
9.499277205E8	172.36240628014278
9.576822325E8	172.51656337934577
9.654367445E8	171.9478293843948
9.731912565E8	172.00034238113525
9.809457685E8	171.8249987447909
9.887002805E8	172.40855869900554
9.964547925E8	173.21955918095782
1.0042093045E9	171.50686762732659
1.0119638165E9	171.21630139984936
1.0197183285E9	172.64655012566212
1.0274728405E9	171.00713223709866
1.0352273525E9	171.5698441403197
1.0429818645E9	171.73815881160323
1.0507363765E9	171.45220771295095
1.0584908885E9	171.22290595633248
1.0624550525E9	NaN
1.0663323085E9	171.4666435669794
1.0739999125E9	171.77927074392676
1.0817544245E9	171.16186886018804
1.0895089365E9	172.26328873419305
1.0972634485E9	171.10818075685066
1.1050179605E9	170.88465347683402
1.1127724725E9	172.25891833962226
1.1205269845E9	172.3748904682563
1.1282814965E9	172.13677126063254
1.1360360085E9	172.07864468150362
1.1437905205E9	171.80492058680724
1.1515450325E9	172.936630908165
1.1592995445E9	171.97851736171975
1.1670540565E9	172.1400496025817
1.1748085685E9	171.66429487733575
1.1825630805E9	171.8461219795873
1.1903175925E9	170.70342489768151
1.1980721045E9	175.95322878220765
1.2058266165E9	172.50570740803104
1.2135811285E9	172.00188612813244
1.2213356405E9	171.9348142629358
1.2290901525E9	170.85869950037488
1.233312218E9	169.103069389705
1.237189474E9	169.636702248228
1.2445991765E9	171.26939074651233
1.2523536885E9	172.28522764762803
1.2601082005E9	171.94900396799096
1.2678627125E9	171.66996278251455
1.2756172245E9	170.69979112007772
1.2833717365E9	172.07189862193914
1.2911262485E9	171.3858306101783
1.2988807605E9	171.31564935029772
1.3066352725E9	169.14993564787542
1.3143897845E9	172.48383927648092
1.3221442965E9	172.23704796011515
1.3298988085E9	171.6729087009848
1.3376533205E9	190.77821053934653
1.3454078325E9	171.71161579069607
1.3531623445E9	172.20210187884706
1.3609168565E9	170.94209351099744
1.3686713685E9	170.95524388975926
1.3764258805E9	172.17809177020442
1.3841803925E9	170.89541307446507
1.3904266695E9	170.82906853310124
1.3943039255E9	170.07948838694486
1.3996894165E9	175.36828589470224
1.4074439285E9	179.32078722193495
1.4151984405E9	170.5449930875943
1.4229529525E9	171.4936306273047
1.4307074645E9	171.05597849002154
1.4384619765E9	171.3732848473463
1.4462164885E9	172.2891704193622
1.4539710005E9	172.22863365620276
1.4617255125E9	171.58644285810277
1.4694800245E9	173.22716594518383
1.4772345365E9	170.9325909217789
1.4849890485E9	171.262193063488
1.4927435605E9	172.32191610172993
1.5004980725E9	171.87359003498452
1.5082525845E9	172.06906940281536
1.5160070965E9	172.07686480372428
1.5237616085E9	170.65206107175922
1.5315161205E9	170.5754963966789
1.5372765445E9	169.85879500540392
1.5411538005E9	172.05567710093976
1.5470251445E9	172.4819191770525
1.5547796565E9	171.73987344110068
1.5625341685E9	172.4508602504944
1.5702886805E9	172.1472486785622
1.5780431925E9	171.67023523201632
1.5857977045E9	172.8067243195299
1.5935522165E9	NaN
1.6013067285E9	172.33766233766235
1.6090612405E9	171.1200586362479
1.6168157525E9	172.1061519808395
1.6245702645E9	172.05200174619057
1.6323247765E9	171.1337823316799
1.6400792885E9	171.6431142503216
1.6478338005E9	172.333421800132
1.6555883125E9	171.48130475457452
1.6633428245E9	171.77784896679512
1.6710973365E9	170.67487569641617
1.677673868E9	180.40915600363886
1.681551124E9	171.08654522092542
1.6866063605E9	171.54073282842256
1.6943608725E9	171.20589009742562
1.7021153845E9	172.07843848108524
1.7098698965E9	171.94206703471235
1.7176244085E9	171.7151852995578
1.7253789205E9	171.51060657617145
1.7331334325E9	171.98502116204367
1.7408879445E9	172.54568844836356
1.7486424565E9	171.7977243894972
1.7563969685E9	171.0407325949937
1.7641514805E9	170.4277678277994
1.7719059925E9	172.1543456708308
1.7796605045E9	171.73731163465527
1.7874150165E9	170.87756869092945
1.7951695285E9	170.98730606704112
1.8029240405E9	172.38910482697756
1.8106785525E9	173.0218909826496
1.8152318495E9	168.79471562246357
1.8191091055E9	182.09837328883336
1.8261875765E9	172.03663394758465
1.8339420885E9	170.78312057664095
1.8416966005E9	171.4826163302565
1.8494511125E9	171.76628844020286
1.8572056245E9	170.80310156618503
1.8649601365E9	171.65444627112197
1.8727146485E9	173.34320349097217
1.8804691605E9	172.73419189777428
1.8882236725E9	170.2657333310593
1.8959781845E9	171.18381893024463
1.9037326965E9	172.36790216543667
1.9114872085E9	172.76127985496262
1.9192417205E9	172.0203153114413
1.9269962325E9	172.13534293062813
1.9347507445E9	170.75155012692724
1.9425052565E9	171.54877426744955
1.9486484595E9	170.98425191668585
1.9525257155E9	170.85808965678942
1.9580142805E9	171.4898797255975
1.9657687925E9	171.17745114032925
1.9735233045E9	171.7196373037521
1.9812778165E9	171.90192275347746
1.9890323285E9	171.10135135135135
1.9967868405E9	171.33723619353088
2.0045413525E9	171.25944040218081
2.0122958645E9	170.24109651902688
2.0200503765E9	171.8471701388261
2.0278048885E9	181.06267479594848
2.0355594005E9	172.51232777162414
2.0433139125E9	171.7777234024088
2.0510684245E9	171.48446320597628
2.0588229365E9	172.20335186697938
2.0665774485E9	170.59803916470423
2.0743319605E9	170.92615966308765
2.081487759E9	169.26591486552556
2.085365015E9	NaN
2.0898409845E9	NaN
2.0975954965E9	NaN
2.1053500085E9	184.33148637820167
2.1131045205E9	172.22552692381424
2.1208590325E9	171.9218890806083
2.1286135445E9	171.47079272559304
2.1363680565E9	172.19864008593214
2.1441225685E9	171.86105791110438
2.1518770805E9	176.71337432935405
2.1596315925E9	171.66186742782736
2.1673861045E9	172.79103243997832
2.1751406165E9	172.76370070014607
2.1828951285E9	171.43613582803079
2.1906496405E9	172.5234905360377
2.197231538E9	170.0018066720302
2.201108794E9	NaN
2.2061586645E9	NaN
2.2139131765E9	NaN
2.2216676885E9	171.69461094132174
2.2294222005E9	171.82764998949733
2.2371767125E9	172.12294402863319
2.2449312245E9	173.05206711262198
2.2526857365E9	171.247634109032
2.2604402485E9	172.3242568435527
2.2681947605E9	171.5566885962344
2.2759492725E9	170.9986286993507
2.2837037845E9	171.79784300554093
2.2914582965E9	171.22707468972425
2.2992128085E9	171.3907606153007
2.305187892E9	187.3756998239417
2.309065148E9	NaN
2.3147218325E9	NaN
2.3224763445E9	NaN
2.3302308565E9	174.8588754770604
2.3379853685E9	171.68799440999297
2.3457398805E9	171.5068804806067
2.3534943925E9	171.70467859361113
2.3612489045E9	172.47600039704957
2.3690034165E9	171.8281272243557
2.3767579285E9	171.05242159108556
2.3845124405E9	171.02989022480548
2.3922669525E9	171.34015471096066
2.4000214645E9	171.48294884126648
2.406857916E9	179.4273681459983
2.410735172E9	167.8635331093006
2.4155304885E9	170.61092903089877
2.4232850005E9	169.69253313715524
2.4310395125E9	171.6625807907708
2.4387940245E9	170.15799372614654
2.4465485365E9	172.1589381657525
2.4543030485E9	171.52827885999656
2.4620575605E9	171.82863931373228
2.4698120725E9	170.08323530035184
2.4775665845E9	171.11395758137027
2.4853210965E9	170.95666762605276
2.4930756085E9	170.35420125095675
2.4985623645E9	170.11030239248763
2.5024396205E9	170.20408649439804
2.5085846325E9	171.03756016047907
2.5163391445E9	170.94638851402223
2.5240936565E9	171.36553951904392
2.5318481685E9	172.18588354508043
2.5396026805E9	171.0078115595334
2.5473571925E9	170.63621504506438
2.5551117045E9	171.273626328004
2.5628662165E9	171.6661331218394
2.5706207285E9	170.03835259743644
2.5779325295E9	169.6731063929829
2.5818097855E9	170.25852688879036
2.5861297525E9	171.28754940640283
2.5938842645E9	172.01007069853225
2.6016387765E9	171.92527262503373
2.6093932885E9	172.76160257789826
2.6171478005E9	172.10591467930865
2.6249023125E9	170.81106661292796
2.6326568245E9	171.0250087381584
2.6404113365E9	172.07431095566315
2.6481658485E9	173.21238788107948
2.6557437135E9	172.30255125474213
2.6596209695E9	168.28136575407865
2.6636748725E9	170.127447832397
2.6714293845E9	172.37903443620857
2.6791838965E9	170.91183942688528
2.6869384085E9	170.13252550277335
2.6946929205E9	170.92996914461983
2.7024474325E9	171.16918397821235
2.7102019445E9	171.1856214756563
2.716326253E9	172.29017884720653
2.720203509E9	170.80279923973654
2.7257109685E9	171.05697358261108
2.7334654805E9	171.78171920870963
2.7412199925E9	170.1602685729859
2.7489745045E9	170.7978640000628
2.7567290165E9	171.0861404048164
2.7644835285E9	171.19869105611832
2.7722380405E9	170.91342630499037
2.778857061E9	169.21532569187778
2.782734317E9	NaN
2.7877470645E9	166.55535055350555
2.7955015765E9	171.2061959247555
2.8032560885E9	172.70788051547004
2.8110106005E9	172.59045097350034
2.8187651125E9	171.44371981175627
2.8261855445E9	169.8940558185807
2.8300628005E9	NaN
2.8342741365E9	NaN
2.8420286485E9	182.0
2.8497831605E9	171.2081451728361
2.8575376725E9	170.98347761487736
2.8652921845E9	170.83357409573546
2.8730466965E9	170.43621726812492
2.8789786195E9	169.59777673198596
2.8828558755E9	171.49702045619568
2.8885557205E9	170.43953091979108
2.8963102325E9	172.16429303308684
2.9040647445E9	172.29125931632706
2.9118192565E9	171.7516979129202
2.9195737685E9	171.01865938023718
2.9273282805E9	171.3346881346747
2.9350827925E9	170.98835430319915
2.9428373045E9	173.40814519536346
2.9505918165E9	172.30432762550984
2.9583463285E9	171.9023465867547
2.9661008405E9	171.78958937930437
2.9738553525E9	174.18742746615087
2.9816098645E9	172.53833187170235
2.9893643765E9	172.218117659264
2.9971188885E9	172.4987344967322
3.0048734005E9	172.10831382949257
3.0126279125E9	171.95795724142064
3.0203824245E9	172.36789187147937
3.0281369365E9	172.67183453693687
3.0341590195E9	170.74161168426457
3.0380362755E9	173.2307446708611
3.0436459605E9	171.32788679245283
3.0514004725E9	171.63571007795386
3.0591549845E9	172.51878264453185
3.0669094965E9	175.53053477726917
3.0746640085E9	NaN
3.0824185205E9	NaN
3.0901730325E9	NaN
3.0948638505E9	NaN
3.095685697E9	NaN
3.0956961125E9	NaN
3.0957057475E9	NaN
3.095723208E9	NaN
3.0957468575E9	NaN
3.0957743915E9	NaN
3.0958051445E9	NaN
3.0958392935E9	NaN
3.0958746045E9	NaN
3.0959108895E9	NaN
3.095947426E9	NaN
3.095984339E9	NaN
3.0960216755E9	NaN
3.0960595015E9	NaN
3.0960978295E9	NaN
3.0961365375E9	NaN
3.0961758875E9	NaN
3.096215745E9	NaN
3.096255679E9	NaN
3.0962957E9	NaN
3.096336017E9	NaN
3.0963766085E9	NaN
3.096417435E9	NaN
3.096458902E9	NaN
3.0965008355E9	NaN
3.0965428785E9	NaN
3.096585625E9	NaN
3.096629057E9	NaN
3.096672664E9	NaN
3.096717443E9	NaN
3.096763347E9	NaN
3.0968269725E9	NaN
3.09691267E9	NaN
3.097004057E9	NaN
3.097103618E9	NaN
3.0972210215E9	NaN
3.0973497685E9	NaN
3.0974831875E9	NaN
3.097629745E9	NaN
3.097787028E9	NaN
3.097947186E9	NaN
3.0981086605E9	NaN
3.098271681E9	NaN
3.0984370835E9	NaN
3.0986053035E9	NaN
3.098776315E9	NaN
3.0989485365E9	NaN
3.099120956E9	NaN
3.0992945225E9	NaN
3.0994714155E9	NaN
3.099650861E9	NaN
3.099830935E9	NaN
3.1000126105E9	NaN
3.1001974875E9	NaN
3.100384347E9	NaN
3.100571295E9	NaN
3.100759707E9	NaN
3.100950336E9	NaN
3.101151657E9	NaN
3.1015309915E9	NaN
