# Position (bp)	A	C	G	T	N
0.0	23.496313159127904	27.099634499713197	26.183387423286653	23.220551860470014	1.1305740223198704E-4
1.0	23.66959896850065	27.00159164030177	25.24808432678735	24.079490529558274	0.001234534851958479
2.0	25.616969838104396	25.376780036817724	22.213392338034875	26.78915028395601	0.0037075030869868847
3.0	25.533862251380924	25.31834755300898	23.440300363628992	25.692893731499844	0.014596100481260671
4.0	26.35247061612126	24.282314209652085	23.931808973015148	25.430353651351247	0.0030525498602636497
5.0	26.131678606134777	23.909853745305842	24.591502813569903	25.36264786153873	0.004316973450743229
6.0	25.80105457865585	24.24376813304283	24.314000171015564	25.640897722556094	2.7939472965376105E-4
7.0	25.341441151802822	24.644698270585607	23.835115005368277	26.178407699546963	3.378726963254785E-4
8.0	25.162813055297022	24.62835562816642	23.469684892126345	26.738919010095373	2.2741431483445668E-4
9.0	25.16384486653119	24.78752355687424	23.72141304599253	26.327163951166476	5.45794355602696E-5
10.0	25.15422719027925	24.8471398946305	23.83469526351861	26.16361667251013	3.2097906150920457E-4
11.0	25.373325938252982	24.523950365981108	23.459455146489905	26.638282327984463	0.004986221291541773
12.0	25.12954558981267	24.72813853196393	23.596339071364692	26.545444007606818	5.327992518978699E-4
13.0	25.15916792870782	24.781171550183323	23.489649269948067	26.569169168440716	8.420827200727309E-4
14.0	25.432262632085482	24.419871280898782	23.264076361308586	26.88320494604043	5.847796667171743E-4
15.0	25.099938845041965	24.55328421357401	23.7360923151375	26.603714052619253	0.006970573627268717
16.0	25.23051234755769	24.49544950453568	23.827032050863874	26.44362347154839	0.003382625494366233
17.0	25.37164047330247	24.215232184817403	23.651356441919813	26.755343521667907	0.006427378292406987
18.0	24.97956389991379	24.549979558701875	23.910179922408833	26.55835334362719	0.001923275348314262
19.0	25.042479694500706	24.602740979253838	23.88830136581139	26.466284333388867	1.9362704520190882E-4
20.0	25.20978125861738	24.31668236042024	23.62442149047082	26.848626274592256	4.886158993014612E-4
21.0	24.866975620925547	24.653520646490815	23.82559479239412	26.65022612779957	0.0036828123899477153
22.0	24.826330835067964	24.719296663403163	23.709548516310026	26.744779801866255	4.418335259640872E-5
23.0	25.029255876970673	24.419333283605404	23.515111876147305	27.03581814443954	4.808188370785655E-4
24.0	24.86078865205168	24.548252509419502	23.8312398654435	26.75933821654677	3.807565385514046E-4
25.0	25.061381072839378	24.292939006441152	23.945747521248943	26.69967509641717	2.573030533555567E-4
26.0	25.532369113965242	23.948314054230647	23.96997169406511	26.5489357919723	4.09345766702022E-4
27.0	25.105681381369127	24.17642100809257	24.29166548627808	26.4260878786091	1.4424565112356965E-4
28.0	24.701366019311244	24.600152354595835	24.016326528490595	26.67836962389311	0.0037854737092158416
29.0	24.74026556274127	24.639383273170335	23.676642314708666	26.94346584094045	2.43008439280248E-4
30.0	24.50061635776872	24.50559608150841	23.853176900007615	27.138832930528434	0.0017777301868202098
31.0	24.74599120543362	24.19852957802559	24.383874843636413	26.66760967802551	0.003994694878863542
32.0	25.23040968623842	23.418008562733732	24.48721060878682	26.853106986349683	0.01126415589134326
33.0	23.767675615181712	25.247908892887338	24.87697535322641	26.103814504770895	0.0036256339336464805
34.0	23.47925448649458	24.92986022726357	25.447326556300116	26.135562842632154	0.007995887309579498
35.0	25.076042991046226	24.246133970807225	23.914609529215245	26.762799019035437	4.1448989586413687E-4
36.0	24.826921068612016	24.40730113733907	24.248179430246815	26.516753961130522	8.444026715743813E-4
37.0	24.880264954279742	24.463918529254126	24.262952621279407	26.39221806209317	6.458330935557482E-4
38.0	25.00892647367593	24.250280797625848	24.15366031110995	26.57855344067388	0.008578976914397253
39.0	24.480685127506828	24.781625998363978	24.409319606738926	26.32800104613394	3.6822125632581464E-4
40.0	24.458225558730934	24.963754786466662	24.189508867452243	26.388362342131643	1.484452185187839E-4
41.0	24.61161959382034	24.693054327267767	24.019384863449776	26.67577156378382	1.6965167830718163E-4
42.0	24.105575627469744	25.114501869802474	23.925174201909826	26.854306820882357	4.414799355948249E-4
43.0	23.830897993130534	25.376372730289475	23.6032350801422	27.189106696581653	3.8749985613344894E-4
44.0	23.37941631995551	25.651038797468807	23.342721433081657	27.620926125812872	0.005897323681155325
45.0	23.431684459753967	25.280461696246498	23.838300975456665	27.44727992162555	0.002272946917320081
46.0	23.58341475167997	24.899163765671165	24.51485644566586	26.981911873009086	0.0206531639739186
47.0	24.890386219178747	23.47606379651114	24.438428364588475	27.194884492944006	2.3712677763390157E-4
48.0	22.59706760544194	26.167217523738266	26.700907002213008	24.532933988705476	0.0018738799013020514
49.0	21.675234365600176	28.468282278877787	25.585530115322463	24.270793227821173	1.6001237840336448E-4
50.0	NaN	NaN	NaN	NaN	NaN
