<?xml version="1.0" encoding="UTF-8" standalone="no"?>
<!DOCTYPE svg PUBLIC "-//W3C//DTD SVG 1.0//EN" "http://www.w3.org/TR/2001/PR-SVG-20010719/DTD/svg10.dtd">
<svg width="43cm" height="20cm" viewBox="-16 104 858 399" xmlns="http://www.w3.org/2000/svg" xmlns:xlink="http://www.w3.org/1999/xlink">
  <g>
    <rect style="fill: #ffffff" x="638.166" y="145.6" width="202.6" height="38"/>
    <rect style="fill: none; fill-opacity:0; stroke-width: 2; stroke: #000000" x="638.166" y="145.6" width="202.6" height="38"/>
    <text font-size="12.8" style="fill: #000000;text-anchor:middle;font-family:sans-serif;font-style:normal;font-weight:normal" x="739.466" y="168.5">
      <tspan x="739.466" y="168.5">creación de tabla de targets</tspan>
    </text>
  </g>
  <g>
    <path style="fill: #ffffff" d="M 665.866 266.5 L 813.066,266.5 L 813.066,312.1 C 783.626,304.5 768.906,304.5 739.466,312.1 C 710.026,319.7 695.306,319.7 665.866,312.1 L 665.866,266.5z"/>
    <path style="fill: none; fill-opacity:0; stroke-width: 2; stroke: #000000" d="M 665.866 266.5 L 813.066,266.5 L 813.066,312.1 C 783.626,304.5 768.906,304.5 739.466,312.1 C 710.026,319.7 695.306,319.7 665.866,312.1 L 665.866,266.5"/>
    <text font-size="12.8" style="fill: #000000;text-anchor:middle;font-family:sans-serif;font-style:normal;font-weight:normal" x="739.466" y="281.5">
      <tspan x="739.466" y="281.5">tabla de targets</tspan>
      <tspan x="739.466" y="297.5">indel_realign.intervals</tspan>
    </text>
  </g>
  <g>
    <rect style="fill: #ffffff" x="302.841" y="273.6" width="219.25" height="38"/>
    <rect style="fill: none; fill-opacity:0; stroke-width: 2; stroke: #000000" x="302.841" y="273.6" width="219.25" height="38"/>
    <text font-size="12.8" style="fill: #000000;text-anchor:middle;font-family:sans-serif;font-style:normal;font-weight:normal" x="412.466" y="296.5">
      <tspan x="412.466" y="296.5">realineación en torno a INDELs</tspan>
    </text>
  </g>
  <g>
    <polygon style="fill: #ffffff" points="297.17,105.6 570.711,105.6 527.763,223.6 254.222,223.6 "/>
    <polygon style="fill: none; fill-opacity:0; stroke-width: 2; stroke: #000000" points="297.17,105.6 570.711,105.6 527.763,223.6 254.222,223.6 "/>
    <text font-size="12.8" style="fill: #000000;text-anchor:middle;font-family:sans-serif;font-style:normal;font-weight:normal" x="412.466" y="128.5">
      <tspan x="412.466" y="128.5">mapa de alineaciones</tspan>
      <tspan x="412.466" y="144.5">ordenadas por posición genómica</tspan>
      <tspan x="412.466" y="160.5">en formato binario</tspan>
      <tspan x="412.466" y="176.5">agrupadas por muestra</tspan>
      <tspan x="412.466" y="192.5">con duplicadas marcadas</tspan>
      <tspan x="412.466" y="208.5">sorted.rg.dedup.BAM</tspan>
    </text>
  </g>
  <g>
    <polygon style="fill: #ffffff" points="267.57,367.6 606.135,367.6 557.363,501.6 218.798,501.6 "/>
    <polygon style="fill: none; fill-opacity:0; stroke-width: 2; stroke: #000000" points="267.57,367.6 606.135,367.6 557.363,501.6 218.798,501.6 "/>
    <text font-size="12.8" style="fill: #000000;text-anchor:middle;font-family:sans-serif;font-style:normal;font-weight:normal" x="412.466" y="390.5">
      <tspan x="412.466" y="390.5">mapa de alineaciones</tspan>
      <tspan x="412.466" y="406.5">ordenadas por posición genómica</tspan>
      <tspan x="412.466" y="422.5">en formato binario</tspan>
      <tspan x="412.466" y="438.5">agrupadas por muestra</tspan>
      <tspan x="412.466" y="454.5">con duplicadas marcadas</tspan>
      <tspan x="412.466" y="470.5">con lecturas realineadas en torno a INDELs</tspan>
      <tspan x="412.466" y="486.5">sorted.rg.dedup.realigned.BAM</tspan>
    </text>
  </g>
  <g>
    <line style="fill: none; fill-opacity:0; stroke-width: 2; stroke: #000000" x1="549.87" y1="164.6" x2="627.443" y2="164.6"/>
    <polygon style="fill: #000000" points="634.943,164.6 624.943,169.6 627.443,164.6 624.943,159.6 "/>
    <polygon style="fill: none; fill-opacity:0; stroke-width: 2; stroke: #000000" points="634.943,164.6 624.943,169.6 627.443,164.6 624.943,159.6 "/>
  </g>
  <g>
    <line style="fill: none; fill-opacity:0; stroke-width: 2; stroke: #000000" x1="739.466" y1="184.584" x2="739.466" y2="256.007"/>
    <polygon style="fill: #000000" points="739.466,263.507 734.466,253.507 739.466,256.007 744.466,253.507 "/>
    <polygon style="fill: none; fill-opacity:0; stroke-width: 2; stroke: #000000" points="739.466,263.507 734.466,253.507 739.466,256.007 744.466,253.507 "/>
  </g>
  <g>
    <line style="fill: none; fill-opacity:0; stroke-width: 2; stroke: #000000" x1="664.881" y1="292.986" x2="532.822" y2="292.784"/>
    <polygon style="fill: #000000" points="525.322,292.773 535.33,287.788 532.822,292.784 535.315,297.788 "/>
    <polygon style="fill: none; fill-opacity:0; stroke-width: 2; stroke: #000000" points="525.322,292.773 535.33,287.788 532.822,292.784 535.315,297.788 "/>
  </g>
  <g>
    <path style="fill: #ffffff" d="M -14.6 245.933 C 26.56,228.433 47.14,222.6 88.3,222.6 C 129.46,222.6 150.04,228.433 191.2,245.933 L 191.2,339.267 C 150.04,356.767 129.46,362.6 88.3,362.6 C 47.14,362.6 26.56,356.767 -14.6,339.267 L -14.6,245.933z"/>
    <path style="fill: none; fill-opacity:0; stroke-width: 2; stroke: #000000" d="M -14.6 245.933 C 26.56,228.433 47.14,222.6 88.3,222.6 C 129.46,222.6 150.04,228.433 191.2,245.933 L 191.2,339.267 C 150.04,356.767 129.46,362.6 88.3,362.6 C 47.14,362.6 26.56,356.767 -14.6,339.267 L -14.6,245.933"/>
    <path style="fill: none; fill-opacity:0; stroke-width: 2; stroke: #000000" d="M -14.6 245.933 C 26.56,263.433 47.14,269.267 88.3,269.267 C 129.46,269.267 150.04,263.433 191.2,245.933"/>
    <text font-size="12.8" style="fill: #000000;text-anchor:middle;font-family:sans-serif;font-style:normal;font-weight:normal" x="88.3" y="284.267">
      <tspan x="88.3" y="284.267">INDELs reportados</tspan>
      <tspan x="88.3" y="300.267">Mills_and_1000G_</tspan>
      <tspan x="88.3" y="316.267">gold_standard_indels_</tspan>
      <tspan x="88.3" y="332.267">b37.sites.vcf</tspan>
    </text>
  </g>
  <g>
    <line style="fill: none; fill-opacity:0; stroke-width: 2; stroke: #000000" x1="412.466" y1="224.608" x2="412.466" y2="262.856"/>
    <polygon style="fill: #000000" points="412.466,270.356 407.466,260.356 412.466,262.856 417.466,260.356 "/>
    <polygon style="fill: none; fill-opacity:0; stroke-width: 2; stroke: #000000" points="412.466,270.356 407.466,260.356 412.466,262.856 417.466,260.356 "/>
  </g>
  <g>
    <line style="fill: none; fill-opacity:0; stroke-width: 2; stroke: #000000" x1="192.174" y1="292.6" x2="292.169" y2="292.6"/>
    <polygon style="fill: #000000" points="299.669,292.6 289.669,297.6 292.169,292.6 289.669,287.6 "/>
    <polygon style="fill: none; fill-opacity:0; stroke-width: 2; stroke: #000000" points="299.669,292.6 289.669,297.6 292.169,292.6 289.669,287.6 "/>
  </g>
  <g>
    <line style="fill: none; fill-opacity:0; stroke-width: 2; stroke: #000000" x1="412.466" y1="312.586" x2="412.466" y2="356.88"/>
    <polygon style="fill: #000000" points="412.466,364.38 407.466,354.38 412.466,356.88 417.466,354.38 "/>
    <polygon style="fill: none; fill-opacity:0; stroke-width: 2; stroke: #000000" points="412.466,364.38 407.466,354.38 412.466,356.88 417.466,354.38 "/>
  </g>
</svg>
