##FastQC	0.10.0
>>Basic Statistics	pass
#Measure	Value	
Filename	exm7.bam	
File type	Conventional base calls	
Encoding	Sanger / Illumina 1.9	
Total Sequences	234718046	
Filtered Sequences	0	
Sequence length	35-50	
%GC	49	
>>END_MODULE
>>Per base sequence quality	pass
#Base	Mean	Median	Lower Quartile	Upper Quartile	10th Percentile	90th Percentile
1	33.57997369320295	31.0	11.0	63.0	4.0	63.0
2	51.50836710697566	58.0	41.0	63.0	37.0	63.0
3	51.19479781286182	56.0	41.0	63.0	37.0	63.0
4	50.9841919824094	56.0	40.0	63.0	37.0	63.0
5	50.937291566409854	56.0	40.0	63.0	37.0	63.0
6	50.81926457414357	55.0	40.0	63.0	37.0	63.0
7	50.43698964245808	53.0	40.0	63.0	37.0	63.0
8	49.9735873269838	52.0	40.0	63.0	37.0	63.0
9	49.86840583190608	52.0	40.0	63.0	37.0	63.0
10	49.703078714280025	51.0	40.0	63.0	37.0	63.0
11	49.42100005382628	50.0	40.0	63.0	37.0	63.0
12	49.034732029083095	49.0	40.0	63.0	37.0	63.0
13	48.633822151876636	48.0	40.0	63.0	37.0	63.0
14	48.60146633122534	48.0	39.0	63.0	37.0	63.0
15	48.43971044731686	48.0	39.0	63.0	37.0	63.0
16	48.09946200728	47.0	39.0	63.0	37.0	63.0
17	47.62831352984252	46.0	39.0	62.0	37.0	63.0
18	47.24843659869254	45.0	39.0	61.0	37.0	63.0
19	47.19794233886899	45.0	39.0	61.0	37.0	63.0
20	46.97891338529633	45.0	39.0	61.0	37.0	63.0
21	46.50624801128414	44.0	39.0	60.0	37.0	63.0
22	46.160605077634294	44.0	39.0	59.0	37.0	63.0
23	45.994568197794216	44.0	39.0	59.0	37.0	63.0
24	45.99595191756155	44.0	38.0	59.0	37.0	63.0
25	45.58119258542226	43.0	38.0	58.0	36.0	63.0
26	45.0123781833119	43.0	38.0	57.0	33.0	63.0
27	44.520755421592085	42.0	38.0	56.0	32.0	63.0
28	44.29135313694628	42.0	38.0	56.0	31.0	63.0
29	44.17016371208203	42.0	38.0	56.0	30.0	63.0
30	43.69286649991965	42.0	38.0	55.0	27.0	63.0
31	43.23210267352004	41.0	37.0	54.0	25.0	63.0
32	42.73330048938802	41.0	37.0	53.0	24.0	63.0
33	42.388179956985496	41.0	37.0	52.0	23.0	63.0
34	42.23695098842123	41.0	37.0	52.0	22.0	63.0
35	38.74666618092075	40.0	36.0	48.0	15.0	61.0
36	43.35989855675605	42.0	37.0	57.0	21.0	63.0
37	42.87295309198339	42.0	37.0	56.0	20.0	63.0
38	41.56319156644649	41.0	37.0	54.0	18.0	63.0
39	41.376880276176124	41.0	37.0	54.0	18.0	63.0
40	41.03260663647481	41.0	37.0	53.0	18.0	63.0
41	41.979983643865204	41.0	37.0	55.0	19.0	63.0
42	41.586201062699715	41.0	37.0	54.0	18.0	63.0
43	40.15822679437268	40.0	37.0	52.0	15.0	63.0
44	39.91749947509362	40.0	37.0	52.0	15.0	63.0
45	39.57654873285713	40.0	37.0	51.0	13.0	63.0
46	40.50970629671994	40.0	37.0	52.0	18.0	63.0
47	40.01629163187563	40.0	37.0	52.0	14.0	63.0
48	38.61516261088847	40.0	36.0	50.0	8.0	62.0
49	38.04972649610418	40.0	34.0	49.0	6.0	61.0
50	28.155463086975427	31.0	14.0	40.0	5.0	45.0
>>END_MODULE
>>Per sequence quality scores	pass
#Quality	Count
0	10723.0
1	4689.0
2	8396.0
3	6963.0
4	5850.0
5	10468.0
6	10772.0
7	15042.0
8	38144.0
9	83305.0
10	163388.0
11	312696.0
12	462500.0
13	603484.0
14	704738.0
15	708240.0
16	666885.0
17	632874.0
18	571517.0
19	545349.0
20	542455.0
21	529543.0
22	551065.0
23	592863.0
24	606045.0
25	674283.0
26	693220.0
27	744641.0
28	850759.0
29	875536.0
30	995784.0
31	1181548.0
32	1254607.0
33	1694826.0
34	2407169.0
35	2478176.0
36	7953133.0
37	1.4679857E7
38	1.089614E7
39	9141709.0
40	8661218.0
41	8741363.0
42	9135907.0
43	9654769.0
44	1.0112473E7
45	1.026607E7
46	9997563.0
47	9405187.0
48	8669499.0
49	7993516.0
50	7435834.0
51	7016289.0
52	6697655.0
53	6446027.0
54	6220252.0
55	6038773.0
56	5916058.0
57	5841546.0
58	5817183.0
59	5768307.0
60	5768543.0
61	5905574.0
62	2299058.0
>>END_MODULE
>>Per base sequence content	pass
#Base	G	A	T	C
1	24.664464069924325	26.863121220351	17.745621976457688	30.72679273326699
2	26.57524300559308	22.61129756894273	23.518592872730377	27.294866552733815
3	23.235129494033597	26.304631872023513	24.184139313052253	26.27609932089064
4	24.352859523834137	26.365510410589565	23.831617287116117	25.450012778460184
5	25.60964131112075	26.190232997732405	23.650055094075014	24.550070597071834
6	25.608808236289537	25.824630815917075	24.00502323430354	24.561537713489844
7	25.232889971754897	26.04717871098054	24.129335644292425	24.590595672972135
8	24.402132142347778	25.595203799786674	25.04571877025792	24.956945287607628
9	24.32623358037463	25.34118841326989	25.49003339590313	24.84254461045235
10	24.438542802025236	25.546886189698697	25.21983133932758	24.79473966894848
11	24.534057651387315	25.525786949364687	25.120054067285462	24.820101331962533
12	24.338725894750777	25.662964840989172	25.27351048923448	24.724798775025572
13	24.386208885743073	25.690852337116166	25.22672102757516	24.6962177495656
14	24.335500027873326	25.625453827674754	25.416695125758494	24.622351018693422
15	24.085590164528412	25.709356690403457	25.493051297467122	24.71200184760101
16	24.214698426635625	25.607333561089547	25.52359221908312	24.65437579319171
17	24.172668213962684	25.644869673994307	25.497754899690072	24.684707212352937
18	24.12260071586844	25.670307870734	25.530337849184605	24.676753564212955
19	24.188415710845955	25.598736559585035	25.58843826770812	24.62440946186089
20	24.102401176650467	25.595898545834327	25.57518043910824	24.726519838406965
21	24.109572132847447	25.587082430516872	25.652621589150698	24.65072384748498
22	24.13022436206997	25.572739073274413	25.631471315222942	24.66556524943267
23	24.168314479961847	25.60244057624485	25.59308670230285	24.636158241490456
24	24.13530019296994	25.579815867264116	25.745822727786848	24.5390612119791
25	24.096968094672995	25.593326789110794	25.664603379576622	24.64510173663959
26	24.195820581344506	25.542562466117	25.634305525950424	24.627311426588065
27	24.13274391694632	25.575453853774338	25.669244030446553	24.622558198832785
28	24.196608565140206	25.563438351435547	25.612546557006826	24.627406526417413
29	24.264924891768107	25.502231166648436	25.665577684196787	24.56726625738667
30	24.093763823371177	25.536675182310255	25.706534924116536	24.66302607020203
31	24.186633253689195	25.496343806435956	25.65148076809643	24.665542171778423
32	24.19447906984948	25.49127433399599	25.63982791359112	24.674418682563417
33	24.162568475122473	25.55899225175404	25.66011571086358	24.618323562259903
34	24.295175196738196	25.47229566315476	25.66137747666042	24.571151663446628
35	24.19650013558604	25.47594961970353	25.645041241370365	24.682509003340066
36	23.817946683862516	25.285463929136647	25.96186957874711	24.934719808253725
37	23.877513917911614	25.25309925808025	25.874008360680932	24.9953784633272
38	23.969860850267406	25.335870701527043	25.777284891729916	24.91698355647564
39	24.030159152443304	25.266808865639735	25.92619782618226	24.776834155734704
40	23.86510945475416	25.27943105672419	25.87754388430114	24.977915604220517
41	23.958115678122002	25.224709654623318	25.84687491031043	24.970299756944247
42	23.942864911004023	25.238835080792594	25.85841682566159	24.959883182541798
43	24.062438029304527	25.338441602157484	25.74752702727718	24.85159334126081
44	24.193074399349186	25.243608761301594	25.83263698424918	24.73067985510004
45	23.96114899420796	25.340195445772736	25.833684436963484	24.86497112305582
46	24.103492503405988	25.29605245548341	25.776780034937868	24.823675006172735
47	24.128944202136815	25.281261873425414	25.721033522392556	24.86876040204521
48	24.171497102864816	25.388191979305052	25.666397760214014	24.77391315761611
49	24.324423845318154	25.278541532966475	25.70465709339577	24.6923775283196
50	24.155266505027598	25.224235280616984	25.726182393627607	24.89431582072781
>>END_MODULE
>>Per base GC content	warn
#Base	%GC
1	55.39125680319131
2	53.870109558326895
3	49.51122881492424
4	49.80287230229432
5	50.159711908192584
6	50.17034594977938
7	49.82348564472703
8	49.359077429955406
9	49.16877819082698
10	49.23328247097372
11	49.35415898334984
12	49.06352466977635
13	49.08242663530867
14	48.957851046566745
15	48.79759201212942
16	48.86907421982733
17	48.85737542631562
18	48.799354280081396
19	48.812825172706845
20	48.82892101505743
21	48.76029598033243
22	48.79578961150264
23	48.8044727214523
24	48.67436140494903
25	48.74206983131258
26	48.82313200793257
27	48.75530211577911
28	48.82401509155762
29	48.832191149154774
30	48.75678989357321
31	48.852175425467614
32	48.86889775241289
33	48.78089203738238
34	48.86632686018482
35	48.87900913892611
36	48.75266649211624
37	48.87289238123881
38	48.886844406743045
39	48.80699330817801
40	48.84302505897467
41	48.928415435066256
42	48.902748093545824
43	48.91403137056534
44	48.92375425444923
45	48.82612011726378
46	48.92716750957872
47	48.99770460418203
48	48.945410260480934
49	49.01680137363776
50	49.04958232575541
>>END_MODULE
>>Per sequence GC content	pass
#GC Content	Count
0	15742.0
1	26785.0
2	37828.0
3	43936.0
4	59629.5
5	75734.5
6	82254.0
7	102670.5
8	123087.0
9	131580.0
10	157513.0
11	185431.5
12	195910.0
13	232951.0
14	269992.0
15	290066.5
16	343509.5
17	410790.0
18	444702.0
19	546655.0
20	648608.0
21	806198.5
22	963789.0
23	1043222.0
24	1284846.5
25	1551681.0
26	1656324.0
27	2045549.5
28	2434775.0
29	2605066.0
30	3168884.0
31	3785110.5
32	4007810.0
33	4884319.0
34	5760828.0
35	6123701.0
36	7322385.5
37	8611960.5
38	9065724.0
39	1.07250125E7
40	1.2384301E7
41	1.43494485E7
42	1.6314596E7
43	1.69684085E7
44	1.8997098E7
45	2.09934235E7
46	2.1614872E7
47	2.312146E7
48	2.4628048E7
49	2.48652985E7
50	2.5324031E7
51	2.5461087E7
52	2.5376661E7
53	2.42474375E7
54	2.3118214E7
55	2.2508703E7
56	2.0512905E7
57	1.84071395E7
58	1.7687661E7
59	1.54042305E7
60	1.31208E7
61	1.10812785E7
62	9041757.0
63	8473213.5
64	6886873.5
65	5404712.0
66	4940347.0
67	3912277.0
68	2884207.0
69	2642532.5
70	1995659.0
71	1433831.0
72	1277202.0
73	958177.5
74	639153.0
75	585783.0
76	420177.0
77	277330.0
78	246719.0
79	180744.0
80	114769.0
81	80958.5
82	47148.0
83	42681.5
84	29329.0
85	18488.0
86	16533.0
87	12241.5
88	7950.0
89	7559.0
90	5789.5
91	4159.5
92	3908.0
93	3102.5
94	2297.0
95	2176.0
96	1738.5
97	1367.0
98	1312.0
99	968.5
100	625.0
>>END_MODULE
>>Per base N content	pass
#Base	N-Count
1	0.04613961382415394
2	0.16265174600166873
3	0.14192176770251402
4	0.13286963031381063
5	0.08060607321177171
6	0.006423877608456233
7	0.15605319072910143
8	0.152319349147956
9	0.07757903710565144
10	0.009607697569193295
11	0.13496320602464457
12	0.17543048223910318
13	0.17779885573859966
14	0.2349712812452435
15	0.14787870209178547
16	0.18673638753792285
17	0.2128332305561201
18	0.20725334429547868
19	0.19836821579538882
20	0.2161981188272162
21	0.05280590994694971
22	0.12706862769298957
23	0.06481436028996254
24	0.008227744022715663
25	0.14585883183434478
26	0.03553369731102823
27	0.11468483339367949
28	0.0145928276856906
29	0.09930893852107135
30	0.14835203595721821
31	0.10832401016153653
32	0.045617285004153456
33	0.11586326856180458
34	0.09827152361348475
35	0.1445116836052734
36	0.14840358717028515
37	0.28652079013984294
38	0.009532287943467286
39	0.019569862983607147
40	0.1872484913239266
41	0.008363225723172558
42	0.2951421979714334
43	0.021591011370297453
44	0.07996317419922626
45	0.11773359769704286
46	0.20032545771959945
47	0.2343893063935953
48	0.15821961980716218
49	0.17318225288906844
50	0.13075091806106803
>>END_MODULE
>>Sequence Length Distribution	warn
#Length	Count
35	1.17359023E8
36	0.0
37	0.0
38	0.0
39	0.0
40	0.0
41	0.0
42	0.0
43	0.0
44	0.0
45	0.0
46	0.0
47	0.0
48	0.0
49	0.0
50	1.17359023E8
>>END_MODULE
>>Sequence Duplication Levels	warn
#Total Duplicate Percentage	26.74684137573419
#Duplication Level	Relative count
1	100.0
2	14.548932057338106
3	7.645761581290244
4	4.350726255462231
5	2.6599872037463075
6	1.6267577832532434
7	1.097210688955744
8	0.7337426319443499
9	0.508446888740658
10++	2.9587933405028655
>>END_MODULE
>>Overrepresented sequences	pass
>>END_MODULE
>>Kmer Content	pass
>>END_MODULE
