<?xml version="1.0" encoding="UTF-8" standalone="no"?>
<!-- Created with Inkscape (http://www.inkscape.org/) -->

<svg
   xmlns:dc="http://purl.org/dc/elements/1.1/"
   xmlns:cc="http://creativecommons.org/ns#"
   xmlns:rdf="http://www.w3.org/1999/02/22-rdf-syntax-ns#"
   xmlns:svg="http://www.w3.org/2000/svg"
   xmlns="http://www.w3.org/2000/svg"
   xmlns:sodipodi="http://sodipodi.sourceforge.net/DTD/sodipodi-0.dtd"
   xmlns:inkscape="http://www.inkscape.org/namespaces/inkscape"
   id="svg2"
   version="1.1"
   inkscape:version="0.47 r22583"
   width="718.30292"
   height="317.79456"
   xml:space="preserve"
   sodipodi:docname="cronograma.svg"><metadata
     id="metadata8"><rdf:RDF><cc:Work
         rdf:about=""><dc:format>image/svg+xml</dc:format><dc:type
           rdf:resource="http://purl.org/dc/dcmitype/StillImage" /><dc:title /></cc:Work></rdf:RDF></metadata><defs
     id="defs6"><inkscape:perspective
       sodipodi:type="inkscape:persp3d"
       inkscape:vp_x="0 : 0.5 : 1"
       inkscape:vp_y="0 : 1000 : 0"
       inkscape:vp_z="1 : 0.5 : 1"
       inkscape:persp3d-origin="0.5 : 0.33333333 : 1"
       id="perspective10" /><clipPath
       clipPathUnits="userSpaceOnUse"
       id="clipPath24"><path
         d="m 20.047,747 0,-12 139.051,0 0,12 -139.051,0 z"
         id="path26" /></clipPath><clipPath
       clipPathUnits="userSpaceOnUse"
       id="clipPath36"><path
         d="m 163.191,747 0,-12 24.582,0 0,12 -24.582,0 z"
         id="path38" /></clipPath><clipPath
       clipPathUnits="userSpaceOnUse"
       id="clipPath52"><path
         d="m 20.047,735 0,-12 139.051,0 0,12 -139.051,0 z"
         id="path54" /></clipPath><clipPath
       clipPathUnits="userSpaceOnUse"
       id="clipPath64"><path
         d="m 163.191,735 0,-12 24.582,0 0,12 -24.582,0 z"
         id="path66" /></clipPath><clipPath
       clipPathUnits="userSpaceOnUse"
       id="clipPath80"><path
         d="m 20.047,723 0,-12 139.051,0 0,12 -139.051,0 z"
         id="path82" /></clipPath><clipPath
       clipPathUnits="userSpaceOnUse"
       id="clipPath92"><path
         d="m 163.191,723 0,-12 24.582,0 0,12 -24.582,0 z"
         id="path94" /></clipPath><clipPath
       clipPathUnits="userSpaceOnUse"
       id="clipPath108"><path
         d="m 20.047,711 0,-12 139.051,0 0,12 -139.051,0 z"
         id="path110" /></clipPath><clipPath
       clipPathUnits="userSpaceOnUse"
       id="clipPath120"><path
         d="m 163.191,711 0,-12 24.582,0 0,12 -24.582,0 z"
         id="path122" /></clipPath><clipPath
       clipPathUnits="userSpaceOnUse"
       id="clipPath136"><path
         d="m 20.047,699 0,-12 139.051,0 0,12 -139.051,0 z"
         id="path138" /></clipPath><clipPath
       clipPathUnits="userSpaceOnUse"
       id="clipPath148"><path
         d="m 163.191,699 0,-12 24.582,0 0,12 -24.582,0 z"
         id="path150" /></clipPath><clipPath
       clipPathUnits="userSpaceOnUse"
       id="clipPath164"><path
         d="m 20.047,687 0,-12 139.051,0 0,12 -139.051,0 z"
         id="path166" /></clipPath><clipPath
       clipPathUnits="userSpaceOnUse"
       id="clipPath176"><path
         d="m 163.191,687 0,-12 24.582,0 0,12 -24.582,0 z"
         id="path178" /></clipPath><clipPath
       clipPathUnits="userSpaceOnUse"
       id="clipPath192"><path
         d="m 20.047,675 0,-12 139.051,0 0,12 -139.051,0 z"
         id="path194" /></clipPath><clipPath
       clipPathUnits="userSpaceOnUse"
       id="clipPath204"><path
         d="m 163.191,675 0,-12 24.582,0 0,12 -24.582,0 z"
         id="path206" /></clipPath><clipPath
       clipPathUnits="userSpaceOnUse"
       id="clipPath220"><path
         d="m 20.047,663 0,-12 139.051,0 0,12 -139.051,0 z"
         id="path222" /></clipPath><clipPath
       clipPathUnits="userSpaceOnUse"
       id="clipPath232"><path
         d="m 163.191,663 0,-12 24.582,0 0,12 -24.582,0 z"
         id="path234" /></clipPath><clipPath
       clipPathUnits="userSpaceOnUse"
       id="clipPath248"><path
         d="m 20.047,651 0,-12 139.051,0 0,12 -139.051,0 z"
         id="path250" /></clipPath><clipPath
       clipPathUnits="userSpaceOnUse"
       id="clipPath260"><path
         d="m 163.191,651 0,-12 24.582,0 0,12 -24.582,0 z"
         id="path262" /></clipPath><clipPath
       clipPathUnits="userSpaceOnUse"
       id="clipPath276"><path
         d="m 20.047,639 0,-12 139.051,0 0,12 -139.051,0 z"
         id="path278" /></clipPath><clipPath
       clipPathUnits="userSpaceOnUse"
       id="clipPath288"><path
         d="m 163.191,639 0,-12 24.582,0 0,12 -24.582,0 z"
         id="path290" /></clipPath><clipPath
       clipPathUnits="userSpaceOnUse"
       id="clipPath304"><path
         d="m 20.047,627 0,-12 139.051,0 0,12 -139.051,0 z"
         id="path306" /></clipPath><clipPath
       clipPathUnits="userSpaceOnUse"
       id="clipPath316"><path
         d="m 163.191,627 0,-12 24.582,0 0,12 -24.582,0 z"
         id="path318" /></clipPath><clipPath
       clipPathUnits="userSpaceOnUse"
       id="clipPath332"><path
         d="m 20.047,615 0,-12 139.051,0 0,12 -139.051,0 z"
         id="path334" /></clipPath><clipPath
       clipPathUnits="userSpaceOnUse"
       id="clipPath344"><path
         d="m 163.191,615 0,-12 24.582,0 0,12 -24.582,0 z"
         id="path346" /></clipPath><clipPath
       clipPathUnits="userSpaceOnUse"
       id="clipPath360"><path
         d="m 20.047,603 0,-12 139.051,0 0,12 -139.051,0 z"
         id="path362" /></clipPath><clipPath
       clipPathUnits="userSpaceOnUse"
       id="clipPath372"><path
         d="m 163.191,603 0,-12 24.582,0 0,12 -24.582,0 z"
         id="path374" /></clipPath><clipPath
       clipPathUnits="userSpaceOnUse"
       id="clipPath388"><path
         d="m 20.047,591 0,-12 139.051,0 0,12 -139.051,0 z"
         id="path390" /></clipPath><clipPath
       clipPathUnits="userSpaceOnUse"
       id="clipPath400"><path
         d="m 163.191,591 0,-12 24.582,0 0,12 -24.582,0 z"
         id="path402" /></clipPath><clipPath
       clipPathUnits="userSpaceOnUse"
       id="clipPath424"><path
         d="m 362.672,774 0,-13.5 231.328,0 0,13.5 -231.328,0 z"
         id="path426" /></clipPath><clipPath
       clipPathUnits="userSpaceOnUse"
       id="clipPath440"><path
         d="m 229.371,760.5 0,-13.5 45.41,0 0,13.5 -45.41,0 z"
         id="path442" /></clipPath><clipPath
       clipPathUnits="userSpaceOnUse"
       id="clipPath456"><path
         d="m 273.316,760.5 0,-13.5 45.411,0 0,13.5 -45.411,0 z"
         id="path458" /></clipPath><clipPath
       clipPathUnits="userSpaceOnUse"
       id="clipPath472"><path
         d="m 318.727,760.5 0,-13.5 45.41,0 0,13.5 -45.41,0 z"
         id="path474" /></clipPath><clipPath
       clipPathUnits="userSpaceOnUse"
       id="clipPath488"><path
         d="m 362.672,760.5 0,-13.5 45.41,0 0,13.5 -45.41,0 z"
         id="path490" /></clipPath><clipPath
       clipPathUnits="userSpaceOnUse"
       id="clipPath504"><path
         d="m 408.082,760.5 0,-13.5 45.41,0 0,13.5 -45.41,0 z"
         id="path506" /></clipPath><clipPath
       clipPathUnits="userSpaceOnUse"
       id="clipPath520"><path
         d="m 453.492,760.5 0,-13.5 45.41,0 0,13.5 -45.41,0 z"
         id="path522" /></clipPath><clipPath
       clipPathUnits="userSpaceOnUse"
       id="clipPath536"><path
         d="m 497.438,760.5 0,-13.5 45.41,0 0,13.5 -45.41,0 z"
         id="path538" /></clipPath><clipPath
       clipPathUnits="userSpaceOnUse"
       id="clipPath552"><path
         d="m 542.848,760.5 0,-13.5 45.41,0 0,13.5 -45.41,0 z"
         id="path554" /></clipPath><clipPath
       clipPathUnits="userSpaceOnUse"
       id="clipPath568"><path
         d="m 586.793,760.5 0,-13.5 7.207,0 0,13.5 -7.207,0 z"
         id="path570" /></clipPath><clipPath
       clipPathUnits="userSpaceOnUse"
       id="clipPath584"><path
         d="m 20.047,774 0,-24 139.051,0 0,24 -139.051,0 z"
         id="path586" /></clipPath><clipPath
       clipPathUnits="userSpaceOnUse"
       id="clipPath596"><path
         d="m 163.191,774 0,-24 24.582,0 0,24 -24.582,0 z"
         id="path598" /></clipPath></defs><sodipodi:namedview
     pagecolor="#ffffff"
     bordercolor="#666666"
     borderopacity="1"
     objecttolerance="10"
     gridtolerance="10"
     guidetolerance="10"
     inkscape:pageopacity="0"
     inkscape:pageshadow="2"
     inkscape:window-width="1022"
     inkscape:window-height="574"
     id="namedview4"
     showgrid="false"
     showguides="true"
     inkscape:guide-bbox="true"
     inkscape:zoom="1.0289667"
     inkscape:cx="359.15143"
     inkscape:cy="158.89724"
     inkscape:window-x="0"
     inkscape:window-y="0"
     inkscape:window-maximized="0"
     inkscape:current-layer="g12" /><g
     id="g12"
     inkscape:groupmode="layer"
     inkscape:label="cronograma"
     transform="matrix(1.25,0,0,-1.25,-22.35,967.578)"><g
       id="g14"
       transform="matrix(1.2806902,0,0,0.34630331,-5.0187409,505.94372)"><path
         d="m 189.82,774 0,-733.68"
         style="fill:none;stroke:#000000;stroke-width:0.23999999;stroke-linecap:butt;stroke-linejoin:miter;stroke-miterlimit:10;stroke-opacity:1;stroke-dasharray:none"
         id="path16" /><path
         d="m 161.145,774 0,-733.68"
         style="fill:none;stroke:#000000;stroke-width:0.23999999;stroke-linecap:butt;stroke-linejoin:miter;stroke-miterlimit:10;stroke-opacity:1;stroke-dasharray:none"
         id="path18" /></g><g
       id="g20"
       transform="matrix(1.2806902,0,0,1.2806902,-5.0187409,-217.27173)"><g
         id="g22"
         clip-path="url(#clipPath24)"><text
   transform="matrix(1,0,0,-1,28.234375,738.43065)"
   id="text28"><tspan
     style="font-size:6px;font-variant:normal;font-weight:normal;writing-mode:lr-tb;fill:#000000;fill-opacity:1;fill-rule:nonzero;stroke:none;font-family:DejaVu Sans;-inkscape-font-specification:DejaVuSans"
     x="0 2.6459999 6.3119998 12.156 15.828 17.73 21.534 25.224001 27.125999 29.466 33.155998 36.959999 40.757999 44.448002 46.914001 48.576 54.419998 56.082001 59.771999 63.631836 65.983833 69.649834"
     y="0"
     sodipodi:role="line"
     id="tspan30">Toma de requerimientos</tspan></text>

</g></g><g
       id="g32"
       transform="matrix(1.2806902,0,0,1.2806902,-5.0187409,-217.27173)"><g
         id="g34"
         clip-path="url(#clipPath36)"><text
   transform="matrix(1,0,0,-1,163.19141,738.43065)"
   id="text40"><tspan
     style="font-size:6px;font-variant:normal;font-weight:normal;writing-mode:lr-tb;fill:#000000;fill-opacity:1;fill-rule:nonzero;stroke:none;font-family:DejaVu Sans;-inkscape-font-specification:DejaVuSans"
     x="0 3.816"
     y="0"
     sodipodi:role="line"
     id="tspan42">5d</tspan></text>

</g></g><g
       id="g44"
       transform="matrix(1.2806902,0,0,1.2806902,-5.0187409,-217.27173)"><path
         d="m 18,735 171.82,0"
         style="fill:none;stroke:#000000;stroke-width:0.23999999;stroke-linecap:butt;stroke-linejoin:miter;stroke-miterlimit:10;stroke-opacity:1;stroke-dasharray:none"
         id="path46" /></g><g
       id="g48"
       transform="matrix(1.2806902,0,0,1.2806902,-5.0187409,-217.27173)"><g
         id="g50"
         clip-path="url(#clipPath52)"><text
   transform="matrix(1,0,0,-1,28.234375,726.43065)"
   id="text56"><tspan
     style="font-size:6px;font-variant:normal;font-weight:normal;writing-mode:lr-tb;fill:#000000;fill-opacity:1;fill-rule:nonzero;stroke:none;font-family:DejaVu Sans;-inkscape-font-specification:DejaVuSansBold"
     x="0 4.638 8.9040003 12.948 15 17.052 20.622 22.674 26.243999 28.332001 32.237999 34.326 38.616001 40.667999 44.237999 48.306 52.571999"
     y="0"
     sodipodi:role="line"
     id="tspan58">Análisis y diseño</tspan></text>

</g></g><g
       id="g60"
       transform="matrix(1.2806902,0,0,1.2806902,-5.0187409,-217.27173)"><g
         id="g62"
         clip-path="url(#clipPath64)"><text
   transform="matrix(1,0,0,-1,163.19141,726.43065)"
   id="text68"><tspan
     style="font-size:6px;font-variant:normal;font-weight:normal;writing-mode:lr-tb;fill:#000000;fill-opacity:1;fill-rule:nonzero;stroke:none;font-family:DejaVu Sans;-inkscape-font-specification:DejaVuSansBold"
     x="0 4.1700001 8.3400002"
     y="0"
     sodipodi:role="line"
     id="tspan70">40d</tspan></text>

</g></g><g
       id="g72"
       transform="matrix(1.2806902,0,0,1.2806902,-5.0187409,-217.27173)"><path
         d="m 18,723 171.82,0"
         style="fill:none;stroke:#000000;stroke-width:0.23999999;stroke-linecap:butt;stroke-linejoin:miter;stroke-miterlimit:10;stroke-opacity:1;stroke-dasharray:none"
         id="path74" /></g><g
       id="g76"
       transform="matrix(1.2806902,0,0,1.2806902,-5.0187409,-217.27173)"><g
         id="g78"
         clip-path="url(#clipPath80)"><text
   transform="matrix(1,0,0,-1,36.421875,714.43065)"
   id="text84"><tspan
     style="font-size:6px;font-variant:normal;font-weight:normal;writing-mode:lr-tb;fill:#000000;fill-opacity:1;fill-rule:nonzero;stroke:none;font-family:DejaVu Sans;-inkscape-font-specification:DejaVuSans"
     x="0 5.1719999 8.9700003 12.66 15.78 18.132 20.472 24.162001 27.827999 29.73 33.534 37.223999 39.125999 42.798 45.138 48.431999 52.23 53.891998 57.438 61.176758"
     y="0"
     sodipodi:role="line"
     id="tspan86">Muestreo de archivos</tspan></text>

</g></g><g
       id="g88"
       transform="matrix(1.2806902,0,0,1.2806902,-5.0187409,-217.27173)"><g
         id="g90"
         clip-path="url(#clipPath92)"><text
   transform="matrix(1,0,0,-1,163.19141,714.43065)"
   id="text96"><tspan
     style="font-size:6px;font-variant:normal;font-weight:normal;writing-mode:lr-tb;fill:#000000;fill-opacity:1;fill-rule:nonzero;stroke:none;font-family:DejaVu Sans;-inkscape-font-specification:DejaVuSans"
     x="0 3.816 7.632"
     y="0"
     sodipodi:role="line"
     id="tspan98">10d</tspan></text>

</g></g><g
       id="g100"
       transform="matrix(1.2806902,0,0,1.2806902,-5.0187409,-217.27173)"><path
         d="m 18,711 171.82,0"
         style="fill:none;stroke:#000000;stroke-width:0.23999999;stroke-linecap:butt;stroke-linejoin:miter;stroke-miterlimit:10;stroke-opacity:1;stroke-dasharray:none"
         id="path102" /></g><g
       id="g104"
       transform="matrix(1.2806902,0,0,1.2806902,-5.0187409,-217.27173)"><g
         id="g106"
         clip-path="url(#clipPath108)"><text
   transform="matrix(1,0,0,-1,36.421875,702.43065)"
   id="text112"><tspan
     style="font-size:6px;font-variant:normal;font-weight:normal;writing-mode:lr-tb;fill:#000000;fill-opacity:1;fill-rule:nonzero;stroke:none;font-family:DejaVu Sans;-inkscape-font-specification:DejaVuSans"
     x="0 3.5220001 5.868 9.5340004 11.886 15.552 17.903999 19.566 23.370001"
     y="0"
     sodipodi:role="line"
     id="tspan114">Prototipo</tspan></text>

</g></g><g
       id="g116"
       transform="matrix(1.2806902,0,0,1.2806902,-5.0187409,-217.27173)"><g
         id="g118"
         clip-path="url(#clipPath120)"><text
   transform="matrix(1,0,0,-1,163.19141,702.43065)"
   id="text124"><tspan
     style="font-size:6px;font-variant:normal;font-weight:normal;writing-mode:lr-tb;fill:#000000;fill-opacity:1;fill-rule:nonzero;stroke:none;font-family:DejaVu Sans;-inkscape-font-specification:DejaVuSans"
     x="0 3.816 7.632"
     y="0"
     sodipodi:role="line"
     id="tspan126">20d</tspan></text>

</g></g><g
       id="g128"
       transform="matrix(1.2806902,0,0,1.2806902,-5.0187409,-217.27173)"><path
         d="m 18,699 171.82,0"
         style="fill:none;stroke:#000000;stroke-width:0.23999999;stroke-linecap:butt;stroke-linejoin:miter;stroke-miterlimit:10;stroke-opacity:1;stroke-dasharray:none"
         id="path130" /></g><g
       id="g132"
       transform="matrix(1.2806902,0,0,1.2806902,-5.0187409,-217.27173)"><g
         id="g134"
         clip-path="url(#clipPath136)"><text
   transform="matrix(1,0,0,-1,36.421875,690.43065)"
   id="text140"><tspan
     style="font-size:6px;font-variant:normal;font-weight:normal;writing-mode:lr-tb;fill:#000000;fill-opacity:1;fill-rule:nonzero;stroke:none;font-family:DejaVu Sans;-inkscape-font-specification:DejaVuSans"
     x="0 3.8039999 7.494 9.1560001 12.846 16.139999 19.434 21.096001 24.761999 28.559999 30.462 34.265999 37.956001 39.858002 41.52 45.318001 47.43 49.896 53.568001 57.257999 60.454105 62.806103 65.272102 69.070107 72.364105 74.716103 78.514107 80.980103"
     y="0"
     sodipodi:role="line"
     id="tspan142">Selección de infraestructura</tspan></text>

</g></g><g
       id="g144"
       transform="matrix(1.2806902,0,0,1.2806902,-5.0187409,-217.27173)"><g
         id="g146"
         clip-path="url(#clipPath148)"><text
   transform="matrix(1,0,0,-1,163.19141,690.43065)"
   id="text152"><tspan
     style="font-size:6px;font-variant:normal;font-weight:normal;writing-mode:lr-tb;fill:#000000;fill-opacity:1;fill-rule:nonzero;stroke:none;font-family:DejaVu Sans;-inkscape-font-specification:DejaVuSans"
     x="0 3.816 7.632"
     y="0"
     sodipodi:role="line"
     id="tspan154">10d</tspan></text>

</g></g><g
       id="g156"
       transform="matrix(1.2806902,0,0,1.2806902,-5.0187409,-217.27173)"><path
         d="m 18,687 171.82,0"
         style="fill:none;stroke:#000000;stroke-width:0.23999999;stroke-linecap:butt;stroke-linejoin:miter;stroke-miterlimit:10;stroke-opacity:1;stroke-dasharray:none"
         id="path158" /></g><g
       id="g160"
       transform="matrix(1.2806902,0,0,1.2806902,-5.0187409,-217.27173)"><g
         id="g162"
         clip-path="url(#clipPath164)"><text
   transform="matrix(1,0,0,-1,28.234375,678.43065)"
   id="text168"><tspan
     style="font-size:6px;font-variant:normal;font-weight:normal;writing-mode:lr-tb;fill:#000000;fill-opacity:1;fill-rule:nonzero;stroke:none;font-family:DejaVu Sans;-inkscape-font-specification:DejaVuSansBold"
     x="0 2.2320001 8.4779997 12.768 14.82 18.888 25.134001 29.202 33.467999 36.335999 40.380001 43.931999 45.984001 50.105999"
     y="0"
     sodipodi:role="line"
     id="tspan170">Implementación</tspan></text>

</g></g><g
       id="g172"
       transform="matrix(1.2806902,0,0,1.2806902,-5.0187409,-217.27173)"><g
         id="g174"
         clip-path="url(#clipPath176)"><text
   transform="matrix(1,0,0,-1,163.19141,678.43065)"
   id="text180"><tspan
     style="font-size:6px;font-variant:normal;font-weight:normal;writing-mode:lr-tb;fill:#000000;fill-opacity:1;fill-rule:nonzero;stroke:none;font-family:DejaVu Sans;-inkscape-font-specification:DejaVuSansBold"
     x="0 4.1700001 8.3400002"
     y="0"
     sodipodi:role="line"
     id="tspan182">20d</tspan></text>

</g></g><g
       id="g184"
       transform="matrix(1.2806902,0,0,1.2806902,-5.0187409,-217.27173)"><path
         d="m 18,675 171.82,0"
         style="fill:none;stroke:#000000;stroke-width:0.23999999;stroke-linecap:butt;stroke-linejoin:miter;stroke-miterlimit:10;stroke-opacity:1;stroke-dasharray:none"
         id="path186" /></g><g
       id="g188"
       transform="matrix(1.2806902,0,0,1.2806902,-5.0187409,-217.27173)"><g
         id="g190"
         clip-path="url(#clipPath192)"><text
   transform="matrix(1,0,0,-1,36.421875,666.43065)"
   id="text196"><tspan
     style="font-size:6px;font-variant:normal;font-weight:normal;writing-mode:lr-tb;fill:#000000;fill-opacity:1;fill-rule:nonzero;stroke:none;font-family:DejaVu Sans;-inkscape-font-specification:DejaVuSans"
     x="0 3.8039999 7.098 10.77 12.432 16.122 18.282 22.08"
     y="0"
     sodipodi:role="line"
     id="tspan198">Scale-up</tspan></text>

</g></g><g
       id="g200"
       transform="matrix(1.2806902,0,0,1.2806902,-5.0187409,-217.27173)"><g
         id="g202"
         clip-path="url(#clipPath204)"><text
   transform="matrix(1,0,0,-1,163.19141,666.43065)"
   id="text208"><tspan
     style="font-size:6px;font-variant:normal;font-weight:normal;writing-mode:lr-tb;fill:#000000;fill-opacity:1;fill-rule:nonzero;stroke:none;font-family:DejaVu Sans;-inkscape-font-specification:DejaVuSans"
     x="0 3.816 7.632"
     y="0"
     sodipodi:role="line"
     id="tspan210">10d</tspan></text>

</g></g><g
       id="g212"
       transform="matrix(1.2806902,0,0,1.2806902,-5.0187409,-217.27173)"><path
         d="m 18,663 171.82,0"
         style="fill:none;stroke:#000000;stroke-width:0.23999999;stroke-linecap:butt;stroke-linejoin:miter;stroke-miterlimit:10;stroke-opacity:1;stroke-dasharray:none"
         id="path214" /></g><g
       id="g216"
       transform="matrix(1.2806902,0,0,1.2806902,-5.0187409,-217.27173)"><g
         id="g218"
         clip-path="url(#clipPath220)"><text
   transform="matrix(1,0,0,-1,36.421875,654.43065)"
   id="text224"><tspan
     style="font-size:6px;font-variant:normal;font-weight:normal;writing-mode:lr-tb;fill:#000000;fill-opacity:1;fill-rule:nonzero;stroke:none;font-family:DejaVu Sans;-inkscape-font-specification:DejaVuSans"
     x="0 4.6440001 8.316 9.9779997 13.65 17.195999"
     y="0"
     sodipodi:role="line"
     id="tspan226">Galaxy</tspan></text>

</g></g><g
       id="g228"
       transform="matrix(1.2806902,0,0,1.2806902,-5.0187409,-217.27173)"><g
         id="g230"
         clip-path="url(#clipPath232)"><text
   transform="matrix(1,0,0,-1,163.19141,654.43065)"
   id="text236"><tspan
     style="font-size:6px;font-variant:normal;font-weight:normal;writing-mode:lr-tb;fill:#000000;fill-opacity:1;fill-rule:nonzero;stroke:none;font-family:DejaVu Sans;-inkscape-font-specification:DejaVuSans"
     x="0 3.816 7.632"
     y="0"
     sodipodi:role="line"
     id="tspan238">10d</tspan></text>

</g></g><g
       id="g240"
       transform="matrix(1.2806902,0,0,1.2806902,-5.0187409,-217.27173)"><path
         d="m 18,651 171.82,0"
         style="fill:none;stroke:#000000;stroke-width:0.23999999;stroke-linecap:butt;stroke-linejoin:miter;stroke-miterlimit:10;stroke-opacity:1;stroke-dasharray:none"
         id="path242" /></g><g
       id="g244"
       transform="matrix(1.2806902,0,0,1.2806902,-5.0187409,-217.27173)"><g
         id="g246"
         clip-path="url(#clipPath248)"><text
   transform="matrix(1,0,0,-1,28.234375,642.43065)"
   id="text252"><tspan
     style="font-size:6px;font-variant:normal;font-weight:normal;writing-mode:lr-tb;fill:#000000;fill-opacity:1;fill-rule:nonzero;stroke:none;font-family:DejaVu Sans;-inkscape-font-specification:DejaVuSansBold"
     x="0 4.3920002 8.658 12.726 16.296 19.164 23.208 25.296 29.364 33.630001 35.717999 39.84 44.130001 48.198002 51.155998 55.200001 58.751999 60.852539 64.974541"
     y="0"
     sodipodi:role="line"
     id="tspan254">Puesta en operación</tspan></text>

</g></g><g
       id="g256"
       transform="matrix(1.2806902,0,0,1.2806902,-5.0187409,-217.27173)"><g
         id="g258"
         clip-path="url(#clipPath260)"><text
   transform="matrix(1,0,0,-1,163.19141,642.43065)"
   id="text264"><tspan
     style="font-size:6px;font-variant:normal;font-weight:normal;writing-mode:lr-tb;fill:#000000;fill-opacity:1;fill-rule:nonzero;stroke:none;font-family:DejaVu Sans;-inkscape-font-specification:DejaVuSansBold"
     x="0 4.1700001 8.3400002"
     y="0"
     sodipodi:role="line"
     id="tspan266">21d</tspan></text>

</g></g><g
       id="g268"
       transform="matrix(1.2806902,0,0,1.2806902,-5.0187409,-217.27173)"><path
         d="m 18,639 171.82,0"
         style="fill:none;stroke:#000000;stroke-width:0.23999999;stroke-linecap:butt;stroke-linejoin:miter;stroke-miterlimit:10;stroke-opacity:1;stroke-dasharray:none"
         id="path270" /></g><g
       id="g272"
       transform="matrix(1.2806902,0,0,1.2806902,-5.0187409,-217.27173)"><g
         id="g274"
         clip-path="url(#clipPath276)"><text
   transform="matrix(1,0,0,-1,36.421875,630.43065)"
   id="text280"><tspan
     style="font-size:6px;font-variant:normal;font-weight:normal;writing-mode:lr-tb;fill:#000000;fill-opacity:1;fill-rule:nonzero;stroke:none;font-family:DejaVu Sans;-inkscape-font-specification:DejaVuSans"
     x="0 4.1880002 7.8600001 11.664 15.336 18.629999 20.292 22.643999 26.316 29.610001 31.271999 34.938"
     y="0"
     sodipodi:role="line"
     id="tspan282">Capacitación</tspan></text>

</g></g><g
       id="g284"
       transform="matrix(1.2806902,0,0,1.2806902,-5.0187409,-217.27173)"><g
         id="g286"
         clip-path="url(#clipPath288)"><text
   transform="matrix(1,0,0,-1,163.19141,630.43065)"
   id="text292"><tspan
     style="font-size:6px;font-variant:normal;font-weight:normal;writing-mode:lr-tb;fill:#000000;fill-opacity:1;fill-rule:nonzero;stroke:none;font-family:DejaVu Sans;-inkscape-font-specification:DejaVuSans"
     x="0 3.816"
     y="0"
     sodipodi:role="line"
     id="tspan294">1d</tspan></text>

</g></g><g
       id="g296"
       transform="matrix(1.2806902,0,0,1.2806902,-5.0187409,-217.27173)"><path
         d="m 18,627 171.82,0"
         style="fill:none;stroke:#000000;stroke-width:0.23999999;stroke-linecap:butt;stroke-linejoin:miter;stroke-miterlimit:10;stroke-opacity:1;stroke-dasharray:none"
         id="path298" /></g><g
       id="g300"
       transform="matrix(1.2806902,0,0,1.2806902,-5.0187409,-217.27173)"><g
         id="g302"
         clip-path="url(#clipPath304)"><text
   transform="matrix(1,0,0,-1,36.421875,618.43065)"
   id="text308"><tspan
     style="font-size:6px;font-variant:normal;font-weight:normal;writing-mode:lr-tb;fill:#000000;fill-opacity:1;fill-rule:nonzero;stroke:none;font-family:DejaVu Sans;-inkscape-font-specification:DejaVuSans"
     x="0 4.1040001 7.902 11.574 13.236 14.898 18.018 19.68 22.799999 24.702 28.506001 32.178001 34.644001 38.316002 40.217999 43.908001 47.028 49.380001 53.178001 56.981998 58.644001 62.39941 64.301414 68.105415 71.79541 73.697411 79.541412 83.339409 87.029411 89.495415 91.847412 95.537415 97.439415 100.55941 104.35741 108.16142 109.82341 112.17542"
     y="0"
     sodipodi:role="line"
     id="tspan310">Análisis para estudio de muerte súbita</tspan></text>

</g></g><g
       id="g312"
       transform="matrix(1.2806902,0,0,1.2806902,-5.0187409,-217.27173)"><g
         id="g314"
         clip-path="url(#clipPath316)"><text
   transform="matrix(1,0,0,-1,163.19141,618.43065)"
   id="text320"><tspan
     style="font-size:6px;font-variant:normal;font-weight:normal;writing-mode:lr-tb;fill:#000000;fill-opacity:1;fill-rule:nonzero;stroke:none;font-family:DejaVu Sans;-inkscape-font-specification:DejaVuSans"
     x="0 3.816 7.632"
     y="0"
     sodipodi:role="line"
     id="tspan322">20d</tspan></text>

</g></g><g
       id="g324"
       transform="matrix(1.2806902,0,0,1.2806902,-5.0187409,-217.27173)"><path
         d="m 18,615 171.82,0"
         style="fill:none;stroke:#000000;stroke-width:0.23999999;stroke-linecap:butt;stroke-linejoin:miter;stroke-miterlimit:10;stroke-opacity:1;stroke-dasharray:none"
         id="path326" /></g><g
       id="g328"
       transform="matrix(1.2806902,0,0,1.2806902,-5.0187409,-217.27173)"><g
         id="g330"
         clip-path="url(#clipPath332)"><text
   transform="matrix(1,0,0,-1,28.234375,606.43065)"
   id="text336"><tspan
     style="font-size:6px;font-variant:normal;font-weight:normal;writing-mode:lr-tb;fill:#000000;fill-opacity:1;fill-rule:nonzero;stroke:none;font-family:DejaVu Sans;-inkscape-font-specification:DejaVuSans"
     x="0 3.9000001 7.5900002 11.394 15.066 18.360001 21.653999 23.316 26.982"
     y="0"
     sodipodi:role="line"
     id="tspan338">Redacción</tspan></text>

</g></g><g
       id="g340"
       transform="matrix(1.2806902,0,0,1.2806902,-5.0187409,-217.27173)"><g
         id="g342"
         clip-path="url(#clipPath344)"><text
   transform="matrix(1,0,0,-1,163.19141,606.43065)"
   id="text348"><tspan
     style="font-size:6px;font-variant:normal;font-weight:normal;writing-mode:lr-tb;fill:#000000;fill-opacity:1;fill-rule:nonzero;stroke:none;font-family:DejaVu Sans;-inkscape-font-specification:DejaVuSans"
     x="0 3.816 7.632"
     y="0"
     sodipodi:role="line"
     id="tspan350">15d</tspan></text>

</g></g><g
       id="g352"
       transform="matrix(1.2806902,0,0,1.2806902,-5.0187409,-217.27173)"><path
         d="m 18,603 171.82,0"
         style="fill:none;stroke:#000000;stroke-width:0.23999999;stroke-linecap:butt;stroke-linejoin:miter;stroke-miterlimit:10;stroke-opacity:1;stroke-dasharray:none"
         id="path354" /></g><g
       id="g356"
       transform="matrix(1.2806902,0,0,1.2806902,-5.0187409,-217.27173)"><g
         id="g358"
         clip-path="url(#clipPath360)"><text
   transform="matrix(1,0,0,-1,28.234375,594.43065)"
   id="text364"><tspan
     style="font-size:6px;font-variant:normal;font-weight:normal;writing-mode:lr-tb;fill:#000000;fill-opacity:1;fill-rule:nonzero;stroke:none;font-family:DejaVu Sans;-inkscape-font-specification:DejaVuSans"
     x="0 3.9000001 7.5900002 11.136 12.798 15.918 17.58 21.246"
     y="0"
     sodipodi:role="line"
     id="tspan366">Revisión</tspan></text>

</g></g><g
       id="g368"
       transform="matrix(1.2806902,0,0,1.2806902,-5.0187409,-217.27173)"><g
         id="g370"
         clip-path="url(#clipPath372)"><text
   transform="matrix(1,0,0,-1,163.19141,594.43065)"
   id="text376"><tspan
     style="font-size:6px;font-variant:normal;font-weight:normal;writing-mode:lr-tb;fill:#000000;fill-opacity:1;fill-rule:nonzero;stroke:none;font-family:DejaVu Sans;-inkscape-font-specification:DejaVuSans"
     x="0 3.816"
     y="0"
     sodipodi:role="line"
     id="tspan378">5d</tspan></text>

</g></g><g
       id="g380"
       transform="matrix(1.2806902,0,0,1.2806902,-5.0187409,-217.27173)"><path
         d="m 18,591 171.82,0"
         style="fill:none;stroke:#000000;stroke-width:0.23999999;stroke-linecap:butt;stroke-linejoin:miter;stroke-miterlimit:10;stroke-opacity:1;stroke-dasharray:none"
         id="path382" /></g><g
       id="g384"
       transform="matrix(1.2806902,0,0,1.2806902,-5.0187409,-217.27173)"><g
         id="g386"
         clip-path="url(#clipPath388)"><text
   transform="matrix(1,0,0,-1,28.234375,582.43065)"
   id="text392"><tspan
     style="font-size:6px;font-variant:normal;font-weight:normal;writing-mode:lr-tb;fill:#000000;fill-opacity:1;fill-rule:nonzero;stroke:none;font-family:DejaVu Sans;-inkscape-font-specification:DejaVuSans"
     x="0 3.786 7.5840001 9.9359999 12.276 15.966 19.77 23.441999 25.344 29.118 32.916 36.588001"
     y="0"
     sodipodi:role="line"
     id="tspan394">Entrega ﬁnal</tspan></text>

</g></g><g
       id="g396"
       transform="matrix(1.2806902,0,0,1.2806902,-5.0187409,-217.27173)"><g
         id="g398"
         clip-path="url(#clipPath400)"><text
   transform="matrix(1,0,0,-1,163.19141,582.43065)"
   id="text404"><tspan
     style="font-size:6px;font-variant:normal;font-weight:normal;writing-mode:lr-tb;fill:#000000;fill-opacity:1;fill-rule:nonzero;stroke:none;font-family:DejaVu Sans;-inkscape-font-specification:DejaVuSans"
     x="0 3.816"
     y="0"
     sodipodi:role="line"
     id="tspan406">1d</tspan></text>

</g></g><g
       id="g432"
       transform="matrix(1.2806902,0,0,1.2806902,-5.0187409,-217.27173)"><path
         d="m 229.371,760.5 0,-13.5"
         style="fill:none;stroke:#000000;stroke-width:0.23999999;stroke-linecap:butt;stroke-linejoin:miter;stroke-miterlimit:10;stroke-opacity:1;stroke-dasharray:none"
         id="path434" /></g><g
       id="g436"
       transform="matrix(1.2806902,0,0,1.2806902,-5.0187409,-217.27173)"><g
         id="g438"
         clip-path="url(#clipPath440)"><text
   transform="matrix(1,0,0,-1,231.41797,750.43065)"
   id="text444"
   style="font-size:6.24663162px;font-style:normal;font-variant:normal;font-weight:normal;font-stretch:normal;text-align:start;line-height:125%;writing-mode:lr-tb;text-anchor:start;font-family:DejaVu Sans;-inkscape-font-specification:DejaVu Sans"
   sodipodi:linespacing="125%"><tspan
     sodipodi:role="line"
     id="tspan3649"
     x="0"
     y="0">Abr 2012</tspan></text>

</g></g><g
       id="g448"
       transform="matrix(1.2806902,0,0,1.2806902,-5.0187409,-217.27173)"><path
         d="m 273.316,760.5 0,-13.5"
         style="fill:none;stroke:#000000;stroke-width:0.23999999;stroke-linecap:butt;stroke-linejoin:miter;stroke-miterlimit:10;stroke-opacity:1;stroke-dasharray:none"
         id="path450" /></g><g
       id="g452"
       transform="matrix(1.2806902,0,0,1.2806902,-5.0187409,-217.27173)"><g
         id="g454"
         clip-path="url(#clipPath456)"><text
   transform="matrix(1,0,0,-1,275.36328,750.43065)"
   id="text460"><tspan
     style="font-size:6px;font-variant:normal;font-weight:normal;writing-mode:lr-tb;fill:#000000;fill-opacity:1;fill-rule:nonzero;stroke:none;font-family:DejaVu Sans;-inkscape-font-specification:DejaVuSans"
     x="0 5.1719999 8.8439999 12.39 14.292 18.108 21.924 25.74"
     y="0"
     sodipodi:role="line"
     id="tspan462">May 2012</tspan></text>

</g></g><g
       id="g464"
       transform="matrix(1.2806902,0,0,1.2806902,-5.0187409,-217.27173)"><path
         d="m 318.727,760.5 0,-13.5"
         style="fill:none;stroke:#000000;stroke-width:0.23999999;stroke-linecap:butt;stroke-linejoin:miter;stroke-miterlimit:10;stroke-opacity:1;stroke-dasharray:none"
         id="path466" /></g><g
       id="g468"
       transform="matrix(1.2806902,0,0,1.2806902,-5.0187409,-217.27173)"><g
         id="g470"
         clip-path="url(#clipPath472)"><text
   transform="matrix(1,0,0,-1,320.77344,750.43065)"
   id="text476"><tspan
     style="font-size:6px;font-variant:normal;font-weight:normal;writing-mode:lr-tb;fill:#000000;fill-opacity:1;fill-rule:nonzero;stroke:none;font-family:DejaVu Sans;-inkscape-font-specification:DejaVuSans"
     x="0 1.7640001 5.5619998 9.3599997 11.262 15.078 18.893999 22.709999"
     y="0"
     sodipodi:role="line"
     id="tspan478">Jun 2012</tspan></text>

</g></g><g
       id="g480"
       transform="matrix(1.2806902,0,0,1.2806902,-5.0187409,-217.27173)"><path
         d="m 362.672,760.5 0,-13.5"
         style="fill:none;stroke:#000000;stroke-width:0.23999999;stroke-linecap:butt;stroke-linejoin:miter;stroke-miterlimit:10;stroke-opacity:1;stroke-dasharray:none"
         id="path482" /></g><g
       id="g484"
       transform="matrix(1.2806902,0,0,1.2806902,-5.0187409,-217.27173)"><g
         id="g486"
         clip-path="url(#clipPath488)"><text
   transform="matrix(1,0,0,-1,364.71875,750.43065)"
   id="text492"><tspan
     style="font-size:6px;font-variant:normal;font-weight:normal;writing-mode:lr-tb;fill:#000000;fill-opacity:1;fill-rule:nonzero;stroke:none;font-family:DejaVu Sans;-inkscape-font-specification:DejaVuSans"
     x="0 1.7640001 5.5619998 7.224 9.1260004 12.942 16.757999 20.573999"
     y="0"
     sodipodi:role="line"
     id="tspan494">Jul 2012</tspan></text>

</g></g><g
       id="g496"
       transform="matrix(1.2806902,0,0,1.2806902,-5.0187409,-217.27173)"><path
         d="m 408.082,760.5 0,-13.5"
         style="fill:none;stroke:#000000;stroke-width:0.23999999;stroke-linecap:butt;stroke-linejoin:miter;stroke-miterlimit:10;stroke-opacity:1;stroke-dasharray:none"
         id="path498" /></g><g
       id="g500"
       transform="matrix(1.2806902,0,0,1.2806902,-5.0187409,-217.27173)"><g
         id="g502"
         clip-path="url(#clipPath504)"><text
   transform="matrix(1,0,0,-1,410.12891,750.43065)"
   id="text508"
   style="font-size:6.24663162px;font-style:normal;font-variant:normal;font-weight:normal;font-stretch:normal;text-align:start;line-height:125%;writing-mode:lr-tb;text-anchor:start;font-family:DejaVu Sans;-inkscape-font-specification:DejaVu Sans"
   sodipodi:linespacing="125%"><tspan
     sodipodi:role="line"
     id="tspan3672"
     x="0"
     y="0">Ago 2012</tspan></text>

</g></g><g
       id="g576"
       transform="matrix(1.2806902,0,0,1.2806902,-5.0187409,-217.27173)"><path
         d="m 18,747 171.82,0"
         style="fill:none;stroke:#000000;stroke-width:0.23999999;stroke-linecap:butt;stroke-linejoin:miter;stroke-miterlimit:10;stroke-opacity:1;stroke-dasharray:none"
         id="path578" /></g><g
       id="g580"
       transform="matrix(0.96675545,0,0,0.96675545,2.906063,7.534758)"><g
         id="g582"
         clip-path="url(#clipPath584)"><text
   transform="matrix(1,0,0,-1,20.046875,762.43065)"
   id="text588"><tspan
     style="font-size:12.80000019px;font-variant:normal;font-weight:normal;writing-mode:lr-tb;fill:#000000;fill-opacity:1;fill-rule:nonzero;stroke:none;font-family:DejaVu Sans;-inkscape-font-specification:DejaVuSansBold"
     x="0"
     y="0"
     sodipodi:role="line"
     id="tspan590">Actividad</tspan></text>

</g></g><g
       id="g592"
       transform="matrix(1.2806902,0,0,1.2806902,-5.0187409,-231.67173)"><g
         id="g594"
         clip-path="url(#clipPath596)"><text
   transform="matrix(1,0,0,-1,163.19141,762.43065)"
   id="text600"
   style="font-size:6.24663162px;font-style:normal;font-variant:normal;font-weight:normal;font-stretch:normal;text-align:start;line-height:125%;writing-mode:lr-tb;text-anchor:start;font-family:DejaVu Sans;-inkscape-font-specification:DejaVu Sans"
   sodipodi:linespacing="125%"><tspan
     style="font-size:6.24663162px;font-style:normal;font-variant:normal;font-weight:normal;font-stretch:normal;text-align:start;line-height:125%;writing-mode:lr-tb;text-anchor:start;fill:#000000;fill-opacity:1;fill-rule:nonzero;stroke:none;font-family:DejaVu Sans;-inkscape-font-specification:DejaVu Sans"
     x="0"
     y="0"
     sodipodi:role="line"
     id="tspan602">Tiempo</tspan></text>

</g></g><path
       id="path606"
       style="fill:none;stroke:#000000;stroke-width:0.30736566;stroke-linecap:butt;stroke-linejoin:miter;stroke-miterlimit:10;stroke-opacity:1;stroke-dasharray:none"
       d="m 264.97125,731.71971 0,-15.36828" /><path
       id="path608"
       style="fill:none;stroke:#000000;stroke-width:0.30736566;stroke-linecap:butt;stroke-linejoin:miter;stroke-miterlimit:10;stroke-opacity:1;stroke-dasharray:none"
       d="m 260.04955,731.71971 4.9217,0" /><path
       id="path610"
       style="fill:#000000;fill-opacity:1;fill-rule:nonzero;stroke:none"
       d="m 264.97125,720.1935 -1.69052,3.6871 3.38231,0 -1.69179,-3.6871 z" /><path
       id="path612"
       style="fill:none;stroke:#000000;stroke-width:0.30736566;stroke-linecap:butt;stroke-linejoin:miter;stroke-miterlimit:10;stroke-opacity:1;stroke-dasharray:none"
       d="m 291.23564,700.98314 0,-15.36828" /><path
       id="path614"
       style="fill:none;stroke:#000000;stroke-width:0.30736566;stroke-linecap:butt;stroke-linejoin:miter;stroke-miterlimit:10;stroke-opacity:1;stroke-dasharray:none"
       d="m 286.31267,700.98314 4.92297,0" /><path
       id="path616"
       style="fill:#000000;fill-opacity:1;fill-rule:nonzero;stroke:none"
       d="m 291.23564,689.45693 -1.69051,3.68711 3.3823,0 -1.69179,-3.68711 z" /><path
       id="path618"
       style="fill:none;stroke:#000000;stroke-width:0.30736566;stroke-linecap:butt;stroke-linejoin:miter;stroke-miterlimit:10;stroke-opacity:1;stroke-dasharray:none"
       d="m 343.76443,685.61486 0,-15.36828" /><path
       id="path620"
       style="fill:none;stroke:#000000;stroke-width:0.30736566;stroke-linecap:butt;stroke-linejoin:miter;stroke-miterlimit:10;stroke-opacity:1;stroke-dasharray:none"
       d="m 338.84146,685.61486 4.92297,0" /><path
       id="path622"
       style="fill:#000000;fill-opacity:1;fill-rule:nonzero;stroke:none"
       d="m 343.76443,674.08865 -1.69051,3.68711 3.38102,0 -1.69051,-3.68711 z" /><path
       id="path624"
       style="fill:none;stroke:#000000;stroke-width:0.30736566;stroke-linecap:butt;stroke-linejoin:miter;stroke-miterlimit:10;stroke-opacity:1;stroke-dasharray:none"
       d="m 370.02882,716.35143 0,-61.47313" /><path
       id="path626"
       style="fill:none;stroke:#000000;stroke-width:0.30736566;stroke-linecap:butt;stroke-linejoin:miter;stroke-miterlimit:10;stroke-opacity:1;stroke-dasharray:none"
       d="m 365.10585,716.35143 4.92297,0" /><path
       id="path628"
       style="fill:#000000;fill-opacity:1;fill-rule:nonzero;stroke:none"
       d="m 370.02882,658.72037 -1.69179,3.6871 3.38231,0 -1.69052,-3.6871 z" /><path
       id="path630"
       style="fill:none;stroke:#000000;stroke-width:0.30736566;stroke-linecap:butt;stroke-linejoin:miter;stroke-miterlimit:10;stroke-opacity:1;stroke-dasharray:none"
       d="m 370.02882,670.24658 0,-30.73657" /><path
       id="path632"
       style="fill:none;stroke:#000000;stroke-width:0.30736566;stroke-linecap:butt;stroke-linejoin:miter;stroke-miterlimit:10;stroke-opacity:1;stroke-dasharray:none"
       d="m 365.10585,670.24658 4.92297,0" /><path
       id="path634"
       style="fill:#000000;fill-opacity:1;fill-rule:nonzero;stroke:none"
       d="m 370.02882,643.35208 -1.69179,3.68711 3.38231,0 -1.69052,-3.68711 z" /><path
       id="path636"
       style="fill:none;stroke:#000000;stroke-width:0.30736566;stroke-linecap:butt;stroke-linejoin:miter;stroke-miterlimit:10;stroke-opacity:1;stroke-dasharray:none"
       d="m 396.29194,639.51001 0,-15.36828" /><path
       id="path638"
       style="fill:none;stroke:#000000;stroke-width:0.30736566;stroke-linecap:butt;stroke-linejoin:miter;stroke-miterlimit:10;stroke-opacity:1;stroke-dasharray:none"
       d="m 391.37025,639.51001 4.92169,0" /><path
       id="path640"
       style="fill:#000000;fill-opacity:1;fill-rule:nonzero;stroke:none"
       d="m 396.29194,627.9838 -1.69051,3.68711 3.3823,0 -1.69179,-3.68711 z" /><path
       id="path642"
       style="fill:none;stroke:#000000;stroke-width:0.30736566;stroke-linecap:butt;stroke-linejoin:miter;stroke-miterlimit:10;stroke-opacity:1;stroke-dasharray:none"
       d="m 422.55633,624.14173 0,-30.73656" /><path
       id="path644"
       style="fill:none;stroke:#000000;stroke-width:0.30736566;stroke-linecap:butt;stroke-linejoin:miter;stroke-miterlimit:10;stroke-opacity:1;stroke-dasharray:none"
       d="m 417.63464,624.14173 4.92169,0" /><path
       id="path646"
       style="fill:#000000;fill-opacity:1;fill-rule:nonzero;stroke:none"
       d="m 422.55633,597.24724 -1.69051,3.6871 3.38231,0 -1.6918,-3.6871 z" /><path
       id="path648"
       style="fill:none;stroke:#000000;stroke-width:0.30736566;stroke-linecap:butt;stroke-linejoin:miter;stroke-miterlimit:10;stroke-opacity:1;stroke-dasharray:none"
       d="m 424.43255,593.40517 0,-15.36829" /><path
       id="path650"
       style="fill:none;stroke:#000000;stroke-width:0.30736566;stroke-linecap:butt;stroke-linejoin:miter;stroke-miterlimit:10;stroke-opacity:1;stroke-dasharray:none"
       d="m 423.26199,593.40517 1.17056,0" /><path
       id="path652"
       style="fill:#000000;fill-opacity:1;fill-rule:nonzero;stroke:none"
       d="m 424.43255,581.87895 -1.69052,3.68711 3.38103,0 -1.69051,-3.68711 z" /><path
       id="path654"
       style="fill:none;stroke:#000000;stroke-width:0.30736566;stroke-linecap:butt;stroke-linejoin:miter;stroke-miterlimit:10;stroke-opacity:1;stroke-dasharray:none"
       d="m 476.96133,578.03688 0,-15.36828" /><path
       id="path656"
       style="fill:none;stroke:#000000;stroke-width:0.30736566;stroke-linecap:butt;stroke-linejoin:miter;stroke-miterlimit:10;stroke-opacity:1;stroke-dasharray:none"
       d="m 475.79078,578.03688 1.17055,0" /><path
       id="path658"
       style="fill:#000000;fill-opacity:1;fill-rule:nonzero;stroke:none"
       d="m 476.96133,566.51067 -1.69179,3.68711 3.38231,0 -1.69052,-3.68711 z" /><path
       id="path660"
       style="fill:none;stroke:#000000;stroke-width:0.30736566;stroke-linecap:butt;stroke-linejoin:miter;stroke-miterlimit:10;stroke-opacity:1;stroke-dasharray:none"
       d="m 516.35665,562.6686 0,-15.36828" /><path
       id="path662"
       style="fill:none;stroke:#000000;stroke-width:0.30736566;stroke-linecap:butt;stroke-linejoin:miter;stroke-miterlimit:10;stroke-opacity:1;stroke-dasharray:none"
       d="m 515.1861,562.6686 1.17055,0" /><path
       id="path664"
       style="fill:#000000;fill-opacity:1;fill-rule:nonzero;stroke:none"
       d="m 516.35665,551.14239 -1.69052,3.68711 3.38231,0 -1.69179,-3.68711 z" /><path
       id="path666"
       style="fill:none;stroke:#000000;stroke-width:0.30736566;stroke-linecap:butt;stroke-linejoin:miter;stroke-miterlimit:10;stroke-opacity:1;stroke-dasharray:none"
       d="m 529.48884,547.30032 0,-15.36828" /><path
       id="path668"
       style="fill:none;stroke:#000000;stroke-width:0.30736566;stroke-linecap:butt;stroke-linejoin:miter;stroke-miterlimit:10;stroke-opacity:1;stroke-dasharray:none"
       d="m 528.31829,547.30032 1.17055,0" /><path
       id="path670"
       style="fill:#000000;fill-opacity:1;fill-rule:nonzero;stroke:none"
       d="m 529.48884,535.77411 -1.69051,3.6871 3.38231,0 -1.6918,-3.6871 z" /><path
       id="path672"
       style="fill:#ebebeb;fill-opacity:1;fill-rule:nonzero;stroke:#000000;stroke-width:0.30736566;stroke-linecap:butt;stroke-linejoin:miter;stroke-miterlimit:10;stroke-opacity:1;stroke-dasharray:none"
       d="m 529.48884,535.77411 0.70566,0 0,-7.68414 -0.70566,0 0,7.68414 z" /><path
       id="path674"
       style="fill:#878787;fill-opacity:1;fill-rule:nonzero;stroke:none"
       d="m 529.48884,533.85307 0,0 0,-3.84207 0,0 0,3.84207 z" /><path
       id="path676"
       style="fill:#ebebeb;fill-opacity:1;fill-rule:nonzero;stroke:#000000;stroke-width:0.30736566;stroke-linecap:butt;stroke-linejoin:miter;stroke-miterlimit:10;stroke-opacity:1;stroke-dasharray:none"
       d="m 516.35665,551.14239 11.96164,0 0,-7.68414 -11.96164,0 0,7.68414 z" /><path
       id="path678"
       style="fill:#878787;fill-opacity:1;fill-rule:nonzero;stroke:none"
       d="m 516.35665,549.22135 0,0 0,-3.84207 0,0 0,3.84207 z" /><path
       id="path680"
       style="fill:#ebebeb;fill-opacity:1;fill-rule:nonzero;stroke:#000000;stroke-width:0.30736566;stroke-linecap:butt;stroke-linejoin:miter;stroke-miterlimit:10;stroke-opacity:1;stroke-dasharray:none"
       d="m 476.96133,566.51067 38.22605,0 0,-7.68414 -38.22605,0 0,7.68414 z" /><path
       id="path682"
       style="fill:#878787;fill-opacity:1;fill-rule:nonzero;stroke:none"
       d="m 476.96133,564.58964 0,0 0,-3.84207 0,0 0,3.84207 z" /><path
       id="path684"
       style="fill:#ebebeb;fill-opacity:1;fill-rule:nonzero;stroke:#000000;stroke-width:0.30736566;stroke-linecap:butt;stroke-linejoin:miter;stroke-miterlimit:10;stroke-opacity:1;stroke-dasharray:none"
       d="m 424.43255,581.87895 51.35823,0 0,-7.68414 -51.35823,0 0,7.68414 z" /><path
       id="path686"
       style="fill:#878787;fill-opacity:1;fill-rule:nonzero;stroke:none"
       d="m 424.43255,579.95792 0,0 0,-3.84207 0,0 0,3.84207 z" /><path
       id="path688"
       style="fill:#ebebeb;fill-opacity:1;fill-rule:nonzero;stroke:#000000;stroke-width:0.30736566;stroke-linecap:butt;stroke-linejoin:miter;stroke-miterlimit:10;stroke-opacity:1;stroke-dasharray:none"
       d="m 422.55633,597.24724 0.70566,0 0,-7.68414 -0.70566,0 0,7.68414 z" /><path
       id="path690"
       style="fill:#878787;fill-opacity:1;fill-rule:nonzero;stroke:none"
       d="m 422.55633,595.3262 0,0 0,-3.84207 0,0 0,3.84207 z" /><path
       id="path692"
       style="fill:#000000;fill-opacity:1;fill-rule:nonzero;stroke:none"
       d="m 422.55633,611.53974 0,-3.68711 3.38231,3.68711 -3.38231,0 z" /><path
       id="path694"
       style="fill:#000000;fill-opacity:1;fill-rule:nonzero;stroke:none"
       d="m 475.79078,611.53974 0,-3.68711 -3.3823,3.68711 3.3823,0 z" /><path
       id="path696"
       style="fill:#000000;fill-opacity:1;fill-rule:nonzero;stroke:none"
       d="m 475.79078,610.46396 -53.23317,0 0,1.07578 53.23317,0 0,-1.07578 z" /><path
       id="path698"
       style="fill:#ebebeb;fill-opacity:1;fill-rule:nonzero;stroke:#000000;stroke-width:0.30736566;stroke-linecap:butt;stroke-linejoin:miter;stroke-miterlimit:10;stroke-opacity:1;stroke-dasharray:none"
       d="m 396.29194,627.9838 21.34142,0 0,-7.68414 -21.34142,0 0,7.68414 z" /><path
       id="path700"
       style="fill:#878787;fill-opacity:1;fill-rule:nonzero;stroke:none"
       d="m 396.29194,626.06277 0,0 0,-3.84207 0,0 0,3.84207 z" /><path
       id="path702"
       style="fill:#ebebeb;fill-opacity:1;fill-rule:nonzero;stroke:#000000;stroke-width:0.30736566;stroke-linecap:butt;stroke-linejoin:miter;stroke-miterlimit:10;stroke-opacity:1;stroke-dasharray:none"
       d="m 370.02882,643.35208 21.34143,0 0,-7.68414 -21.34143,0 0,7.68414 z" /><path
       id="path704"
       style="fill:#878787;fill-opacity:1;fill-rule:nonzero;stroke:none"
       d="m 370.02882,641.43105 0,0 0,-3.84207 0,0 0,3.84207 z" /><path
       id="path706"
       style="fill:#000000;fill-opacity:1;fill-rule:nonzero;stroke:none"
       d="m 370.02882,657.64459 0,-3.68711 3.38103,3.68711 -3.38103,0 z" /><path
       id="path708"
       style="fill:#000000;fill-opacity:1;fill-rule:nonzero;stroke:none"
       d="m 417.63464,657.64459 0,-3.68711 -3.3823,3.68711 3.3823,0 z" /><path
       id="path710"
       style="fill:#000000;fill-opacity:1;fill-rule:nonzero;stroke:none"
       d="m 417.63464,656.56881 -47.60582,0 0,1.07578 47.60582,0 0,-1.07578 z" /><path
       id="path712"
       style="fill:#ebebeb;fill-opacity:1;fill-rule:nonzero;stroke:#000000;stroke-width:0.30736566;stroke-linecap:butt;stroke-linejoin:miter;stroke-miterlimit:10;stroke-opacity:1;stroke-dasharray:none"
       d="m 343.76443,674.08865 21.34142,0 0,-7.68414 -21.34142,0 0,7.68414 z" /><path
       id="path714"
       style="fill:#878787;fill-opacity:1;fill-rule:nonzero;stroke:none"
       d="m 343.76443,672.16761 0,0 0,-3.84207 0,0 0,3.84207 z" /><path
       id="path716"
       style="fill:#ebebeb;fill-opacity:1;fill-rule:nonzero;stroke:#000000;stroke-width:0.30736566;stroke-linecap:butt;stroke-linejoin:miter;stroke-miterlimit:10;stroke-opacity:1;stroke-dasharray:none"
       d="m 291.23564,689.45693 47.60582,0 0,-7.68414 -47.60582,0 0,7.68414 z" /><path
       id="path718"
       style="fill:#878787;fill-opacity:1;fill-rule:nonzero;stroke:none"
       d="m 291.23564,687.5359 0,0 0,-3.84207 0,0 0,3.84207 z" /><path
       id="path720"
       style="fill:#ebebeb;fill-opacity:1;fill-rule:nonzero;stroke:#000000;stroke-width:0.30736566;stroke-linecap:butt;stroke-linejoin:miter;stroke-miterlimit:10;stroke-opacity:1;stroke-dasharray:none"
       d="m 264.97125,704.82521 21.34142,0 0,-7.68414 -21.34142,0 0,7.68414 z" /><path
       id="path722"
       style="fill:#878787;fill-opacity:1;fill-rule:nonzero;stroke:none"
       d="m 264.97125,702.90418 0,0 0,-3.84207 0,0 0,3.84207 z" /><path
       id="path724"
       style="fill:#000000;fill-opacity:1;fill-rule:nonzero;stroke:none"
       d="m 264.97125,719.11772 0,-3.68711 3.3823,3.68711 -3.3823,0 z" /><path
       id="path726"
       style="fill:#000000;fill-opacity:1;fill-rule:nonzero;stroke:none"
       d="m 365.10585,719.11772 0,-3.68711 -3.3823,3.68711 3.3823,0 z" /><path
       id="path728"
       style="fill:#000000;fill-opacity:1;fill-rule:nonzero;stroke:none"
       d="m 365.10585,718.04194 -100.1346,0 0,1.07578 100.1346,0 0,-1.07578 z" /><path
       id="path730"
       style="fill:#ebebeb;fill-opacity:1;fill-rule:nonzero;stroke:#000000;stroke-width:0.30736566;stroke-linecap:butt;stroke-linejoin:miter;stroke-miterlimit:10;stroke-opacity:1;stroke-dasharray:none"
       d="m 251.83905,735.56178 8.20922,0 0,-7.68414 -8.20922,0 0,7.68414 z" /><path
       id="path732"
       style="fill:#878787;fill-opacity:1;fill-rule:nonzero;stroke:none"
       d="m 251.83905,733.64074 0,0 0,-3.84207 0,0 0,3.84207 z" /><path
       id="path734"
       style="fill:none;stroke:#000000;stroke-width:0.14104638;stroke-linecap:butt;stroke-linejoin:miter;stroke-miterlimit:10;stroke-opacity:1;stroke-dasharray:none"
       d="m 18.02429,773.99187 574.4275,0 0,-254.09458 -574.4275,0 0,254.09458 z" /></g></svg>