#Coverage	Number of genomic locations
0.0	3632008.0
1.0	927647.0
2.0	712283.0
3.0	625481.0
4.0	579398.0
5.0	548949.0
6.0	528408.0
7.0	513238.0
8.0	508467.0
9.0	505928.0
10.0	505739.0
11.0	502112.0
12.0	505754.0
13.0	507115.0
14.0	511654.0
15.0	511830.0
16.0	515154.0
17.0	518205.0
18.0	520228.0
19.0	524302.0
20.0	525089.0
21.0	526521.0
22.0	528859.0
23.0	526761.0
24.0	528350.0
25.0	526415.0
26.0	525235.0
27.0	523124.0
28.0	519828.0
29.0	517609.0
30.0	514392.0
31.0	512384.0
32.0	508744.0
33.0	505288.0
34.0	502461.0
35.0	499058.0
36.0	493788.0
37.0	488886.0
38.0	484992.0
39.0	479274.0
40.0	472822.0
41.0	467203.0
42.0	462064.0
43.0	457396.0
44.0	451360.0
45.0	446302.0
46.0	438843.0
47.0	434599.0
48.0	427414.0
49.0	423206.0
50.0	416269.0
51.0	407910.0
52.0	401651.0
53.0	395714.0
54.0	387428.0
55.0	381321.0
56.0	375149.0
57.0	370264.0
58.0	363991.0
59.0	357941.0
60.0	353033.0
61.0	345390.0
62.0	339211.0
63.0	335271.0
64.0	328324.0
65.0	322573.0
66.0	315071.0
67.0	309641.0
68.0	304475.0
69.0	299268.0
70.0	293394.0
71.0	286496.0
72.0	281387.0
73.0	275545.0
74.0	271528.0
75.0	266120.0
76.0	260729.0
77.0	257057.0
78.0	251711.0
79.0	246288.0
80.0	241015.0
81.0	235807.0
82.0	231872.0
83.0	227465.0
84.0	223099.0
85.0	219434.0
86.0	214377.0
87.0	210639.0
88.0	206493.0
89.0	202571.0
90.0	198573.0
91.0	194598.0
92.0	191113.0
93.0	186755.0
94.0	182957.0
95.0	178503.0
96.0	175622.0
97.0	172284.0
98.0	168417.0
99.0	165611.0
100.0	161015.0
101.0	158572.0
102.0	155232.0
103.0	152197.0
104.0	150059.0
105.0	146666.0
106.0	143005.0
107.0	140081.0
108.0	138292.0
109.0	135665.0
110.0	132448.0
111.0	130070.0
112.0	126898.0
113.0	124953.0
114.0	121939.0
115.0	119616.0
116.0	117120.0
117.0	114461.0
118.0	112493.0
119.0	109232.0
120.0	108395.0
121.0	106160.0
122.0	103982.0
123.0	102011.0
124.0	99892.0
125.0	97700.0
126.0	96302.0
127.0	94091.0
128.0	91981.0
129.0	90191.0
130.0	88594.0
131.0	86799.0
132.0	84739.0
133.0	83494.0
134.0	82598.0
135.0	79987.0
136.0	78380.0
137.0	77004.0
138.0	75962.0
139.0	74878.0
140.0	73577.0
141.0	72079.0
142.0	70694.0
143.0	68732.0
144.0	68198.0
145.0	66873.0
146.0	65247.0
147.0	64408.0
148.0	63297.0
149.0	61412.0
150.0	60774.0
151.0	59668.0
152.0	58426.0
153.0	57455.0
154.0	56394.0
155.0	56094.0
156.0	54547.0
157.0	53546.0
158.0	52714.0
159.0	51291.0
160.0	50799.0
161.0	49689.0
162.0	48878.0
163.0	47945.0
164.0	46950.0
165.0	46421.0
166.0	45321.0
167.0	44403.0
168.0	43708.0
169.0	42888.0
170.0	42219.0
171.0	41503.0
172.0	40966.0
173.0	39833.0
174.0	39355.0
175.0	38846.0
176.0	38251.0
177.0	37212.0
178.0	36412.0
179.0	35760.0
180.0	35086.0
181.0	34649.0
182.0	34210.0
183.0	33211.0
184.0	32916.0
185.0	32422.0
186.0	32057.0
187.0	31577.0
188.0	31181.0
189.0	30878.0
190.0	30022.0
191.0	29501.0
192.0	28715.0
193.0	28669.0
194.0	28260.0
195.0	27313.0
196.0	27310.0
197.0	26786.0
198.0	26202.0
199.0	25576.0
200.0	25213.0
201.0	24982.0
202.0	24239.0
203.0	24325.0
204.0	23650.0
205.0	23128.0
206.0	22680.0
207.0	22319.0
208.0	21938.0
209.0	21757.0
210.0	21134.0
211.0	20771.0
212.0	20647.0
213.0	20156.0
214.0	19613.0
215.0	19540.0
216.0	19111.0
217.0	18847.0
218.0	18381.0
219.0	18356.0
220.0	17837.0
221.0	17702.0
222.0	17242.0
223.0	17043.0
224.0	16587.0
225.0	16469.0
226.0	16448.0
227.0	16011.0
228.0	15658.0
229.0	15400.0
230.0	15250.0
231.0	15187.0
232.0	14951.0
233.0	14570.0
234.0	14329.0
235.0	14150.0
236.0	13858.0
237.0	13663.0
238.0	13526.0
239.0	13105.0
240.0	12766.0
241.0	12755.0
242.0	12686.0
243.0	12417.0
244.0	12251.0
245.0	12081.0
246.0	11979.0
247.0	11772.0
248.0	11417.0
249.0	11451.0
250.0	11081.0
251.0	10803.0
252.0	10578.0
253.0	10435.0
254.0	10610.0
255.0	10249.0
256.0	10266.0
257.0	10182.0
258.0	9932.0
259.0	9715.0
260.0	9406.0
261.0	9184.0
262.0	9228.0
263.0	8933.0
264.0	8876.0
265.0	8677.0
266.0	8686.0
267.0	8650.0
268.0	8451.0
269.0	8089.0
270.0	8153.0
271.0	7838.0
272.0	8105.0
273.0	7786.0
274.0	7569.0
275.0	7506.0
276.0	7498.0
277.0	7416.0
278.0	7170.0
279.0	7164.0
280.0	6996.0
281.0	6771.0
282.0	6781.0
283.0	6725.0
284.0	6520.0
285.0	6466.0
286.0	6408.0
287.0	6324.0
288.0	6086.0
289.0	6052.0
290.0	5974.0
291.0	5860.0
292.0	5781.0
293.0	5721.0
294.0	5558.0
295.0	5389.0
296.0	5464.0
297.0	5350.0
298.0	5345.0
299.0	5205.0
300.0	5251.0
301.0	5029.0
302.0	4860.0
303.0	4860.0
304.0	4844.0
305.0	4713.0
306.0	4707.0
307.0	4525.0
308.0	4549.0
309.0	4457.0
310.0	4320.0
311.0	4210.0
312.0	4191.0
313.0	4025.0
314.0	3903.0
315.0	3995.0
316.0	3956.0
317.0	3927.0
318.0	3768.0
319.0	3784.0
320.0	3672.0
321.0	3647.0
322.0	3580.0
323.0	3553.0
324.0	3537.0
325.0	3491.0
326.0	3429.0
327.0	3294.0
328.0	3292.0
329.0	3227.0
330.0	3138.0
331.0	3084.0
332.0	2997.0
333.0	2947.0
334.0	2994.0
335.0	2964.0
336.0	2840.0
337.0	2808.0
338.0	2796.0
339.0	2765.0
340.0	2755.0
341.0	2740.0
342.0	2657.0
343.0	2569.0
344.0	2508.0
345.0	2493.0
346.0	2501.0
347.0	2454.0
348.0	2432.0
349.0	2375.0
350.0	2306.0
351.0	2196.0
352.0	2278.0
353.0	2262.0
354.0	2144.0
355.0	2095.0
356.0	2083.0
357.0	2089.0
358.0	2133.0
359.0	2074.0
360.0	2024.0
361.0	1915.0
362.0	1931.0
363.0	2008.0
364.0	1949.0
365.0	1935.0
366.0	1919.0
367.0	1832.0
368.0	1739.0
369.0	1792.0
370.0	1778.0
371.0	1705.0
372.0	1629.0
373.0	1612.0
374.0	1616.0
375.0	1621.0
376.0	1578.0
377.0	1515.0
378.0	1512.0
379.0	1549.0
380.0	1468.0
381.0	1479.0
382.0	1489.0
383.0	1412.0
384.0	1435.0
385.0	1382.0
386.0	1367.0
387.0	1347.0
388.0	1335.0
389.0	1288.0
390.0	1251.0
391.0	1223.0
392.0	1247.0
393.0	1198.0
394.0	1246.0
395.0	1196.0
396.0	1198.0
397.0	1131.0
398.0	1143.0
399.0	1122.0
400.0	1131.0
401.0	1073.0
402.0	1096.0
403.0	1046.0
404.0	1097.0
405.0	973.0
406.0	987.0
407.0	982.0
408.0	974.0
409.0	958.0
410.0	936.0
411.0	1009.0
412.0	908.0
413.0	923.0
414.0	905.0
415.0	887.0
416.0	855.0
417.0	882.0
418.0	809.0
419.0	848.0
420.0	796.0
421.0	822.0
422.0	778.0
423.0	812.0
424.0	711.0
425.0	748.0
426.0	743.0
427.0	706.0
428.0	736.0
429.0	698.0
430.0	714.0
431.0	689.0
432.0	672.0
433.0	652.0
434.0	665.0
435.0	602.0
436.0	605.0
437.0	622.0
438.0	580.0
439.0	564.0
440.0	612.0
441.0	612.0
442.0	567.0
443.0	577.0
444.0	556.0
445.0	543.0
446.0	561.0
447.0	523.0
448.0	564.0
449.0	536.0
450.0	526.0
451.0	572.0
452.0	492.0
453.0	544.0
454.0	546.0
455.0	491.0
456.0	458.0
457.0	485.0
458.0	488.0
459.0	460.0
460.0	460.0
461.0	393.0
462.0	433.0
463.0	430.0
464.0	447.0
465.0	448.0
466.0	444.0
467.0	417.0
468.0	422.0
469.0	377.0
470.0	394.0
471.0	367.0
472.0	418.0
473.0	382.0
474.0	329.0
475.0	347.0
476.0	369.0
477.0	365.0
478.0	317.0
479.0	336.0
480.0	332.0
481.0	304.0
482.0	318.0
483.0	335.0
484.0	300.0
485.0	270.0
486.0	320.0
487.0	329.0
488.0	303.0
489.0	308.0
490.0	293.0
491.0	317.0
492.0	288.0
493.0	307.0
494.0	262.0
495.0	298.0
496.0	294.0
497.0	254.0
498.0	264.0
499.0	278.0
500.0	233.0
501.0	244.0
502.0	283.0
503.0	267.0
504.0	271.0
505.0	259.0
506.0	248.0
507.0	223.0
508.0	268.0
509.0	233.0
510.0	236.0
511.0	246.0
512.0	242.0
513.0	226.0
514.0	245.0
515.0	203.0
516.0	210.0
517.0	222.0
518.0	188.0
519.0	207.0
520.0	228.0
521.0	222.0
522.0	210.0
523.0	230.0
524.0	177.0
525.0	201.0
526.0	209.0
527.0	231.0
528.0	194.0
529.0	187.0
530.0	187.0
531.0	154.0
532.0	165.0
533.0	179.0
534.0	178.0
535.0	173.0
536.0	167.0
537.0	170.0
538.0	156.0
539.0	164.0
540.0	159.0
541.0	155.0
542.0	134.0
543.0	143.0
544.0	139.0
545.0	167.0
546.0	159.0
547.0	164.0
548.0	127.0
549.0	147.0
550.0	146.0
551.0	137.0
552.0	158.0
553.0	147.0
554.0	145.0
555.0	125.0
556.0	114.0
557.0	135.0
558.0	134.0
559.0	144.0
560.0	117.0
561.0	136.0
562.0	126.0
563.0	134.0
564.0	161.0
565.0	125.0
566.0	117.0
567.0	127.0
568.0	121.0
569.0	129.0
570.0	149.0
571.0	106.0
572.0	123.0
573.0	129.0
574.0	116.0
575.0	126.0
576.0	109.0
577.0	120.0
578.0	120.0
579.0	117.0
580.0	124.0
581.0	103.0
582.0	103.0
583.0	115.0
584.0	104.0
585.0	120.0
586.0	93.0
587.0	110.0
588.0	89.0
589.0	107.0
590.0	91.0
591.0	99.0
592.0	73.0
593.0	91.0
594.0	95.0
595.0	85.0
596.0	81.0
597.0	85.0
598.0	91.0
599.0	67.0
600.0	91.0
601.0	81.0
602.0	93.0
603.0	87.0
604.0	79.0
605.0	66.0
606.0	95.0
607.0	76.0
608.0	69.0
609.0	69.0
610.0	78.0
611.0	90.0
612.0	80.0
613.0	56.0
614.0	78.0
615.0	77.0
616.0	71.0
617.0	76.0
618.0	64.0
619.0	77.0
620.0	70.0
621.0	78.0
622.0	70.0
623.0	79.0
624.0	65.0
625.0	85.0
626.0	71.0
627.0	67.0
628.0	63.0
629.0	67.0
630.0	77.0
631.0	87.0
632.0	55.0
633.0	59.0
634.0	87.0
635.0	76.0
636.0	53.0
637.0	72.0
638.0	62.0
639.0	54.0
640.0	56.0
641.0	50.0
642.0	52.0
643.0	63.0
644.0	70.0
645.0	48.0
646.0	52.0
647.0	53.0
648.0	51.0
649.0	72.0
650.0	57.0
651.0	61.0
652.0	44.0
653.0	53.0
654.0	47.0
655.0	67.0
656.0	56.0
657.0	46.0
658.0	49.0
659.0	66.0
660.0	61.0
661.0	49.0
662.0	50.0
663.0	50.0
664.0	53.0
665.0	53.0
666.0	47.0
667.0	44.0
668.0	58.0
669.0	56.0
670.0	60.0
671.0	50.0
672.0	32.0
673.0	53.0
674.0	32.0
675.0	36.0
676.0	51.0
677.0	52.0
678.0	48.0
679.0	42.0
680.0	48.0
681.0	42.0
682.0	39.0
683.0	30.0
684.0	43.0
685.0	45.0
686.0	41.0
687.0	54.0
688.0	36.0
689.0	34.0
690.0	49.0
691.0	43.0
692.0	52.0
693.0	47.0
694.0	39.0
695.0	30.0
696.0	44.0
697.0	33.0
698.0	40.0
699.0	31.0
700.0	33.0
701.0	43.0
702.0	48.0
703.0	37.0
704.0	34.0
705.0	30.0
706.0	39.0
707.0	35.0
708.0	45.0
709.0	29.0
710.0	34.0
711.0	35.0
712.0	34.0
713.0	36.0
714.0	28.0
715.0	33.0
716.0	26.0
717.0	37.0
718.0	25.0
719.0	26.0
720.0	30.0
721.0	29.0
722.0	35.0
723.0	32.0
724.0	27.0
725.0	35.0
726.0	38.0
727.0	28.0
728.0	30.0
729.0	21.0
730.0	29.0
731.0	34.0
732.0	32.0
733.0	26.0
734.0	26.0
735.0	25.0
736.0	35.0
737.0	39.0
738.0	29.0
739.0	37.0
740.0	39.0
741.0	27.0
742.0	41.0
743.0	24.0
744.0	33.0
745.0	25.0
746.0	28.0
747.0	23.0
748.0	27.0
749.0	32.0
750.0	26.0
751.0	29.0
752.0	51.0
753.0	17.0
754.0	30.0
755.0	37.0
756.0	19.0
757.0	28.0
758.0	23.0
759.0	24.0
760.0	25.0
761.0	25.0
762.0	18.0
763.0	21.0
764.0	26.0
765.0	29.0
766.0	28.0
767.0	32.0
768.0	23.0
769.0	19.0
770.0	25.0
771.0	22.0
772.0	21.0
773.0	22.0
774.0	24.0
775.0	23.0
776.0	22.0
777.0	19.0
778.0	21.0
779.0	28.0
780.0	20.0
781.0	16.0
782.0	19.0
783.0	26.0
784.0	22.0
785.0	27.0
786.0	30.0
787.0	21.0
788.0	21.0
789.0	18.0
790.0	23.0
791.0	19.0
792.0	25.0
793.0	27.0
794.0	29.0
795.0	22.0
796.0	27.0
797.0	30.0
798.0	15.0
799.0	28.0
800.0	19.0
801.0	21.0
802.0	26.0
803.0	23.0
804.0	27.0
805.0	22.0
806.0	18.0
807.0	22.0
808.0	17.0
809.0	26.0
810.0	18.0
811.0	21.0
812.0	20.0
813.0	20.0
814.0	25.0
815.0	15.0
816.0	28.0
817.0	14.0
818.0	30.0
819.0	24.0
820.0	20.0
821.0	16.0
822.0	18.0
823.0	14.0
824.0	21.0
825.0	18.0
826.0	18.0
827.0	24.0
828.0	20.0
829.0	23.0
830.0	13.0
831.0	19.0
832.0	18.0
833.0	22.0
834.0	11.0
835.0	18.0
836.0	7.0
837.0	16.0
838.0	22.0
839.0	22.0
840.0	25.0
841.0	27.0
842.0	23.0
843.0	16.0
844.0	14.0
845.0	15.0
846.0	14.0
847.0	18.0
848.0	11.0
849.0	20.0
850.0	23.0
851.0	20.0
852.0	16.0
853.0	15.0
854.0	15.0
855.0	18.0
856.0	14.0
857.0	21.0
858.0	15.0
859.0	15.0
860.0	18.0
861.0	20.0
862.0	16.0
863.0	17.0
864.0	13.0
865.0	19.0
866.0	28.0
867.0	17.0
868.0	11.0
869.0	13.0
870.0	11.0
871.0	11.0
872.0	17.0
873.0	15.0
874.0	13.0
875.0	18.0
876.0	15.0
877.0	23.0
878.0	13.0
879.0	11.0
880.0	12.0
881.0	22.0
882.0	11.0
883.0	12.0
884.0	19.0
885.0	12.0
886.0	17.0
887.0	12.0
888.0	22.0
889.0	14.0
890.0	20.0
891.0	13.0
892.0	11.0
893.0	15.0
894.0	7.0
895.0	14.0
896.0	21.0
897.0	8.0
898.0	14.0
899.0	12.0
900.0	13.0
901.0	21.0
902.0	13.0
903.0	7.0
904.0	12.0
905.0	13.0
906.0	11.0
907.0	13.0
908.0	8.0
909.0	10.0
910.0	18.0
911.0	10.0
912.0	11.0
913.0	20.0
914.0	15.0
915.0	17.0
916.0	12.0
917.0	11.0
918.0	14.0
919.0	17.0
920.0	9.0
921.0	17.0
922.0	15.0
923.0	9.0
924.0	12.0
925.0	11.0
926.0	15.0
927.0	15.0
928.0	15.0
929.0	10.0
930.0	14.0
931.0	12.0
932.0	10.0
933.0	14.0
934.0	15.0
935.0	15.0
936.0	9.0
937.0	16.0
938.0	13.0
939.0	15.0
940.0	11.0
941.0	12.0
942.0	16.0
943.0	9.0
944.0	9.0
945.0	28.0
946.0	26.0
947.0	13.0
948.0	12.0
949.0	11.0
950.0	20.0
951.0	12.0
952.0	6.0
953.0	15.0
954.0	17.0
955.0	17.0
956.0	14.0
957.0	12.0
958.0	13.0
959.0	8.0
960.0	6.0
961.0	13.0
962.0	12.0
963.0	16.0
964.0	13.0
965.0	11.0
966.0	16.0
967.0	7.0
968.0	9.0
969.0	9.0
970.0	10.0
971.0	7.0
972.0	11.0
973.0	10.0
974.0	8.0
975.0	9.0
976.0	12.0
977.0	11.0
978.0	9.0
979.0	7.0
980.0	8.0
981.0	14.0
982.0	6.0
983.0	9.0
984.0	7.0
985.0	12.0
986.0	12.0
987.0	11.0
988.0	11.0
989.0	5.0
990.0	6.0
991.0	13.0
992.0	10.0
993.0	14.0
994.0	13.0
995.0	8.0
996.0	7.0
997.0	13.0
998.0	10.0
999.0	8.0
1000.0	10.0
1001.0	12.0
1002.0	12.0
1003.0	2.0
1004.0	14.0
1005.0	11.0
1006.0	5.0
1007.0	10.0
1008.0	6.0
1009.0	11.0
1010.0	14.0
1011.0	20.0
1012.0	12.0
1013.0	7.0
1014.0	11.0
1015.0	4.0
1016.0	6.0
1017.0	6.0
1018.0	3.0
1019.0	3.0
1020.0	9.0
1021.0	16.0
1022.0	9.0
1023.0	13.0
1024.0	12.0
1025.0	13.0
1026.0	4.0
1027.0	8.0
1028.0	13.0
1029.0	9.0
1030.0	5.0
1031.0	12.0
1032.0	8.0
1033.0	7.0
1034.0	7.0
1035.0	6.0
1036.0	8.0
1037.0	10.0
1038.0	9.0
1039.0	8.0
1040.0	15.0
1041.0	6.0
1042.0	10.0
1043.0	5.0
1044.0	8.0
1045.0	4.0
1046.0	6.0
1047.0	8.0
1048.0	13.0
1049.0	8.0
1050.0	4.0
1051.0	7.0
1052.0	10.0
1053.0	9.0
1054.0	9.0
1055.0	5.0
1056.0	8.0
1057.0	9.0
1058.0	14.0
1059.0	10.0
1060.0	8.0
1061.0	7.0
1062.0	5.0
1063.0	7.0
1064.0	8.0
1065.0	5.0
1066.0	12.0
1067.0	6.0
1068.0	4.0
1069.0	7.0
1070.0	7.0
1071.0	6.0
1072.0	6.0
1073.0	8.0
1074.0	7.0
1075.0	5.0
1076.0	10.0
1077.0	2.0
1078.0	8.0
1079.0	5.0
1080.0	6.0
1081.0	11.0
1082.0	9.0
1083.0	5.0
1084.0	6.0
1085.0	7.0
1086.0	6.0
1087.0	8.0
1088.0	2.0
1089.0	8.0
1090.0	5.0
1091.0	2.0
1092.0	12.0
1093.0	6.0
1094.0	9.0
1095.0	4.0
1096.0	8.0
1097.0	4.0
1098.0	7.0
1099.0	7.0
1100.0	4.0
1101.0	5.0
1102.0	5.0
1103.0	10.0
1104.0	4.0
1105.0	10.0
1106.0	6.0
1107.0	6.0
1108.0	6.0
1109.0	11.0
1110.0	8.0
1111.0	5.0
1112.0	12.0
1113.0	3.0
1114.0	5.0
1115.0	5.0
1116.0	6.0
1117.0	5.0
1118.0	14.0
1119.0	6.0
1120.0	11.0
1121.0	7.0
1122.0	14.0
1123.0	4.0
1124.0	6.0
1125.0	7.0
1126.0	6.0
1127.0	5.0
1128.0	8.0
1129.0	6.0
1130.0	7.0
1131.0	7.0
1132.0	7.0
1133.0	8.0
1134.0	3.0
1135.0	3.0
1136.0	9.0
1137.0	6.0
1138.0	8.0
1139.0	8.0
1140.0	3.0
1141.0	9.0
1142.0	10.0
1143.0	11.0
1144.0	17.0
1145.0	9.0
1146.0	11.0
1147.0	7.0
1148.0	12.0
1149.0	9.0
1150.0	6.0
1151.0	5.0
1152.0	10.0
1153.0	7.0
1154.0	5.0
1155.0	7.0
1156.0	7.0
1157.0	11.0
1158.0	8.0
1159.0	12.0
1160.0	13.0
1161.0	11.0
1162.0	7.0
1163.0	4.0
1164.0	11.0
1165.0	4.0
1166.0	9.0
1167.0	3.0
1168.0	5.0
1169.0	5.0
1170.0	6.0
1171.0	3.0
1172.0	9.0
1173.0	8.0
1174.0	8.0
1175.0	3.0
1176.0	7.0
1177.0	9.0
1178.0	12.0
1179.0	11.0
1180.0	4.0
1181.0	6.0
1182.0	7.0
1183.0	7.0
1184.0	4.0
1185.0	3.0
1186.0	5.0
1187.0	5.0
1188.0	9.0
1189.0	7.0
1190.0	5.0
1191.0	3.0
1192.0	11.0
1193.0	5.0
1194.0	7.0
1195.0	9.0
1196.0	2.0
1197.0	5.0
1198.0	9.0
1199.0	1.0
1200.0	7.0
1201.0	7.0
1202.0	3.0
1203.0	9.0
1204.0	5.0
1205.0	3.0
1206.0	7.0
1207.0	9.0
1208.0	3.0
1209.0	5.0
1210.0	7.0
1211.0	7.0
1212.0	13.0
1213.0	3.0
1214.0	7.0
1215.0	5.0
1216.0	5.0
1217.0	1.0
1218.0	10.0
1219.0	1.0
1220.0	1.0
1221.0	3.0
1222.0	8.0
1223.0	2.0
1224.0	9.0
1225.0	3.0
1226.0	8.0
1227.0	1.0
1228.0	2.0
1229.0	6.0
1230.0	7.0
1232.0	3.0
1233.0	3.0
1234.0	7.0
1235.0	6.0
1236.0	8.0
1237.0	4.0
1238.0	4.0
1239.0	4.0
1240.0	2.0
1241.0	7.0
1242.0	7.0
1243.0	5.0
1244.0	2.0
1245.0	4.0
1246.0	3.0
1247.0	4.0
1248.0	7.0
1249.0	6.0
1251.0	4.0
1252.0	4.0
1253.0	6.0
1254.0	4.0
1255.0	2.0
1256.0	2.0
1257.0	4.0
1258.0	4.0
1259.0	3.0
1260.0	6.0
1261.0	18.0
1262.0	1.0
1263.0	4.0
1264.0	2.0
1265.0	7.0
1266.0	3.0
1267.0	7.0
1268.0	1.0
1269.0	2.0
1270.0	3.0
1271.0	7.0
1272.0	4.0
1273.0	4.0
1275.0	4.0
1276.0	6.0
1277.0	3.0
1278.0	4.0
1279.0	4.0
1280.0	4.0
1281.0	3.0
1282.0	5.0
1283.0	6.0
1284.0	3.0
1285.0	4.0
1286.0	1.0
1287.0	3.0
1288.0	5.0
1289.0	1.0
1290.0	2.0
1291.0	5.0
1292.0	5.0
1293.0	6.0
1294.0	7.0
1295.0	3.0
1296.0	8.0
1297.0	4.0
1298.0	4.0
1299.0	3.0
1300.0	7.0
1301.0	4.0
1302.0	3.0
1303.0	3.0
1304.0	4.0
1305.0	7.0
1306.0	6.0
1307.0	6.0
1308.0	6.0
1309.0	6.0
1310.0	4.0
1311.0	1.0
1312.0	6.0
1313.0	2.0
1314.0	3.0
1315.0	3.0
1316.0	6.0
1317.0	5.0
1318.0	5.0
1319.0	1.0
1320.0	2.0
1321.0	5.0
1322.0	4.0
1323.0	4.0
1324.0	4.0
1325.0	3.0
1327.0	2.0
1328.0	3.0
1330.0	5.0
1331.0	6.0
1332.0	1.0
1333.0	2.0
1334.0	1.0
1335.0	4.0
1336.0	2.0
1337.0	5.0
1338.0	3.0
1339.0	4.0
1340.0	2.0
1341.0	1.0
1342.0	1.0
1343.0	4.0
1344.0	1.0
1345.0	6.0
1346.0	4.0
1347.0	4.0
1348.0	2.0
1349.0	3.0
1350.0	3.0
1351.0	4.0
1352.0	4.0
1353.0	1.0
1354.0	10.0
1355.0	1.0
1356.0	2.0
1357.0	4.0
1358.0	3.0
1359.0	1.0
1360.0	2.0
1361.0	2.0
1362.0	6.0
1363.0	3.0
1364.0	2.0
1365.0	3.0
1366.0	3.0
1367.0	2.0
1368.0	1.0
1369.0	1.0
1370.0	3.0
1371.0	3.0
1372.0	2.0
1373.0	3.0
1374.0	3.0
1375.0	4.0
1376.0	3.0
1377.0	3.0
1378.0	2.0
1379.0	3.0
1380.0	4.0
1382.0	2.0
1383.0	2.0
1384.0	1.0
1385.0	1.0
1386.0	1.0
1387.0	2.0
1390.0	2.0
1391.0	3.0
1392.0	2.0
1393.0	5.0
1394.0	2.0
1395.0	2.0
1396.0	4.0
1397.0	2.0
1398.0	5.0
1399.0	3.0
1400.0	4.0
1401.0	2.0
1402.0	3.0
1403.0	3.0
1404.0	2.0
1406.0	2.0
1407.0	2.0
1408.0	3.0
1409.0	3.0
1410.0	4.0
1411.0	4.0
1412.0	3.0
1413.0	1.0
1415.0	2.0
1416.0	4.0
1417.0	1.0
1418.0	3.0
1419.0	1.0
1420.0	4.0
1421.0	5.0
1422.0	4.0
1423.0	3.0
1424.0	1.0
1425.0	3.0
1426.0	2.0
1427.0	4.0
1428.0	4.0
1429.0	3.0
1430.0	4.0
1432.0	1.0
1433.0	2.0
1434.0	4.0
1435.0	2.0
1436.0	3.0
1437.0	2.0
1438.0	5.0
1439.0	3.0
1440.0	3.0
1441.0	2.0
1444.0	1.0
1445.0	1.0
1446.0	3.0
1447.0	1.0
1448.0	4.0
1449.0	5.0
1451.0	2.0
1452.0	4.0
1453.0	5.0
1454.0	2.0
1455.0	1.0
1456.0	2.0
1457.0	2.0
1458.0	2.0
1459.0	1.0
1460.0	3.0
1462.0	1.0
1463.0	4.0
1464.0	3.0
1465.0	1.0
1466.0	2.0
1467.0	2.0
1469.0	1.0
1470.0	4.0
1471.0	3.0
1472.0	2.0
1473.0	2.0
1474.0	3.0
1475.0	2.0
1476.0	2.0
1477.0	2.0
1478.0	1.0
1479.0	3.0
1480.0	1.0
1481.0	2.0
1483.0	4.0
1484.0	1.0
1485.0	2.0
1486.0	1.0
1487.0	2.0
1488.0	1.0
1489.0	2.0
1490.0	2.0
1492.0	1.0
1493.0	1.0
1494.0	2.0
1495.0	1.0
1496.0	1.0
1497.0	3.0
1498.0	4.0
1499.0	3.0
1501.0	3.0
1502.0	4.0
1503.0	2.0
1504.0	1.0
1505.0	3.0
1506.0	2.0
1507.0	1.0
1508.0	4.0
1509.0	2.0
1510.0	2.0
1511.0	3.0
1512.0	3.0
1513.0	7.0
1515.0	2.0
1516.0	1.0
1517.0	2.0
1518.0	2.0
1519.0	2.0
1520.0	2.0
1521.0	2.0
1522.0	1.0
1523.0	1.0
1524.0	1.0
1525.0	3.0
1526.0	2.0
1527.0	2.0
1528.0	2.0
1529.0	2.0
1530.0	1.0
1531.0	2.0
1532.0	1.0
1533.0	3.0
1534.0	2.0
1535.0	4.0
1536.0	2.0
1538.0	2.0
1539.0	2.0
1540.0	2.0
1541.0	3.0
1542.0	3.0
1543.0	2.0
1544.0	1.0
1545.0	2.0
1546.0	2.0
1547.0	2.0
1548.0	1.0
1549.0	3.0
1550.0	2.0
1551.0	2.0
1552.0	5.0
1554.0	1.0
1555.0	4.0
1556.0	3.0
1557.0	1.0
1558.0	2.0
1559.0	1.0
1560.0	4.0
1561.0	4.0
1562.0	1.0
1563.0	2.0
1564.0	2.0
1565.0	2.0
1566.0	2.0
1567.0	3.0
1568.0	1.0
1569.0	4.0
1570.0	4.0
1571.0	5.0
1572.0	5.0
1573.0	8.0
1574.0	5.0
1575.0	3.0
1576.0	5.0
1577.0	2.0
1579.0	4.0
1580.0	4.0
1581.0	4.0
1582.0	5.0
1583.0	3.0
1584.0	4.0
1585.0	1.0
1586.0	4.0
1587.0	1.0
1588.0	4.0
1589.0	3.0
1590.0	4.0
1591.0	2.0
1592.0	3.0
1593.0	3.0
1594.0	3.0
1595.0	2.0
1596.0	1.0
1597.0	1.0
1598.0	1.0
1599.0	2.0
1600.0	3.0
1601.0	2.0
1602.0	4.0
1603.0	2.0
1604.0	1.0
1605.0	1.0
1607.0	1.0
1608.0	4.0
1609.0	4.0
1610.0	2.0
1611.0	2.0
1612.0	2.0
1613.0	2.0
1614.0	5.0
1615.0	2.0
1616.0	1.0
1617.0	2.0
1618.0	1.0
1619.0	1.0
1620.0	1.0
1622.0	1.0
1623.0	2.0
1624.0	2.0
1626.0	2.0
1627.0	1.0
1628.0	1.0
1629.0	1.0
1630.0	2.0
1631.0	4.0
1632.0	2.0
1634.0	2.0
1635.0	1.0
1636.0	1.0
1637.0	2.0
1638.0	3.0
1639.0	1.0
1641.0	1.0
1642.0	2.0
1644.0	2.0
1645.0	3.0
1646.0	3.0
1647.0	1.0
1648.0	1.0
1649.0	1.0
1652.0	3.0
1653.0	2.0
1654.0	2.0
1657.0	4.0
1658.0	1.0
1659.0	3.0
1660.0	1.0
1661.0	4.0
1662.0	1.0
1663.0	2.0
1664.0	1.0
1665.0	1.0
1669.0	1.0
1670.0	2.0
1671.0	2.0
1672.0	5.0
1673.0	1.0
1677.0	2.0
1678.0	4.0
1680.0	3.0
1682.0	2.0
1683.0	1.0
1684.0	2.0
1686.0	2.0
1687.0	2.0
1688.0	1.0
1689.0	3.0
1690.0	1.0
1693.0	2.0
1694.0	1.0
1695.0	3.0
1699.0	2.0
1701.0	1.0
1702.0	1.0
1704.0	3.0
1705.0	1.0
1706.0	1.0
1707.0	2.0
1708.0	2.0
1709.0	3.0
1710.0	2.0
1711.0	2.0
1712.0	1.0
1713.0	1.0
1714.0	5.0
1716.0	1.0
1718.0	1.0
1719.0	3.0
1720.0	2.0
1721.0	1.0
1722.0	3.0
1723.0	1.0
1725.0	3.0
1726.0	1.0
1727.0	1.0
1728.0	5.0
1729.0	1.0
1730.0	2.0
1731.0	3.0
1733.0	3.0
1735.0	4.0
1736.0	5.0
1737.0	3.0
1738.0	2.0
1739.0	3.0
1740.0	1.0
1741.0	2.0
1744.0	1.0
1746.0	2.0
1747.0	2.0
1748.0	3.0
1749.0	2.0
1751.0	3.0
1752.0	5.0
1753.0	2.0
1755.0	1.0
1756.0	1.0
1757.0	1.0
1758.0	1.0
1759.0	2.0
1760.0	1.0
1761.0	3.0
1762.0	3.0
1763.0	1.0
1764.0	2.0
1765.0	1.0
1766.0	1.0
1767.0	3.0
1769.0	5.0
1770.0	2.0
1771.0	1.0
1772.0	1.0
1773.0	3.0
1775.0	4.0
1776.0	5.0
1777.0	1.0
1779.0	3.0
1780.0	1.0
1781.0	4.0
1782.0	1.0
1783.0	2.0
1784.0	6.0
1785.0	2.0
1786.0	1.0
1787.0	1.0
1788.0	5.0
1790.0	2.0
1791.0	2.0
1792.0	2.0
1793.0	2.0
1794.0	4.0
1795.0	2.0
1796.0	3.0
1798.0	2.0
1799.0	1.0
1801.0	2.0
1802.0	2.0
1803.0	1.0
1805.0	3.0
1806.0	2.0
1807.0	1.0
1808.0	1.0
1809.0	2.0
1811.0	6.0
1812.0	2.0
1813.0	4.0
1816.0	2.0
1817.0	2.0
1818.0	2.0
1820.0	1.0
1821.0	3.0
1822.0	1.0
1824.0	1.0
1825.0	3.0
1827.0	2.0
1828.0	3.0
1829.0	2.0
1830.0	3.0
1831.0	1.0
1833.0	2.0
1834.0	1.0
1837.0	2.0
1839.0	1.0
1841.0	2.0
1842.0	3.0
1843.0	2.0
1844.0	1.0
1845.0	2.0
1848.0	2.0
1849.0	1.0
1850.0	1.0
1851.0	3.0
1852.0	1.0
1853.0	1.0
1854.0	2.0
1855.0	2.0
1856.0	1.0
1858.0	1.0
1859.0	3.0
1861.0	1.0
1862.0	1.0
1863.0	2.0
1864.0	1.0
1865.0	1.0
1866.0	1.0
1867.0	1.0
1869.0	3.0
1870.0	1.0
1872.0	1.0
1873.0	2.0
1874.0	2.0
1875.0	2.0
1876.0	1.0
1877.0	2.0
1878.0	1.0
1879.0	2.0
1880.0	2.0
1881.0	3.0
1883.0	1.0
1884.0	1.0
1889.0	2.0
1890.0	2.0
1891.0	1.0
1892.0	1.0
1893.0	1.0
1898.0	1.0
1900.0	1.0
1901.0	3.0
1902.0	1.0
1903.0	2.0
1905.0	2.0
1906.0	1.0
1907.0	4.0
1908.0	1.0
1909.0	1.0
1911.0	1.0
1912.0	2.0
1913.0	1.0
1914.0	1.0
1915.0	3.0
1917.0	1.0
1919.0	1.0
1921.0	1.0
1922.0	3.0
1923.0	1.0
1924.0	2.0
1925.0	1.0
1926.0	2.0
1930.0	1.0
1931.0	1.0
1932.0	1.0
1933.0	2.0
1934.0	1.0
1935.0	2.0
1937.0	2.0
1938.0	1.0
1939.0	2.0
1941.0	2.0
1943.0	1.0
1944.0	1.0
1947.0	1.0
1948.0	3.0
1951.0	3.0
1952.0	1.0
1953.0	1.0
1956.0	1.0
1958.0	3.0
1959.0	3.0
1960.0	1.0
1961.0	1.0
1963.0	1.0
1964.0	1.0
1966.0	2.0
1968.0	1.0
1969.0	1.0
1970.0	2.0
1972.0	1.0
1973.0	1.0
1974.0	2.0
1975.0	1.0
1978.0	1.0
1979.0	1.0
1981.0	1.0
1983.0	1.0
1985.0	2.0
1987.0	1.0
1989.0	3.0
1990.0	2.0
1993.0	1.0
1994.0	1.0
1995.0	1.0
1996.0	2.0
1998.0	1.0
2000.0	2.0
2004.0	1.0
2005.0	1.0
2007.0	1.0
2008.0	1.0
2009.0	3.0
2010.0	1.0
2014.0	1.0
2015.0	1.0
2017.0	1.0
2018.0	2.0
2019.0	1.0
2020.0	3.0
2021.0	1.0
2022.0	3.0
2023.0	2.0
2025.0	1.0
2028.0	2.0
2030.0	1.0
2031.0	2.0
2039.0	1.0
2041.0	2.0
2042.0	2.0
2043.0	2.0
2045.0	1.0
2046.0	1.0
2048.0	2.0
2049.0	2.0
2050.0	1.0
2051.0	2.0
2052.0	3.0
2054.0	1.0
2055.0	1.0
2056.0	2.0
2057.0	1.0
2058.0	1.0
2059.0	1.0
2060.0	2.0
2061.0	1.0
2064.0	1.0
2065.0	2.0
2066.0	6.0
2067.0	2.0
2068.0	3.0
2070.0	2.0
2071.0	2.0
2072.0	1.0
2073.0	3.0
2074.0	1.0
2075.0	2.0
2076.0	3.0
2077.0	5.0
2078.0	1.0
2081.0	2.0
2082.0	1.0
2083.0	2.0
2084.0	1.0
2088.0	2.0
2089.0	1.0
2090.0	2.0
2091.0	1.0
2092.0	2.0
2093.0	1.0
2094.0	2.0
2096.0	2.0
2098.0	2.0
2099.0	1.0
2101.0	2.0
2107.0	2.0
2108.0	1.0
2110.0	1.0
2112.0	3.0
2116.0	1.0
2118.0	1.0
2119.0	1.0
2121.0	2.0
2123.0	1.0
2124.0	1.0
2125.0	1.0
2126.0	1.0
2127.0	1.0
2128.0	2.0
2130.0	2.0
2132.0	1.0
2134.0	1.0
2137.0	1.0
2138.0	1.0
2139.0	3.0
2140.0	1.0
2145.0	1.0
2146.0	1.0
2147.0	2.0
2148.0	1.0
2150.0	1.0
2151.0	4.0
2152.0	1.0
2154.0	1.0
2155.0	1.0
2156.0	1.0
2158.0	2.0
2159.0	1.0
2164.0	1.0
2165.0	1.0
2166.0	2.0
2167.0	2.0
2170.0	1.0
2172.0	1.0
2174.0	2.0
2175.0	1.0
2176.0	1.0
2177.0	1.0
2178.0	3.0
2181.0	1.0
2183.0	2.0
2185.0	1.0
2189.0	1.0
2191.0	1.0
2192.0	1.0
2193.0	1.0
2195.0	1.0
2196.0	2.0
2199.0	2.0
2200.0	2.0
2203.0	1.0
2204.0	3.0
2205.0	1.0
2207.0	1.0
2208.0	3.0
2209.0	1.0
2211.0	1.0
2212.0	1.0
2213.0	1.0
2214.0	3.0
2215.0	3.0
2216.0	1.0
2217.0	1.0
2218.0	1.0
2219.0	2.0
2220.0	1.0
2221.0	4.0
2222.0	1.0
2223.0	1.0
2224.0	1.0
2225.0	2.0
2226.0	1.0
2227.0	5.0
2228.0	3.0
2229.0	1.0
2230.0	3.0
2236.0	1.0
2237.0	1.0
2238.0	2.0
2239.0	1.0
2240.0	2.0
2241.0	1.0
2242.0	1.0
2250.0	1.0
2253.0	1.0
2254.0	4.0
2255.0	27.0
2256.0	4.0
2266.0	2.0
2269.0	3.0
2270.0	1.0
2272.0	1.0
2275.0	2.0
2277.0	1.0
2279.0	2.0
2282.0	1.0
2283.0	1.0
2286.0	3.0
2287.0	1.0
2288.0	1.0
2289.0	2.0
2290.0	1.0
2291.0	1.0
2292.0	1.0
2295.0	1.0
2296.0	1.0
2297.0	3.0
2298.0	1.0
2301.0	1.0
2302.0	2.0
2304.0	2.0
2306.0	3.0
2309.0	2.0
2310.0	1.0
2311.0	1.0
2314.0	1.0
2315.0	1.0
2316.0	1.0
2317.0	1.0
2320.0	2.0
2321.0	1.0
2322.0	1.0
2323.0	2.0
2324.0	1.0
2325.0	1.0
2329.0	1.0
2330.0	3.0
2331.0	1.0
2334.0	2.0
2336.0	2.0
2342.0	2.0
2344.0	3.0
2345.0	2.0
2346.0	2.0
2350.0	1.0
2351.0	1.0
2352.0	1.0
2353.0	1.0
2354.0	1.0
2355.0	1.0
2357.0	3.0
2358.0	2.0
2359.0	1.0
2360.0	3.0
2365.0	1.0
2367.0	2.0
2368.0	2.0
2370.0	1.0
2374.0	1.0
2377.0	2.0
2380.0	1.0
2382.0	2.0
2384.0	1.0
2385.0	3.0
2386.0	1.0
2387.0	1.0
2388.0	2.0
2393.0	3.0
2395.0	1.0
2396.0	1.0
2398.0	2.0
2399.0	3.0
2400.0	1.0
2401.0	2.0
2403.0	1.0
2404.0	3.0
2405.0	2.0
2406.0	1.0
2408.0	1.0
2410.0	2.0
2413.0	1.0
2416.0	3.0
2417.0	1.0
2418.0	1.0
2421.0	1.0
2422.0	2.0
2423.0	1.0
2425.0	2.0
2426.0	1.0
2429.0	1.0
2430.0	1.0
2431.0	1.0
2434.0	1.0
2435.0	1.0
2440.0	1.0
2443.0	1.0
2444.0	3.0
2446.0	1.0
2447.0	1.0
2448.0	1.0
2449.0	1.0
2450.0	2.0
2451.0	1.0
2453.0	2.0
2454.0	1.0
2455.0	2.0
2456.0	2.0
2461.0	1.0
2463.0	2.0
2464.0	2.0
2467.0	2.0
2468.0	1.0
2469.0	2.0
2470.0	1.0
2472.0	1.0
2474.0	3.0
2475.0	1.0
2476.0	1.0
2478.0	1.0
2479.0	1.0
2480.0	2.0
2481.0	2.0
2485.0	1.0
2486.0	1.0
2487.0	1.0
2488.0	1.0
2491.0	2.0
2492.0	1.0
2493.0	1.0
2494.0	2.0
2496.0	1.0
2499.0	1.0
2500.0	2.0
2501.0	1.0
2502.0	1.0
2505.0	1.0
2507.0	1.0
2509.0	1.0
2511.0	1.0
2512.0	2.0
2513.0	1.0
2514.0	2.0
2518.0	1.0
2519.0	2.0
2523.0	1.0
2525.0	1.0
2526.0	1.0
2527.0	1.0
2528.0	2.0
2529.0	1.0
2530.0	1.0
2531.0	1.0
2532.0	1.0
2533.0	1.0
2534.0	1.0
2535.0	1.0
2536.0	1.0
2538.0	1.0
2540.0	2.0
2541.0	1.0
2543.0	1.0
2545.0	1.0
2546.0	2.0
2547.0	4.0
2552.0	1.0
2555.0	1.0
2557.0	2.0
2558.0	1.0
2559.0	1.0
2561.0	1.0
2563.0	1.0
2564.0	1.0
2568.0	1.0
2569.0	1.0
2570.0	1.0
2576.0	1.0
2577.0	3.0
2579.0	2.0
2581.0	2.0
2582.0	2.0
2585.0	2.0
2586.0	1.0
2587.0	1.0
2591.0	2.0
2593.0	1.0
2595.0	1.0
2601.0	3.0
2602.0	1.0
2607.0	2.0
2608.0	1.0
2609.0	3.0
2613.0	2.0
2614.0	1.0
2617.0	1.0
2620.0	1.0
2623.0	1.0
2625.0	1.0
2630.0	1.0
2633.0	1.0
2635.0	2.0
2636.0	1.0
2637.0	1.0
2638.0	2.0
2642.0	1.0
2644.0	3.0
2646.0	1.0
2648.0	1.0
2650.0	2.0
2651.0	1.0
2653.0	1.0
2654.0	1.0
2655.0	1.0
2656.0	2.0
2662.0	1.0
2664.0	1.0
2668.0	1.0
2671.0	1.0
2674.0	1.0
2675.0	1.0
2679.0	1.0
2683.0	1.0
2684.0	1.0
2685.0	1.0
2686.0	2.0
2691.0	1.0
2692.0	1.0
2693.0	1.0
2703.0	1.0
2704.0	2.0
2706.0	2.0
2707.0	2.0
2708.0	1.0
2710.0	2.0
2711.0	1.0
2720.0	2.0
2721.0	1.0
2724.0	1.0
2725.0	2.0
2728.0	1.0
2731.0	1.0
2736.0	1.0
2738.0	3.0
2740.0	1.0
2744.0	1.0
2746.0	2.0
2749.0	1.0
2754.0	5.0
2756.0	2.0
2758.0	1.0
2759.0	1.0
2760.0	1.0
2761.0	1.0
2763.0	1.0
2766.0	1.0
2768.0	1.0
2769.0	1.0
2770.0	1.0
2779.0	1.0
2785.0	1.0
2793.0	2.0
2795.0	1.0
2798.0	1.0
2799.0	3.0
2800.0	2.0
2805.0	1.0
2806.0	1.0
2811.0	1.0
2812.0	1.0
2813.0	1.0
2817.0	1.0
2818.0	1.0
2820.0	1.0
2821.0	1.0
2824.0	1.0
2825.0	1.0
2827.0	1.0
2830.0	1.0
2837.0	1.0
2838.0	1.0
2840.0	1.0
2841.0	1.0
2843.0	1.0
2847.0	1.0
2848.0	1.0
2850.0	1.0
2852.0	2.0
2855.0	1.0
2864.0	1.0
2865.0	2.0
2868.0	1.0
2869.0	1.0
2878.0	1.0
2879.0	2.0
2880.0	1.0
2882.0	2.0
2883.0	1.0
2884.0	1.0
2886.0	3.0
2894.0	2.0
2897.0	1.0
2900.0	2.0
2902.0	1.0
2903.0	2.0
2904.0	1.0
2906.0	1.0
2908.0	1.0
2919.0	1.0
2925.0	1.0
2927.0	1.0
2930.0	1.0
2939.0	2.0
2944.0	1.0
2945.0	1.0
2946.0	1.0
2948.0	1.0
2959.0	1.0
2961.0	1.0
2966.0	1.0
2968.0	1.0
2978.0	1.0
2980.0	2.0
2987.0	1.0
2992.0	1.0
2995.0	1.0
3002.0	1.0
3003.0	1.0
3004.0	1.0
3006.0	1.0
3009.0	1.0
3010.0	1.0
3012.0	1.0
3016.0	1.0
3023.0	1.0
3024.0	1.0
3025.0	1.0
3027.0	1.0
3034.0	2.0
3036.0	2.0
3037.0	2.0
3042.0	1.0
3054.0	1.0
3064.0	1.0
3065.0	1.0
3069.0	1.0
3076.0	2.0
3081.0	1.0
3085.0	2.0
3094.0	1.0
3097.0	2.0
3100.0	1.0
3106.0	1.0
3110.0	1.0
3112.0	1.0
3118.0	1.0
3119.0	1.0
3121.0	1.0
3122.0	1.0
3129.0	2.0
3131.0	1.0
3132.0	1.0
3133.0	1.0
3135.0	1.0
3140.0	1.0
3145.0	1.0
3150.0	1.0
3152.0	1.0
3155.0	1.0
3156.0	2.0
3172.0	1.0
3173.0	1.0
3175.0	1.0
3176.0	1.0
3183.0	1.0
3186.0	1.0
3189.0	1.0
3191.0	1.0
3192.0	1.0
3198.0	1.0
3205.0	1.0
3213.0	1.0
3214.0	1.0
3220.0	1.0
3222.0	1.0
3224.0	1.0
3226.0	1.0
3228.0	1.0
3229.0	2.0
3231.0	1.0
3236.0	1.0
3242.0	1.0
3248.0	1.0
3260.0	1.0
3262.0	1.0
3263.0	1.0
3265.0	1.0
3267.0	1.0
3272.0	1.0
3276.0	1.0
3281.0	1.0
3287.0	1.0
3290.0	1.0
3292.0	1.0
3303.0	1.0
3305.0	1.0
3308.0	1.0
3309.0	1.0
3312.0	1.0
3319.0	1.0
3323.0	1.0
3335.0	1.0
3337.0	1.0
3339.0	1.0
3341.0	1.0
3347.0	1.0
3348.0	1.0
3350.0	1.0
3354.0	1.0
3358.0	1.0
3359.0	1.0
3360.0	1.0
3361.0	1.0
3366.0	1.0
3375.0	1.0
3376.0	1.0
3380.0	1.0
3381.0	1.0
3383.0	1.0
3385.0	1.0
3390.0	1.0
3391.0	1.0
3393.0	1.0
3394.0	1.0
3396.0	2.0
3398.0	1.0
3399.0	1.0
3401.0	1.0
3407.0	1.0
3409.0	1.0
3413.0	1.0
3415.0	1.0
3418.0	1.0
3419.0	1.0
3420.0	1.0
3421.0	2.0
3425.0	1.0
3427.0	1.0
3435.0	1.0
3437.0	1.0
3442.0	2.0
3446.0	2.0
3447.0	1.0
3448.0	1.0
3452.0	1.0
3453.0	3.0
3461.0	1.0
3463.0	1.0
3464.0	1.0
3473.0	1.0
3475.0	1.0
3476.0	1.0
3477.0	1.0
3479.0	2.0
3482.0	1.0
3483.0	1.0
3489.0	1.0
3494.0	1.0
3495.0	1.0
3503.0	1.0
3505.0	1.0
3508.0	1.0
3510.0	2.0
3511.0	1.0
3515.0	2.0
3516.0	1.0
3519.0	1.0
3520.0	1.0
3525.0	1.0
3530.0	1.0
3531.0	1.0
3537.0	1.0
3545.0	1.0
3546.0	1.0
3547.0	1.0
3552.0	2.0
3554.0	1.0
3555.0	1.0
3556.0	1.0
3559.0	1.0
3561.0	1.0
3567.0	1.0
3568.0	1.0
3576.0	1.0
3584.0	1.0
3587.0	1.0
3588.0	1.0
3591.0	5.0
3598.0	1.0
3600.0	1.0
3601.0	1.0
3607.0	1.0
3609.0	2.0
3612.0	1.0
3613.0	1.0
3621.0	1.0
3623.0	2.0
3630.0	1.0
3633.0	1.0
3634.0	1.0
3636.0	1.0
3639.0	1.0
3646.0	1.0
3652.0	1.0
3654.0	1.0
3655.0	2.0
3657.0	1.0
3661.0	1.0
3668.0	3.0
3670.0	2.0
3671.0	1.0
3672.0	1.0
3673.0	1.0
3674.0	1.0
3679.0	1.0
3681.0	1.0
3683.0	1.0
3685.0	1.0
3686.0	1.0
3687.0	1.0
3688.0	1.0
3694.0	1.0
3700.0	2.0
3701.0	1.0
3704.0	2.0
3708.0	1.0
3719.0	1.0
3721.0	1.0
3722.0	1.0
3732.0	1.0
3736.0	1.0
3744.0	1.0
3752.0	1.0
3758.0	1.0
3760.0	3.0
3761.0	1.0
3763.0	1.0
3764.0	2.0
3769.0	3.0
3773.0	1.0
3774.0	2.0
3779.0	1.0
3780.0	2.0
3785.0	2.0
3793.0	1.0
3794.0	1.0
3795.0	1.0
3796.0	1.0
3802.0	1.0
3807.0	1.0
3808.0	1.0
3816.0	2.0
3824.0	1.0
3831.0	1.0
3840.0	1.0
3843.0	1.0
3844.0	1.0
3850.0	1.0
3857.0	1.0
3858.0	1.0
3864.0	1.0
3866.0	1.0
3870.0	1.0
3872.0	1.0
3875.0	1.0
3880.0	1.0
3881.0	1.0
3883.0	1.0
3884.0	1.0
3895.0	1.0
3904.0	1.0
3913.0	1.0
3914.0	1.0
3915.0	1.0
3917.0	1.0
3935.0	2.0
3940.0	2.0
3941.0	1.0
3943.0	2.0
3947.0	1.0
3952.0	1.0
3953.0	1.0
3959.0	1.0
3960.0	1.0
3969.0	1.0
3990.0	1.0
3995.0	1.0
4002.0	1.0
4012.0	1.0
4014.0	1.0
4016.0	1.0
4018.0	1.0
4025.0	1.0
4026.0	1.0
4027.0	1.0
4030.0	1.0
4031.0	2.0
4034.0	1.0
4037.0	1.0
4039.0	3.0
4041.0	1.0
4042.0	1.0
4054.0	1.0
4057.0	1.0
4058.0	2.0
4060.0	1.0
4062.0	1.0
4063.0	1.0
4066.0	1.0
4068.0	1.0
4069.0	2.0
4072.0	1.0
4077.0	1.0
4078.0	1.0
4088.0	1.0
4089.0	2.0
4095.0	1.0
4098.0	1.0
4099.0	1.0
4117.0	1.0
4119.0	1.0
4120.0	2.0
4129.0	1.0
4134.0	4.0
4135.0	1.0
4159.0	1.0
4161.0	1.0
4162.0	1.0
4164.0	1.0
4167.0	1.0
4176.0	1.0
4192.0	1.0
4193.0	2.0
4195.0	2.0
4197.0	1.0
4202.0	1.0
4206.0	1.0
4207.0	1.0
4217.0	1.0
4218.0	1.0
4220.0	1.0
4232.0	1.0
4239.0	1.0
4242.0	1.0
4243.0	1.0
4266.0	1.0
4269.0	1.0
4270.0	1.0
4273.0	1.0
4277.0	1.0
4288.0	1.0
4292.0	1.0
4296.0	1.0
4304.0	1.0
4309.0	1.0
4314.0	1.0
4321.0	1.0
4322.0	1.0
4323.0	1.0
4326.0	1.0
4333.0	1.0
4337.0	1.0
4342.0	1.0
4344.0	1.0
4347.0	1.0
4351.0	1.0
4352.0	1.0
4360.0	2.0
4361.0	1.0
4362.0	2.0
4363.0	2.0
4364.0	1.0
4365.0	1.0
4366.0	2.0
4371.0	1.0
4372.0	1.0
4374.0	1.0
4380.0	1.0
4381.0	1.0
4387.0	1.0
4395.0	1.0
4413.0	1.0
4418.0	1.0
4422.0	1.0
4424.0	1.0
4435.0	1.0
4436.0	1.0
4443.0	1.0
4452.0	1.0
4457.0	1.0
4460.0	1.0
4461.0	1.0
4476.0	1.0
4478.0	1.0
4482.0	1.0
4483.0	1.0
4486.0	1.0
4489.0	1.0
4491.0	1.0
4495.0	2.0
4500.0	2.0
4501.0	2.0
4508.0	1.0
4517.0	1.0
4519.0	1.0
4524.0	1.0
4531.0	1.0
4533.0	1.0
4535.0	1.0
4544.0	1.0
4546.0	2.0
4547.0	1.0
4553.0	1.0
4558.0	1.0
4563.0	1.0
4574.0	1.0
4575.0	1.0
4578.0	1.0
4580.0	2.0
4586.0	1.0
4592.0	1.0
4599.0	2.0
4603.0	1.0
4609.0	1.0
4613.0	2.0
4614.0	2.0
4622.0	2.0
4625.0	1.0
4627.0	2.0
4641.0	1.0
4644.0	1.0
4647.0	1.0
4654.0	1.0
4657.0	1.0
4659.0	1.0
4662.0	1.0
4663.0	1.0
4666.0	1.0
4671.0	1.0
4675.0	1.0
4676.0	1.0
4681.0	1.0
4685.0	1.0
4686.0	2.0
4689.0	1.0
4691.0	1.0
4695.0	1.0
4702.0	2.0
4716.0	1.0
4718.0	1.0
4719.0	1.0
4733.0	2.0
4738.0	2.0
4744.0	1.0
4747.0	1.0
4754.0	1.0
4755.0	1.0
4774.0	1.0
4788.0	1.0
4790.0	1.0
4795.0	1.0
4799.0	1.0
4810.0	1.0
4812.0	1.0
4814.0	1.0
4823.0	1.0
4826.0	1.0
4827.0	1.0
4830.0	1.0
4845.0	1.0
4856.0	1.0
4860.0	1.0
4876.0	1.0
4895.0	2.0
4897.0	1.0
4919.0	1.0
4920.0	1.0
4922.0	1.0
4930.0	1.0
4937.0	1.0
4945.0	1.0
4963.0	1.0
4972.0	1.0
4974.0	1.0
4980.0	1.0
4987.0	1.0
4996.0	1.0
5006.0	1.0
5011.0	1.0
5016.0	1.0
5017.0	1.0
5020.0	2.0
5030.0	1.0
5037.0	1.0
5039.0	1.0
5040.0	1.0
5091.0	1.0
5093.0	1.0
5098.0	1.0
5104.0	1.0
5111.0	1.0
5117.0	1.0
5134.0	1.0
5135.0	1.0
5142.0	1.0
5143.0	2.0
5158.0	1.0
5163.0	1.0
5178.0	1.0
5193.0	2.0
5202.0	1.0
5207.0	1.0
5212.0	1.0
5220.0	1.0
5224.0	2.0
5236.0	1.0
5237.0	1.0
5246.0	1.0
5252.0	1.0
5253.0	1.0
5259.0	1.0
5260.0	1.0
5262.0	2.0
5263.0	1.0
5274.0	1.0
5275.0	2.0
5277.0	1.0
5286.0	1.0
5300.0	1.0
5301.0	1.0
5306.0	1.0
5335.0	1.0
5339.0	1.0
5344.0	1.0
5353.0	1.0
5357.0	1.0
5384.0	1.0
5394.0	1.0
5397.0	1.0
5402.0	1.0
5422.0	1.0
5429.0	1.0
5430.0	1.0
5440.0	1.0
5441.0	1.0
5465.0	1.0
5472.0	1.0
5478.0	1.0
5490.0	1.0
5493.0	1.0
5495.0	1.0
5528.0	1.0
5530.0	1.0
5532.0	1.0
5536.0	2.0
5540.0	1.0
5578.0	1.0
5579.0	1.0
5599.0	1.0
5605.0	1.0
5619.0	1.0
5627.0	1.0
5636.0	1.0
5646.0	1.0
5647.0	1.0
5652.0	1.0
5663.0	1.0
5665.0	1.0
5675.0	1.0
5712.0	1.0
5714.0	1.0
5721.0	1.0
5730.0	1.0
5750.0	1.0
5752.0	1.0
5764.0	1.0
5769.0	1.0
5770.0	1.0
5774.0	1.0
5781.0	1.0
5792.0	1.0
5804.0	1.0
5806.0	1.0
5822.0	1.0
5839.0	1.0
5842.0	1.0
5852.0	1.0
5853.0	1.0
5861.0	1.0
5870.0	1.0
5877.0	1.0
5879.0	1.0
5884.0	1.0
5892.0	1.0
5897.0	1.0
5902.0	1.0
5903.0	1.0
5904.0	1.0
5906.0	1.0
5910.0	1.0
5923.0	1.0
5924.0	1.0
5925.0	5.0
5930.0	1.0
5942.0	1.0
5949.0	1.0
5962.0	1.0
5980.0	1.0
6004.0	1.0
6014.0	1.0
6025.0	1.0
6027.0	1.0
6033.0	1.0
6055.0	1.0
6062.0	1.0
6064.0	1.0
6074.0	1.0
6077.0	1.0
6084.0	1.0
6087.0	1.0
6106.0	1.0
6108.0	1.0
6115.0	1.0
6120.0	1.0
6127.0	1.0
6129.0	1.0
6132.0	2.0
6139.0	2.0
6146.0	1.0
6150.0	1.0
6155.0	1.0
6158.0	1.0
6162.0	1.0
6172.0	1.0
6173.0	1.0
6176.0	1.0
6184.0	1.0
6217.0	1.0
6237.0	1.0
6247.0	1.0
6264.0	1.0
6293.0	1.0
6306.0	1.0
6311.0	1.0
6317.0	1.0
6320.0	1.0
6328.0	1.0
6331.0	1.0
6339.0	1.0
6346.0	1.0
6357.0	1.0
6367.0	1.0
6397.0	1.0
6401.0	1.0
6422.0	1.0
6478.0	1.0
6480.0	1.0
6493.0	1.0
6506.0	1.0
6542.0	1.0
6562.0	1.0
6565.0	1.0
6566.0	1.0
6618.0	1.0
6625.0	1.0
6630.0	1.0
6641.0	1.0
6648.0	1.0
6665.0	1.0
6720.0	1.0
6742.0	1.0
6743.0	1.0
6752.0	1.0
6754.0	1.0
6769.0	1.0
6785.0	1.0
6786.0	1.0
6797.0	1.0
6833.0	1.0
6839.0	1.0
6841.0	6.0
6842.0	8.0
6865.0	1.0
6880.0	1.0
6888.0	1.0
6900.0	1.0
6907.0	1.0
6982.0	1.0
6994.0	1.0
6995.0	1.0
6999.0	1.0
7001.0	1.0
7003.0	1.0
7058.0	1.0
7070.0	1.0
7073.0	1.0
7094.0	1.0
7106.0	1.0
7129.0	1.0
7138.0	1.0
7139.0	1.0
7160.0	1.0
7162.0	1.0
7187.0	1.0
7209.0	1.0
7248.0	1.0
7254.0	1.0
7282.0	1.0
7286.0	1.0
7354.0	1.0
7363.0	1.0
7373.0	1.0
7374.0	1.0
7375.0	1.0
7384.0	1.0
7396.0	1.0
7410.0	1.0
7412.0	1.0
7413.0	1.0
7415.0	1.0
7416.0	2.0
7418.0	1.0
7421.0	1.0
7437.0	1.0
7481.0	1.0
7496.0	1.0
7600.0	1.0
7650.0	1.0
7694.0	1.0
7716.0	1.0
7739.0	1.0
7787.0	1.0
7805.0	1.0
7851.0	1.0
7889.0	1.0
7902.0	1.0
7926.0	1.0
7952.0	1.0
8067.0	1.0
8101.0	1.0
8103.0	1.0
8181.0	1.0
8241.0	1.0
8250.0	1.0
8263.0	1.0
8286.0	1.0
8296.0	1.0
8325.0	1.0
8413.0	1.0
8436.0	1.0
8475.0	1.0
8540.0	1.0
8564.0	1.0
8579.0	1.0
8602.0	1.0
8676.0	1.0
8753.0	1.0
8774.0	1.0
8778.0	1.0
8790.0	1.0
8867.0	1.0
8952.0	1.0
8964.0	1.0
9083.0	1.0
9092.0	1.0
9130.0	1.0
9131.0	1.0
9136.0	1.0
9187.0	1.0
9194.0	1.0
9223.0	1.0
9317.0	1.0
9344.0	1.0
9461.0	1.0
9465.0	1.0
9474.0	1.0
9551.0	1.0
9588.0	1.0
9655.0	1.0
9800.0	2.0
9841.0	1.0
9870.0	1.0
10043.0	1.0
10044.0	1.0
10094.0	1.0
10212.0	1.0
10315.0	1.0
10331.0	1.0
10335.0	1.0
10470.0	1.0
10489.0	1.0
10505.0	1.0
10664.0	1.0
10812.0	1.0
10864.0	1.0
10891.0	1.0
10930.0	1.0
10963.0	1.0
11010.0	1.0
11081.0	1.0
11083.0	1.0
11169.0	1.0
11173.0	1.0
11196.0	1.0
11318.0	1.0
11321.0	1.0
11374.0	1.0
11431.0	1.0
11440.0	1.0
11445.0	1.0
11531.0	1.0
11696.0	1.0
11704.0	1.0
11707.0	1.0
11727.0	1.0
11906.0	1.0
11916.0	1.0
11952.0	1.0
11964.0	1.0
12073.0	1.0
12075.0	1.0
12076.0	1.0
12107.0	1.0
12130.0	1.0
12150.0	1.0
12180.0	1.0
12237.0	1.0
12258.0	1.0
12325.0	1.0
12344.0	1.0
12366.0	1.0
12426.0	1.0
12429.0	1.0
12483.0	1.0
12541.0	1.0
12550.0	1.0
12568.0	1.0
12593.0	1.0
12622.0	1.0
12636.0	1.0
12664.0	1.0
12675.0	1.0
12683.0	1.0
12697.0	1.0
12716.0	1.0
12727.0	1.0
12760.0	1.0
12765.0	1.0
12771.0	1.0
12778.0	1.0
12796.0	1.0
12799.0	1.0
12814.0	1.0
12876.0	1.0
12962.0	1.0
13027.0	1.0
13366.0	1.0
13479.0	1.0
13710.0	1.0
13906.0	1.0
14120.0	1.0
14320.0	1.0
14548.0	1.0
14654.0	1.0
14801.0	1.0
14960.0	1.0
15168.0	1.0
15499.0	1.0
15555.0	1.0
15651.0	1.0
15829.0	1.0
15844.0	1.0
16148.0	1.0
16160.0	1.0
16270.0	1.0
16311.0	1.0
16394.0	1.0
16424.0	1.0
16511.0	1.0
16640.0	1.0
16643.0	1.0
16644.0	1.0
16660.0	1.0
16674.0	1.0
16701.0	1.0
16835.0	1.0
