#Position (bp)	Coverage
3877256.5	0.6793828527919894
1.16317685E7	0.9252954053329855
1.93862805E7	1.4024088988188603
2.71407925E7	0.9536059659034957
3.48953045E7	0.953064430843012
4.26498165E7	1.1520808277004495
5.04043285E7	0.7669086939215628
5.81588405E7	0.545015905420537
6.59133525E7	0.5388859697625038
7.36678645E7	0.3677055079284757
8.14223765E7	0.406656249484027
8.91768885E7	0.5964879757303915
9.69314005E7	0.4701570142942314
1.046859125E8	0.3304008657378335
1.124404245E8	0.9172381895475467
1.201949365E8	0.5127721618103454
1.279494485E8	0.0
1.357039605E8	0.0
1.434584725E8	0.7928524182353794
1.512129845E8	1.721225526649126
1.589674965E8	1.5890688857264204
1.667220085E8	0.5610952181542034
1.744765205E8	0.6101271440427887
1.822310325E8	0.8573084569190994
1.899855445E8	0.289656568461497
1.977400565E8	0.49203966213080674
2.054945685E8	1.1385750227769007
2.132490805E8	0.5727678522305889
2.210035925E8	0.5140293296472506
2.287581045E8	0.7436310882825787
2.365126165E8	0.6548897000292965
2.442671285E8	0.5535359198159392
2.48697503E8	0.8041976884085495
2.52574759E8	0.4311262311688339
2.597761525E8	0.529102604872158
2.675306645E8	0.38536175065711725
2.752851765E8	1.0483116265369248
2.830396885E8	0.6041089957129603
2.907942005E8	0.540193094715306
2.985487125E8	0.3974317078228435
3.063032245E8	0.4095461043504757
3.140577365E8	0.5309918675393378
3.218122485E8	0.85776453165111
3.295667605E8	0.2444129778265855
3.373212725E8	0.7390964240860038
3.450757845E8	0.7247512888787049
3.528302965E8	0.586690799308301
3.605848085E8	0.6084214393545385
3.683393205E8	0.42075936958594856
3.760938325E8	0.4468358749675837
3.838483445E8	0.6582570090769447
3.916028565E8	0.29170644201188817
3.993573685E8	0.5562462014692398
4.071118805E8	0.3939259166455144
4.148663925E8	0.4831977697833344
4.226209045E8	0.7471029714792122
4.303754165E8	0.7257388002346149
4.381299285E8	0.46615060172664036
4.458844405E8	0.36625916399233
4.536389525E8	0.7939691252514885
4.613934645E8	0.49960575152171294
4.691479765E8	0.8636634571601908
4.769024885E8	0.593021425121133
4.846570005E8	0.8847690296002995
4.904921255E8	0.8028875704116861
4.943693815E8	0.3102659140699557
5.001660245E8	0.7400045517479302
5.079205365E8	0.723387592681216
5.156750485E8	0.32414159813090776
5.234295605E8	0.4884785116892716
5.311840725E8	0.7695385793882693
5.389385845E8	1.2065326159453793
5.466930965E8	1.1154296722359416
5.544476085E8	0.47734629599996875
5.622021205E8	0.38841370765301725
5.699566325E8	0.33643580189966177
5.777111445E8	0.2454381845533383
5.854656565E8	0.18057633492284722
5.932201685E8	0.5054288018948605
6.009746805E8	0.4711188193373606
6.087291925E8	0.5099150374705635
6.164837045E8	0.874658354439908
6.242382165E8	0.7776420460265301
6.319927285E8	0.6048200778243781
6.397472405E8	0.4142322654921613
6.475017525E8	0.4287906682832132
6.552562645E8	0.28087769555452463
6.630107765E8	0.4897657933005563
6.707652885E8	0.40900526826149447
6.785198005E8	0.8579531797663479
6.862743125E8	0.6667708658955924
6.903119965E8	0.8525948539031836
6.941892525E8	0.9253468363921001
7.017833365E8	0.5655007966796406
7.095378485E8	0.3966639891345417
7.172923605E8	0.3396280641031228
7.250468725E8	0.24965500273550426
7.328013845E8	0.46642333897029864
7.405558965E8	0.3282542254615338
7.483104085E8	0.40270335176861205
7.560649205E8	0.35700355446917953
7.638194325E8	0.6869558814515402
7.715739445E8	0.6501915218910738
7.793284565E8	0.4774355092067713
7.870829685E8	0.31784720510934916
7.948374805E8	0.42180849504840867
8.025919925E8	0.5295939027241973
8.103465045E8	0.3968732135337755
8.181010165E8	0.3149085647733102
8.258555285E8	0.18502352478741432
8.336100405E8	0.4580518407704196
8.413645525E8	0.4338771938304428
8.491190645E8	0.3395267905774795
8.568735765E8	0.3776750943367289
8.646280885E8	0.29238711090431946
8.723826005E8	0.3550480941791498
8.789432785E8	0.4780604520615141
8.828205345E8	0.9216836386917304
8.878916245E8	0.35654353612317735
8.956461365E8	0.4646885045500404
9.034006485E8	0.24172488793657873
9.111551605E8	0.34802170303716
9.189096725E8	0.7215749319116697
9.266641845E8	0.2664716650603746
9.344186965E8	0.4295004750475927
9.421732085E8	0.3448323572837007
9.499277205E8	0.4749141454683624
9.576822325E8	0.7281492241377612
9.654367445E8	0.3555254345709951
9.731912565E8	0.4079861637931315
9.809457685E8	0.373530842461282
9.887002805E8	0.3051673163818443
9.964547925E8	0.3746783692569565
1.0042093045E9	0.3488297525435522
1.0119638165E9	0.6166270626074934
1.0197183285E9	0.8920518528817079
1.0274728405E9	0.6345003592670585
1.0352273525E9	0.6863808777820201
1.0429818645E9	0.31588109472932563
1.0507363765E9	0.5886842379958246
1.0584908885E9	0.8310897232178317
1.0624550525E9	0.0020809641605214722
1.0663323085E9	0.5390728079124733
1.0739999125E9	0.4502090415124147
1.0817544245E9	0.3930278672805534
1.0895089365E9	1.1466249587007007
1.0972634485E9	1.527083287794002
1.1050179605E9	0.9567688946512305
1.1127724725E9	0.5775168674031551
1.1205269845E9	0.31993078626367133
1.1282814965E9	0.2585096610417478
1.1360360085E9	0.5158995908900136
1.1437905205E9	0.34717952509046873
1.1515450325E9	0.5094785801329901
1.1592995445E9	0.2611882336423118
1.1670540565E9	0.37499790410074874
1.1748085685E9	0.5479011630454044
1.1825630805E9	0.43032788650844594
1.1903175925E9	0.3992876510432414
1.1980721045E9	0.6207161706618668
1.2058266165E9	0.42458451578822415
1.2135811285E9	0.5872356138198737
1.2213356405E9	0.7883324229275371
1.2290901525E9	0.49652783429336406
1.233312218E9	0.4294923936551052
1.237189474E9	0.8713571233140311
1.2445991765E9	0.38640290346538414
1.2523536885E9	0.4822645179191101
1.2601082005E9	0.535088852744102
1.2678627125E9	0.581323236477187
1.2756172245E9	0.624651894838976
1.2833717365E9	0.4535381770472163
1.2911262485E9	0.4245243451602957
1.2988807605E9	0.5364457120464663
1.3066352725E9	0.6203586421036875
1.3143897845E9	0.3506416355994932
1.3221442965E9	0.4557417792088899
1.3298988085E9	0.8671855931320754
1.3376533205E9	0.957571322108746
1.3454078325E9	0.305432382999326
1.3531623445E9	0.41406617391632167
1.3609168565E9	0.5991974259295058
1.3686713685E9	0.6431346770061515
1.3764258805E9	0.9199015903815525
1.3841803925E9	0.6433450087912933
1.3904266695E9	0.6893316267023429
1.3943039255E9	0.4946154101840346
1.3996894165E9	0.41728322140116925
1.4074439285E9	0.8168170351066469
1.4151984405E9	0.7398171787123636
1.4229529525E9	0.6122592325520022
1.4307074645E9	0.600669956972422
1.4384619765E9	0.4424617877336246
1.4462164885E9	0.37531587696019114
1.4539710005E9	0.3896262054107799
1.4617255125E9	0.4767729095566423
1.4694800245E9	0.30589509001632414
1.4772345365E9	0.40421710610329126
1.4849890485E9	0.4057044497823709
1.4927435605E9	0.5061566503642927
1.5004980725E9	0.4162841416743536
1.5082525845E9	0.2561770450121439
1.5160070965E9	0.5468437352754155
1.5237616085E9	0.4402511676563734
1.5315161205E9	0.4075641768241769
1.5372765445E9	0.6501823523209107
1.5411538005E9	0.4680144402129888
1.5470251445E9	0.4219955767245632
1.5547796565E9	0.530627871961831
1.5625341685E9	0.3491054374682391
1.5702886805E9	0.6460631728958948
1.5780431925E9	0.6303008769932251
1.5857977045E9	0.09619832209094877
1.5935522165E9	0.0
1.6013067285E9	0.004688690449983881
1.6090612405E9	0.3390603389448216
1.6168157525E9	0.4848490775173816
1.6245702645E9	0.5484961946888698
1.6323247765E9	0.8507667960804128
1.6400792885E9	0.7316968251630962
1.6478338005E9	0.48277955245740617
1.6555883125E9	0.8088046940874842
1.6633428245E9	0.6439166568726976
1.6710973365E9	1.1487449691090297
1.677673868E9	1.1959074544268276
1.681551124E9	0.5541171488940045
1.6866063605E9	0.5394848509736285
1.6943608725E9	0.6203304328895359
1.7021153845E9	0.4352199561192672
1.7098698965E9	0.6417455254767926
1.7176244085E9	0.3364658295726035
1.7253789205E9	0.4753349744525452
1.7331334325E9	0.4916443271727643
1.7408879445E9	0.3173738415571021
1.7486424565E9	0.5641268218114718
1.7563969685E9	0.8175611532137655
1.7641514805E9	0.4224785583386779
1.7719059925E9	0.6426129616997626
1.7796605045E9	0.9637426133541351
1.7874150165E9	0.6943162495206258
1.7951695285E9	0.6354341637089912
1.8029240405E9	0.7365793520422048
1.8106785525E9	0.5434509831548625
1.8152318495E9	1.00572970014465
1.8191091055E9	1.0714814686359906
1.8261875765E9	0.8196147606393364
1.8339420885E9	0.7502797954923021
1.8416966005E9	0.3028692968057265
1.8494511125E9	0.5304005403424383
1.8572056245E9	0.3243364736139416
1.8649601365E9	0.7991678256523244
1.8727146485E9	0.7276427092842204
1.8804691605E9	1.5626079572918135
1.8882236725E9	0.963111428343321
1.8959781845E9	0.4825526661189033
1.9037326965E9	0.4156590091738143
1.9114872085E9	0.4240998252893132
1.9192417205E9	0.48978274232107605
1.9269962325E9	0.7256162408219032
1.9347507445E9	0.9834202246326386
1.9425052565E9	0.7421236232539937
1.9486484595E9	0.4864865706646069
1.9525257155E9	0.9686595115547459
1.9580142805E9	1.252399170051588
1.9657687925E9	0.5622020998833398
1.9735233045E9	0.4722441262727137
1.9812778165E9	0.5600733621714553
1.9890323285E9	0.374346093185044
1.9967868405E9	0.7247417974149188
2.0045413525E9	1.824365570362958
2.0122958645E9	0.7005179174184982
2.0200503765E9	0.6004464895799699
2.0278048885E9	0.37081505224933853
2.0355594005E9	0.28752356564345954
2.0433139125E9	0.45987725776364435
2.0510684245E9	0.608201744030494
2.0588229365E9	0.9437688071986847
2.0665774485E9	0.7804433193056286
2.0743319605E9	1.056476574670576
2.081487759E9	0.590833754655173
2.085365015E9	0.0
2.0898409845E9	0.0
2.0975954965E9	0.0
2.1053500085E9	0.46756371332028424
2.1131045205E9	0.6215397715300484
2.1208590325E9	0.505226819496972
2.1286135445E9	0.5718826336182259
2.1363680565E9	0.4993745468192181
2.1441225685E9	0.22318646757030083
2.1518770805E9	0.21830580605780806
2.1596315925E9	0.42485202141204387
2.1673861045E9	0.19982397084909706
2.1751406165E9	0.256618393208609
2.1828951285E9	0.527546891625125
2.1906496405E9	0.2976310774092545
2.197231538E9	0.6977420638161855
2.201108794E9	0.0
2.2061586645E9	0.0
2.2139131765E9	0.0
2.2216676885E9	1.2308170753818926
2.2294222005E9	0.30373986114514584
2.2371767125E9	0.40284468329286444
2.2449312245E9	0.2814281588311064
2.2526857365E9	0.5827108142520698
2.2604402485E9	0.5246869318906887
2.2681947605E9	0.7750240090380763
2.2759492725E9	0.8641840493117482
2.2837037845E9	0.26896841912464714
2.2914582965E9	0.7307587686581917
2.2992128085E9	0.6511534737887333
2.305187892E9	1.6933027631664272
2.309065148E9	0.0
2.3147218325E9	0.0
2.3224763445E9	0.0
2.3302308565E9	0.8888480630524159
2.3379853685E9	0.7942769822171927
2.3457398805E9	0.8168606958443406
2.3534943925E9	0.9612916033969143
2.3612489045E9	0.6425169533486192
2.3690034165E9	0.7564065931503606
2.3767579285E9	0.7953046406567161
2.3845124405E9	0.9665963027473795
2.3922669525E9	0.6324490737188032
2.4000214645E9	0.6754766751855678
2.406857916E9	0.643002869278473
2.410735172E9	1.2408465729185503
2.4155304885E9	0.7646681684562039
2.4232850005E9	0.6890942136624929
2.4310395125E9	1.0404008132248588
2.4387940245E9	1.0200294073035694
2.4465485365E9	0.24667139452794282
2.4543030485E9	0.21474917645838196
2.4620575605E9	0.5560862335837806
2.4698120725E9	0.6689364266108182
2.4775665845E9	1.022689101812555
2.4853210965E9	0.6840420896544456
2.4930756085E9	0.608661134477306
2.4985623645E9	0.8165639421800782
2.5024396205E9	1.1572907490766855
2.5085846325E9	1.592212519797537
2.5163391445E9	0.8720323802407702
2.5240936565E9	0.7726309484177254
2.5318481685E9	1.018106006611021
2.5396026805E9	1.8520150051465571
2.5473571925E9	0.9620262943740746
2.5551117045E9	0.7288023014230796
2.5628662165E9	0.9709924350581656
2.5706207285E9	0.7907791871650659
2.5779325295E9	1.0119461674485504
2.5818097855E9	0.8406866461924568
2.5861297525E9	0.48508577350916354
2.5938842645E9	0.5268309831351019
2.6016387765E9	0.41403792519139904
2.6093932885E9	0.3783135068384383
2.6171478005E9	0.3274089254475712
2.6249023125E9	0.47959805266584976
2.6326568245E9	0.3760393140390911
2.6404113365E9	0.5329399398344985
2.6481658485E9	0.2516690104781194
2.6557437135E9	0.37693870522241735
2.6596209695E9	0.3114946351367909
2.6636748725E9	1.1752073775545173
2.6714293845E9	1.6664202270114712
2.6791838965E9	1.3444056226935728
2.6869384085E9	0.2633413308813615
2.6946929205E9	1.0489480814114804
2.7024474325E9	1.6528541653947202
2.7102019445E9	1.8481776678098403
2.716326253E9	1.6240579823166643
2.720203509E9	0.8389722471744151
2.7257109685E9	0.5837503306031392
2.7334654805E9	0.4285917359357428
2.7412199925E9	0.6192333715196545
2.7489745045E9	0.8296049847104509
2.7567290165E9	0.7507624389894288
2.7644835285E9	0.9189866999316753
2.7722380405E9	0.47383991889871957
2.778857061E9	0.7385879169935263
2.782734317E9	0.0
2.7877470645E9	0.011668829065739125
2.7955015765E9	0.3237100546728273
2.8032560885E9	0.2481440842203965
2.8110106005E9	0.43460420526858606
2.8187651125E9	0.7224429732585815
2.8261855445E9	0.9603874352675501
2.8300628005E9	0.0
2.8342741365E9	0.0
2.8420286485E9	0.0034040433446380094
2.8497831605E9	1.0686632557933502
2.8575376725E9	1.0127460926973773
2.8652921845E9	0.9082389980472001
2.8730466965E9	1.0457485340002508
2.8789786195E9	0.5965745474810388
2.8828558755E9	0.6332429440076277
2.8885557205E9	0.2684514104598511
2.8963102325E9	0.4370726515178407
2.9040647445E9	0.3354904965406505
2.9118192565E9	0.2086750079922507
2.9195737685E9	0.3174170871308449
2.9273282805E9	0.5793345779571373
2.9350827925E9	0.39967439240234925
2.9428373045E9	0.16602252068314516
2.9505918165E9	0.41844805392310214
2.9583463285E9	0.3056854675779054
2.9661008405E9	0.17985798716063908
2.9738553525E9	0.16566004898092965
2.9816098645E9	0.43410985393543
2.9893643765E9	0.44704196709430766
2.9971188885E9	0.3902882754613042
3.0048734005E9	0.23138485711224877
3.0126279125E9	0.5272854807407487
3.0203824245E9	0.2845564040338182
3.0281369365E9	0.31689559774109394
3.0341590195E9	0.7129373991905552
3.0380362755E9	0.04657453438143839
3.0436459605E9	0.40091087905917283
3.0514004725E9	0.2978849899265814
3.0591549845E9	0.21020444950330588
3.0669094965E9	0.08412569523791293
3.0746640085E9	0.0
3.0824185205E9	0.0
3.0901730325E9	0.0
3.0948638505E9	0.04125538494980634
3.095685697E9	3.7052930170800895
3.0956961125E9	0.1665884561238855
3.0957057475E9	0.08795309168443496
3.095723208E9	12.159544016471651
3.0957468575E9	1.5166873585043452
3.0957743915E9	0.1741564915829781
3.0958051445E9	0.015580652790917691
3.0958392935E9	1.0426118234031443
3.0958746045E9	0.021660949430120615
3.0959108895E9	0.0076052935039261985
3.095947426E9	0.01312378925540913
3.095984339E9	0.1310827168796234
3.0960216755E9	0.11144594378366847
3.0960595015E9	0.313414058814279
3.0960978295E9	0.0034803386837047425
3.0961365375E9	0.20578712031659557
3.0961758875E9	0.018926255466747095
3.096215745E9	0.06739462546019184
3.096255679E9	0.8834472570670272
3.0962957E9	0.2902027279754632
3.096336017E9	0.754114134859737
3.0963766085E9	0.3203778411886254
3.096417435E9	0.01004853540157557
3.096458902E9	0.19991414876111893
3.0965008355E9	0.07414031573424906
3.0965428785E9	4.549202884797874
3.096585625E9	0.033778639163840246
3.096629057E9	0.08965374629506238
3.096672664E9	0.7258016525142478
3.096717443E9	0.6127935116750605
3.096763347E9	0.1589429920985612
3.0968269725E9	0.22633132456032468
3.09691267E9	0.07674973636010435
3.097004057E9	0.11494352080613665
3.097103618E9	0.10165080379205697
3.0972210215E9	0.012222101048498918
3.0973497685E9	0.13310873605947957
3.0974831875E9	3.987539755151832
3.097629745E9	0.297206509778181
3.097787028E9	3.387625731141114
3.097947186E9	0.6728390848107628
3.0981086605E9	30.903573503417757
3.098271681E9	0.15977325726532676
3.0984370835E9	2.927284079584069
3.0986053035E9	0.2123986013162697
3.098776315E9	0.1385021115429076
3.0989485365E9	1.1514736438877733
3.099120956E9	0.06730997710742125
3.0992945225E9	1.5267200494879374
3.0994714155E9	1.1484558979452895
3.099650861E9	0.5163584558107439
3.099830935E9	0.3198692194729988
3.1000126105E9	1.3294987315195521
3.1001974875E9	4.83778056063963
3.100384347E9	1.1090222143732507
3.100571295E9	0.0012029833988290962
3.100759707E9	0.868264230276781
3.100950336E9	0.45520684810595974
3.101151657E9	9.513479469439748
3.1015309915E9	0.5463236261086839
