# Position (bp)	A	C	G	T	N
0.0	26.903806475649045	24.31904027687186	23.84943755404529	24.92754697277011	1.687206636946001E-4
1.0	26.73474837062706	24.153794009066672	23.360850632096344	25.749404072366914	0.001202915843007797
2.0	28.203355516559558	22.95439942879932	21.26261233827968	27.57663323789576	0.0029994784656817795
3.0	28.477492226039196	22.49644155622441	21.937429379466643	27.077988689716577	0.010648148553170318
4.0	29.103164687240007	21.851316227390964	22.260998118952067	26.782321348875467	0.0021996175414999717
5.0	28.900746757657515	21.501861363855358	22.770009614578264	26.824920192001617	0.0024620719072471274
6.0	28.844284699997786	21.7183893400535	22.329842398652936	27.107261724867588	2.2183642819104826E-4
7.0	28.459504728615315	21.92998379906694	21.91040907762163	27.699724335431174	3.7805926494530764E-4
8.0	28.09158745023209	21.96946755882821	21.877455432436683	28.061261473161352	2.2808534166121868E-4
9.0	28.233478403942513	22.162868306273246	21.86606053872383	27.73747402170448	1.1872935593323712E-4
10.0	28.12614394172213	22.134841929359535	22.153441820303495	27.58527860968174	2.936989330980076E-4
11.0	28.30387553864072	22.03251284682876	21.85740891802438	27.802262756563202	0.003939939942942421
12.0	28.178859775756493	22.044204563931448	21.89722387019957	27.879055654198126	6.561359143678893E-4
13.0	28.192697994636184	21.839946329331987	21.891168673046973	28.07521842139698	9.68581587876408E-4
14.0	28.242461217055887	21.91071527438167	21.731252728431844	28.1147865414901	7.84238640506382E-4
15.0	28.106847296926247	21.814447637916956	21.8582212767755	28.215215954325938	0.005267834055353625
16.0	28.104753910913736	21.878814571116447	21.91351791207304	28.09977665133475	0.003136954562025528
17.0	28.176453944070474	21.661858544345602	21.922197652883106	28.23453759477571	0.004952263925110021
18.0	27.950352632436037	21.698349074554663	22.00293673937444	28.34621192740112	0.0021496262337386087
19.0	27.967559015676148	21.84956965607605	21.887297471152202	28.295442629912728	1.3122718287357786E-4
20.0	27.77450195847197	21.907262749689398	21.995388051902477	28.322487927411622	3.5931252453479654E-4
21.0	27.682599188066177	22.043398454093794	21.92267881922031	28.34883959551533	0.002483943104392724
22.0	27.61499531768914	21.9517987559913	21.94085065959156	28.492286528679827	6.873804817187411E-5
23.0	27.688020120501548	21.667876248017375	21.87024418629211	28.77350325712117	3.561880677997113E-4
24.0	27.62327825249385	21.838212255844013	21.938560432804746	28.59965848438103	2.905744763629224E-4
25.0	27.671529237853772	21.64563636497704	22.04564493848632	28.6369426266008	2.468320820717298E-4
26.0	27.981815911758346	21.61206407735855	21.95607926171837	28.449740801318168	2.99947846568178E-4
27.0	27.67463807230518	21.634182106586216	22.22033331454493	28.4706621636163	1.8434294737002603E-4
28.0	27.308267400005825	21.829516892750274	22.11321131538254	28.746811023233338	0.002193368628029801
29.0	27.27372965525619	22.111336641341488	21.84373317089491	28.771019314016776	1.8121849063494085E-4
30.0	27.095523140913873	21.91750784332374	22.04683535650239	28.93850269284428	0.0016309664157144676
31.0	27.337352967752732	21.702676447132756	22.250956115005504	28.70516201495465	0.0038524551543600355
32.0	27.496465926986946	21.336836932478363	22.54842626738276	28.60957551005819	0.008695363093742074
33.0	26.506194360455577	22.389116467374233	22.96830013681371	28.133520784073667	0.002868251282808202
34.0	26.214051406811638	22.173316489595372	23.308722195928183	28.29848272631596	0.00542718134884297
35.0	27.35443167963919	22.02748736821692	22.296844246578736	28.320465998595644	7.707069695031252E-4
36.0	27.220078707928515	22.395234364698954	22.159288674961	28.224226569518706	0.0011716828928256971
37.0	26.991772390651782	22.459275947881046	22.66071167081564	27.887354719132507	8.852715190238601E-4
38.0	27.015169596151633	22.18025919500282	22.677938013079938	28.120071771565787	0.006561424199823904
39.0	26.875885141332034	22.55820764387172	22.55147437284762	28.014000621148156	4.322208004645905E-4
40.0	26.87512484932158	22.471029229165968	22.495316913664364	28.15831550118762	2.1350666047046036E-4
41.0	26.937687508318948	22.580610220782553	22.28916842176085	28.192320342477185	2.1350666047046036E-4
42.0	26.59949295813374	22.75530032888358	22.305139761459944	28.33955661852942	5.103329933196369E-4
43.0	26.32594926623489	22.77220380741741	22.30187987927813	28.599566071146253	4.009759233225719E-4
44.0	26.118061476170467	23.128556838701655	21.972907775329336	28.77607879708056	0.004395112717977281
45.0	26.198381640343555	22.780999240332886	22.246034868866293	28.772704350349226	0.0018799001080447852
46.0	26.26129840794853	22.710797208874293	22.577980443623098	28.43632200303825	0.013601936515825428
47.0	26.581167837689947	22.34197226413086	22.939827365804817	28.136819025713912	2.1350666047046036E-4
48.0	25.534683167572314	23.44540593031934	24.501529645035284	26.516683618748342	0.0016976383247163435
49.0	24.9573403277421	24.770881315917578	23.72150649466431	26.55007918493364	1.926767423757813E-4
50.0	NaN	NaN	NaN	NaN	NaN
