# Position (bp)	A	C	G	T	N
0.0	27.99938090740933	24.222494556550256	22.37911072476468	24.85179340129003	0.5472204099857058
1.0	25.910872189870048	22.55211667016471	23.735819373019325	27.794988503055773	0.006203263890136016
2.0	27.784504644359686	22.944632476835096	22.19423632475053	27.06148510661457	0.015141447440122054
3.0	28.09145996317523	23.01794408892012	22.039017638792373	26.849528832976194	0.002049476136078087
4.0	27.752549267281434	22.480443268101503	22.974843400145343	26.780340163686656	0.011823900785065886
5.0	27.561098036656695	22.338340543970723	23.196731750443174	26.90252389901662	0.0013057699127855369
6.0	27.797702859409913	22.357145687045403	23.132498837830507	26.711189193790926	0.001463421923253082
7.0	27.412809184723873	22.642094841530255	22.55741172138585	27.386991954401008	6.922979590096548E-4
8.0	27.145092080426654	22.524863435659544	22.434655640713537	27.895097529702667	2.9131349760307254E-4
9.0	27.40978637878404	22.440944585044143	22.454756272048147	27.694451074206526	6.168991713947419E-5
10.0	27.4806132580954	22.434141558070706	22.47942195725108	27.605692992313298	1.3023426951666773E-4
11.0	27.35064288433538	22.476203799906973	22.455304626867164	27.71766704635668	1.8164253379956288E-4
12.0	27.401872933302094	22.405743632880835	22.46160042563301	27.72647499563715	0.004308012546906614
13.0	27.31545221382493	22.35944192285004	22.43073490375756	27.894113918246056	2.5704132141447577E-4
14.0	27.339740905089787	22.336345903316545	22.364140638205498	27.95968344573008	8.910765809035161E-5
15.0	27.343390891853876	22.31684503506523	22.31466875187726	28.02375185189704	0.0013434693065929933
16.0	27.25632928268198	22.340643634210597	22.414935430534616	27.98773864915806	3.5300341474254674E-4
17.0	27.155545094164175	22.3921444333692	22.438353608524288	28.01330569259476	6.511713475833386E-4
18.0	27.15640532578651	22.343388835523303	22.431036498908018	28.068764928103146	4.044116790254419E-4
19.0	27.161947136676208	22.313613168850647	22.35328664000657	28.171057092373246	9.596209332807095E-5
20.0	27.18164678354941	22.31610818327718	22.376927587141463	28.125139230715767	1.7821531618070322E-4
21.0	27.10253631925327	22.340054152780155	22.432342268820808	28.124974724270064	9.253487570921129E-5
22.0	27.047659710740092	22.300120213085197	22.523924378031975	28.12762396348944	6.717346532964967E-4
23.0	27.029642827717748	22.292809957904172	22.53811991340929	28.139358756616417	6.854435237719353E-5
24.0	27.015282785894723	22.28283332741567	22.440906885650335	28.26089817503404	7.882600523377257E-5
25.0	27.039345280796738	22.2178909807559	22.501914786483656	28.24080782535228	4.1126611426316125E-5
26.0	27.20553449035286	22.19453449268337	22.548206214861594	28.051563722874086	1.6107922808640483E-4
27.0	27.002958511337305	22.200206537842583	22.68659040787591	28.109870976223743	3.735667204557048E-4
28.0	26.673133369351103	22.472433860526227	22.544487683745132	28.309855978719444	8.910765809035161E-5
29.0	26.795265696416788	22.48964192019052	22.516148021254782	28.198749010733636	1.9535140427500157E-4
30.0	26.676762792809477	22.436180752553927	22.52128884768307	28.36533235031593	4.35256637595179E-4
31.0	26.69043739110873	21.913896777963046	22.87067997505534	28.52389257345247	0.0010932824204162369
32.0	26.866000040852434	21.798985598420302	23.08721843865013	28.23794609864053	0.009849823436602711
33.0	26.676988989172322	23.000352180882512	22.752752844007997	27.56292131642993	0.006984669507236022
34.0	25.39943535904286	22.067552652687	23.82479679684016	28.706998529175287	0.0012166622546951852
35.0	27.006619157364163	22.36724837144263	22.46472221966107	28.161260911103874	1.4934042825900096E-4
36.0	27.00819697145403	22.422478357650068	22.413706230755377	28.15528080091142	3.3763922910730657E-4
37.0	26.82359272293961	22.50223263940247	22.531905933191325	28.133613452689666	0.008655251776923839
38.0	26.919754972614214	22.385078319964336	22.634983294000527	28.05969643376356	4.869796573663075E-4
39.0	26.789932689022457	22.528886659315656	22.513160462913774	28.167805917698878	2.142710492411753E-4
40.0	26.80171110366862	22.51097879404877	22.432698437392663	28.25439739384071	2.142710492411753E-4
41.0	26.682401087613872	22.63883367982477	22.587278766764925	28.091142333505225	3.44132291205524E-4
42.0	26.315004154910437	22.815009933735706	22.650079663378882	28.21902319152962	8.830564453575709E-4
43.0	25.91616132246533	23.067271889313552	22.583266054388226	28.430047709721684	0.0032530241112069345
44.0	25.973676866531342	23.285016726777272	22.474539729553573	28.26470188339058	0.002064793747233144
45.0	25.999545225930643	23.03692981012858	22.704647357252302	28.233658553499	0.025219053189476513
46.0	26.05387916956852	22.56139742124143	22.80585471617722	28.576297440421932	0.0025712525908941036
47.0	25.99722070969948	23.020314064219242	22.385253632640985	28.582939842948413	0.014271750491881919
48.0	27.803759405038125	23.170440152992125	22.4573331149933	26.5675582982827	9.090286937504408E-4
49.0	25.382360194308777	22.752196050997547	22.881005416901985	28.004674225543262	0.9797641122484215
50.0	NaN	NaN	NaN	NaN	NaN
