##FastQC	0.10.0
>>Basic Statistics	pass
#Measure	Value	
Filename	exm6.bam	
File type	Conventional base calls	
Encoding	Sanger / Illumina 1.9	
Total Sequences	256197522	
Filtered Sequences	0	
Sequence length	35-50	
%GC	49	
>>END_MODULE
>>Per base sequence quality	pass
#Base	Mean	Median	Lower Quartile	Upper Quartile	10th Percentile	90th Percentile
1	33.86180209424508	32.0	10.0	63.0	4.0	63.0
2	51.45020332398063	59.0	41.0	63.0	37.0	63.0
3	51.230146398527616	57.0	40.0	63.0	37.0	63.0
4	51.23558065483553	59.0	40.0	63.0	37.0	63.0
5	51.27753277020376	58.0	40.0	63.0	37.0	63.0
6	50.988181357195174	57.0	40.0	63.0	37.0	63.0
7	50.24795655908022	53.0	40.0	63.0	37.0	63.0
8	50.01777251381846	52.0	40.0	63.0	37.0	63.0
9	50.378235832429326	54.0	40.0	63.0	37.0	63.0
10	50.34336866458841	54.0	40.0	63.0	37.0	63.0
11	49.60926512396166	52.0	40.0	63.0	37.0	63.0
12	48.69481082646849	49.0	40.0	63.0	37.0	63.0
13	48.60775561287435	48.0	40.0	63.0	37.0	63.0
14	49.1018201690491	50.0	39.0	63.0	37.0	63.0
15	49.00953636468037	49.0	39.0	63.0	37.0	63.0
16	48.25261994142161	48.0	39.0	63.0	37.0	63.0
17	47.35360416952042	46.0	39.0	63.0	37.0	63.0
18	47.352268239346984	45.0	39.0	63.0	37.0	63.0
19	47.84572246174965	46.0	39.0	63.0	37.0	63.0
20	47.67689285847191	46.0	39.0	63.0	37.0	63.0
21	46.79786475452327	45.0	39.0	62.0	37.0	63.0
22	45.98802023932144	44.0	39.0	60.0	37.0	63.0
23	46.07661271993099	43.0	39.0	60.0	37.0	63.0
24	46.54854973577769	44.0	38.0	61.0	37.0	63.0
25	46.193170705218606	44.0	38.0	60.0	36.0	63.0
26	45.27225043183673	43.0	38.0	59.0	32.0	63.0
27	44.4515217442267	42.0	38.0	57.0	29.0	63.0
28	44.36349301614244	42.0	38.0	56.0	29.0	63.0
29	44.73908171524001	42.0	38.0	58.0	30.0	63.0
30	44.488703793942236	42.0	38.0	57.0	29.0	63.0
31	43.608944960833774	42.0	38.0	56.0	25.0	63.0
32	42.60813718955486	41.0	37.0	53.0	22.0	63.0
33	42.39110094124954	41.0	37.0	53.0	23.0	63.0
34	42.83580164760532	41.0	37.0	54.0	24.0	63.0
35	39.61163598998432	40.0	37.0	49.0	17.0	63.0
36	44.21577535788968	43.0	37.0	60.0	22.0	63.0
37	43.52551441930028	42.0	37.0	59.0	21.0	63.0
38	42.0783674168402	41.0	37.0	57.0	18.0	63.0
39	42.1979076128613	41.0	37.0	57.0	19.0	63.0
40	41.947129496435956	41.0	37.0	56.0	18.0	63.0
41	42.69934104202616	41.0	37.0	58.0	19.0	63.0
42	42.01518121631169	41.0	37.0	57.0	18.0	63.0
43	40.520428632404965	40.0	37.0	54.0	15.0	63.0
44	40.78386745676642	40.0	37.0	55.0	17.0	63.0
45	40.64862901367172	40.0	37.0	54.0	15.0	63.0
46	41.325400188687226	40.0	37.0	55.0	18.0	63.0
47	40.36907321843652	40.0	37.0	54.0	14.0	63.0
48	38.86710502219456	40.0	34.0	52.0	7.0	63.0
49	38.96469217215926	40.0	35.0	52.0	7.0	63.0
50	27.935632656119132	30.0	14.0	39.0	5.0	44.0
>>END_MODULE
>>Per sequence quality scores	pass
#Quality	Count
0	3380.0
1	1699.0
2	3465.0
3	2962.0
4	2811.0
5	5369.0
6	5818.0
7	16381.0
8	35068.0
9	87748.0
10	185615.0
11	350045.0
12	547346.0
13	731974.0
14	877511.0
15	929870.0
16	908083.0
17	866850.0
18	783250.0
19	728160.0
20	680181.0
21	631385.0
22	628382.0
23	644618.0
24	646683.0
25	713987.0
26	741160.0
27	795913.0
28	926975.0
29	987682.0
30	1144980.0
31	1373787.0
32	1648631.0
33	2006993.0
34	2904198.0
35	3132889.0
36	6380429.0
37	1.5635712E7
38	1.50747E7
39	1.0854338E7
40	9053742.0
41	8491103.0
42	8508930.0
43	8779488.0
44	9092850.0
45	9248463.0
46	9184048.0
47	8938458.0
48	8665859.0
49	8442590.0
50	8307749.0
51	8218276.0
52	8106451.0
53	7940165.0
54	7666905.0
55	7319845.0
56	6959917.0
57	6671089.0
58	6508367.0
59	6478491.0
60	6705072.0
61	7665560.0
62	4617076.0
>>END_MODULE
>>Per base sequence content	warn
#Base	G	A	T	C
1	28.058177517814887	23.995889367079215	17.125365640412557	30.820567474693345
2	26.368817321436218	23.64664039174797	21.932552577577095	28.051989709238722
3	22.04384705475386	26.250818088743916	25.429967459715886	26.275367396786343
4	24.21271096937181	26.712528546321195	23.994593284346166	25.08016719996083
5	25.364313984389618	26.99012836876879	23.67728659611489	23.9682710507267
6	25.515773335348076	26.722877264596352	24.056098064153208	23.705251335902368
7	25.129795613373453	26.49575101160126	24.38242686894827	23.992026506077018
8	24.41144604280683	25.851307009063973	25.186658860028878	24.55058808810032
9	24.250725289619606	25.606329886404644	25.572658191558904	24.570286632416842
10	24.570778641720235	25.658743478108725	25.13372085642496	24.636757023746082
11	24.60341873950219	25.64017024348251	25.10623370891405	24.650177308101252
12	24.191510569467063	25.920871640583265	25.46946546874269	24.41815232120698
13	24.277667504687237	25.81962350200669	25.347624964658422	24.555084028647652
14	24.167412467295748	25.874630669412813	25.470089911278187	24.487866952013253
15	23.995718162622023	25.995305508718523	25.625610391717007	24.383365936942447
16	24.216413692452154	25.81175418844652	25.599871479716906	24.37196063938442
17	24.227874300487525	25.870691150310954	25.499119500230254	24.402315048971268
18	24.107003566747746	25.91881535369621	25.621838214900734	24.35234286465531
19	24.23446947533395	25.767571062218973	25.595078168663814	24.40288129378326
20	24.178560716557545	25.760136419732184	25.54244938620384	24.51885347750643
21	24.052542699607105	25.758301413643558	25.706878989258286	24.482276897491055
22	24.080222380733254	25.66327725636677	25.739708914370446	24.51679144852953
23	24.04351162870382	25.65830692804062	25.75360578383435	24.544575659421213
24	23.94317653650047	25.729633109500693	25.924952025253408	24.402238328745433
25	24.028796804677572	25.7055960531196	25.818724391203148	24.446882750999684
26	24.11967118764765	25.699800285934582	25.74642793213931	24.434100594278455
27	24.04951084679195	25.808921496745807	25.82079076333151	24.320776893130734
28	24.220773686772052	25.699570778322723	25.68011232087625	24.399543214028974
29	24.248555156214767	25.641135551967942	25.683943379225184	24.426365912592107
30	24.05693066790737	25.68149423894217	25.808539737028337	24.453035356122125
31	24.16575323070693	25.552373471716518	25.709593601899677	24.572279695676873
32	24.10810083337647	25.585707295682127	25.73959275598272	24.56659911495868
33	23.95147263465675	25.654564613250102	25.90117153862167	24.492791213471474
34	24.124271571208315	25.563894007316605	25.80008313428568	24.511751287189398
35	24.148248966961113	25.61338126318331	25.735457147425905	24.50291262242967
36	23.757459888598415	25.5230756991721	26.08670790758034	24.632756504649148
37	23.870590866786483	25.457769350107085	25.978660614497095	24.692979168609337
38	23.989696191790696	25.519357588058377	25.81785320220448	24.673093017946446
39	23.937124386413586	25.51241797670215	26.000089972608947	24.550367664275313
40	23.995882849679166	25.35456498853056	25.900353576823633	24.749198584966642
41	23.99459372216492	25.330707928702882	25.859184492482846	24.81551385664935
42	23.804926938863147	25.413763532670153	26.059812049570997	24.721497478895703
43	23.8980943547085	25.315155267253203	25.984434648955563	24.80231572908274
44	23.947388947789822	25.309793728325765	25.9533589194323	24.789458404452112
45	23.83135668968251	25.498881179588288	26.034283634229126	24.63547849650007
46	24.043556478670837	25.43540439460303	25.88333949569831	24.637699631027825
47	24.111203297844376	25.486229832743113	25.77772761792495	24.62483925148756
48	24.04697709219098	25.558899698895697	25.844969551329942	24.549153657583375
49	24.28965945872633	25.466679317024592	25.702251299620908	24.541409924628166
50	24.34157495090193	25.42792773721368	25.650690344924175	24.579806966960213
>>END_MODULE
>>Per base GC content	warn
#Base	%GC
1	58.878744992508224
2	54.420807030674936
3	48.319214451540205
4	49.29287816933264
5	49.332585035116324
6	49.22102467125044
7	49.12182211945047
8	48.96203413090715
9	48.82101192203645
10	49.20753566546631
11	49.25359604760344
12	48.609662890674045
13	48.83275153333489
14	48.655279419309
15	48.379084099564466
16	48.588374331836576
17	48.63018934945879
18	48.459346431403056
19	48.63735076911721
20	48.697414194063974
21	48.534819597098156
22	48.597013829262785
23	48.58808728812503
24	48.3454148652459
25	48.47567955567725
26	48.55377178192611
27	48.37028773992269
28	48.62031690080102
29	48.674921068806874
30	48.509966024029495
31	48.73803292638381
32	48.67469994833515
33	48.44426384812822
34	48.636022858397716
35	48.65116158939078
36	48.39021639324756
37	48.56357003539582
38	48.66278920973714
39	48.4874920506889
40	48.74508143464581
41	48.81010757881427
42	48.526424417758854
43	48.70041008379124
44	48.73684735224194
45	48.466835186182585
46	48.681256109698666
47	48.736042549331934
48	48.59613074977436
49	48.831069383354496
50	48.92138191786214
>>END_MODULE
>>Per sequence GC content	pass
#GC Content	Count
0	11322.0
1	19760.0
2	28198.0
3	30321.5
4	43127.0
5	56541.0
6	59273.0
7	79262.5
8	99252.0
9	104111.5
10	131210.0
11	161089.0
12	168729.0
13	211949.0
14	255169.0
15	277678.5
16	343311.5
17	424629.0
18	462823.0
19	587544.5
20	712266.0
21	900819.0
22	1089372.0
23	1193103.5
24	1473741.5
25	1781690.0
26	1912732.0
27	2342147.5
28	2771563.0
29	2969698.5
30	3580120.0
31	4241476.5
32	4490547.0
33	5416863.5
34	6343180.0
35	6727358.0
36	7999001.0
37	9358469.0
38	9830472.0
39	1.16320435E7
40	1.3433615E7
41	1.5645878E7
42	1.7858141E7
43	1.8612421E7
44	2.0982073E7
45	2.3346126E7
46	2.4094807E7
47	2.59584785E7
48	2.782215E7
49	2.8122542E7
50	2.86960825E7
51	2.88182645E7
52	2.8667298E7
53	2.71933495E7
54	2.5719401E7
55	2.4937164E7
56	2.24586475E7
57	1.99000205E7
58	1.9037673E7
59	1.63668575E7
60	1.3696042E7
61	1.14187565E7
62	9141471.0
63	8538567.0
64	6844014.0
65	5277508.0
66	4802651.0
67	3761146.5
68	2719642.0
69	2474964.0
70	1838253.5
71	1291117.0
72	1136013.0
73	840222.5
74	544432.0
75	495043.5
76	347305.5
77	223413.0
78	197870.0
79	141989.5
80	86109.0
81	60487.5
82	34866.0
83	32450.0
84	22495.5
85	13907.0
86	12857.0
87	9419.0
88	5981.0
89	5770.0
90	4381.5
91	3095.5
92	2987.0
93	2321.0
94	1655.0
95	1610.5
96	1257.5
97	930.5
98	912.0
99	632.0
100	352.0
>>END_MODULE
>>Per base N content	pass
#Base	N-Count
1	0.02753383383622266
2	0.19008536702396364
3	0.15377900493510627
4	0.09378896334524266
5	0.046675314837744605
6	0.009970822434418394
7	0.15867444650772228
8	0.16872606597654757
9	0.08699576727365849
10	0.012411517391647527
11	0.141320648682933
12	0.18041001973469517
13	0.18139831969178843
14	0.22928832231250076
15	0.14841673605258368
16	0.19734226781475273
17	0.2315607876956749
18	0.2130609990833557
19	0.2067147238059547
20	0.22247912296357025
21	0.0500801096741287
22	0.07967368240197109
23	0.027157951980503543
24	0.008837322009695316
25	0.16457770422931725
26	0.038401620449709115
27	0.08473501160561576
28	0.014213642550375643
29	0.10904516086615387
30	0.16726235158511799
31	0.0812021905504613
32	0.08617257429991848
33	0.11694063145544398
34	0.0657219471467019
35	0.1676678980525034
36	0.06618721316125765
37	0.30966497794619574
38	0.011293629920433031
39	0.011971232102705506
40	0.22333159022513888
41	0.010034445219965868
42	0.3244574707479021
43	0.008234271680426324
44	0.12918938380676454
45	0.05408092901070292
46	0.10235540061156406
47	0.27103306643223507
48	0.19182230810179343
49	0.19511586064442887
50	0.15704601545677715
>>END_MODULE
>>Sequence Length Distribution	warn
#Length	Count
35	1.28098761E8
36	0.0
37	0.0
38	0.0
39	0.0
40	0.0
41	0.0
42	0.0
43	0.0
44	0.0
45	0.0
46	0.0
47	0.0
48	0.0
49	0.0
50	1.28098761E8
>>END_MODULE
>>Sequence Duplication Levels	pass
#Total Duplicate Percentage	17.121201564661746
#Duplication Level	Relative count
1	100.0
2	7.241720959558051
3	4.208724892665206
4	2.550815143963731
5	1.6380940943345244
6	1.0676434383162698
7	0.7415858528237308
8	0.48938661542618667
9	0.345873239859489
10++	1.8110307142642688
>>END_MODULE
>>Overrepresented sequences	pass
>>END_MODULE
>>Kmer Content	warn
#Sequence	Count	Obs/Exp Overall	Obs/Exp Max	Max Obs/Exp Position
TTTTT	32477535	3.2317214	6.0341854	31
>>END_MODULE
