#name	absolute_pos	mapped_bases	mean_coverage	std_coverage
1	1:249250621	327404251	15.78	57.14
2	249250622:492449994	248774311	64.23	68.58
3	492449995:690472424	194283203	67.35	68.06
4	690472425:881626700	123573888	63.06	65.7
5	881626701:1062541960	142825985	57.98	64.05
6	1062541961:1233657027	165168754	64.69	61.45
7	1233657028:1392795690	154787148	60.07	116.47
8	1392795691:1539159712	102255437	58.45	120.2
9	1539159713:1680373143	127387106	12.83	40.13
10	1680373144:1815907890	123011802	58.67	63.1
11	1815907891:1950914406	191862404	65.24	74.31
12	1950914407:2084766301	173003662	65.44	66
13	2084766302:2199936179	51580522	2.93	17.64
14	2199936180:2307285719	103147553	5.3	26.17
15	2307285720:2409817111	116449635	5.56	47.93
16	2409817112:2500171864	118078711	52.33	70.68
17	2500171865:2581367074	173050706	58.84	63.5
18	2581367075:2659444322	46396600	61.08	60.21
19	2659444323:2718573305	178923549	56.7	70.08
20	2718573306:2781598825	72565807	58.22	59.58
21	2781598826:2829728720	30175477	10.77	34.46
22	2829728721:2881033286	60190652	6.28	26.86
X	2881033287:3036303846	72851965	38.29	42.62
Y	3036303847:3095677412	2110138	0.08	2.54
MT	3095677413:3095693981	0	0	0
GL000207.1	3095693982:3095698243	0	0	0
GL000226.1	3095698244:3095713251	0	0	0
GL000229.1	3095713252:3095733164	0	0	0
GL000231.1	3095733165:3095760550	0	0	0
GL000210.1	3095760551:3095788232	0	0	0
GL000239.1	3095788233:3095822056	0	0	0
GL000235.1	3095822057:3095856530	0	0	0
GL000201.1	3095856531:3095892678	0	0	0
GL000247.1	3095892679:3095929100	0	0	0
GL000245.1	3095929101:3095965751	0	0	0
GL000197.1	3095965752:3096002926	0	0	0
GL000203.1	3096002927:3096040424	0	0	0
GL000246.1	3096040425:3096078578	0	0	0
GL000249.1	3096078579:3096117080	0	0	0
GL000196.1	3096117081:3096155994	0	0	0
GL000248.1	3096155995:3096195780	0	0	0
GL000244.1	3096195781:3096235709	0	0	0
GL000238.1	3096235710:3096275648	0	0	0
GL000202.1	3096275649:3096315751	0	0	0
GL000234.1	3096315752:3096356282	0	0	0
GL000232.1	3096356283:3096396934	0	0	0
GL000206.1	3096396935:3096437935	0	0	0
GL000240.1	3096437936:3096479868	0	0	0
GL000236.1	3096479869:3096521802	0	0	0
GL000241.1	3096521803:3096563954	0	0	0
GL000243.1	3096563955:3096607295	0	0	0
GL000242.1	3096607296:3096650818	0	0	0
GL000230.1	3096650819:3096694509	0	0	0
GL000237.1	3096694510:3096740376	0	0	0
GL000233.1	3096740377:3096786317	0	0	0
GL000204.1	3096786318:3096867627	0	0	0
GL000198.1	3096867628:3096957712	0	0	0
GL000208.1	3096957713:3097050401	0	0	0
GL000191.1	3097050402:3097156834	0	0	0
GL000227.1	3097156835:3097285208	0	0	0
GL000228.1	3097285209:3097414328	0	0	0
GL000214.1	3097414329:3097552046	0	0	0
GL000221.1	3097552047:3097707443	0	0	0
GL000209.1	3097707444:3097866612	0	0	0
GL000218.1	3097866613:3098027759	0	0	0
GL000220.1	3098027760:3098189561	0	0	0
GL000213.1	3098189562:3098353800	0	0	0
GL000211.1	3098353801:3098520366	0	0	0
GL000199.1	3098520367:3098690240	0	0	0
GL000217.1	3098690241:3098862389	0	0	0
GL000216.1	3098862390:3099034683	0	0	0
GL000215.1	3099034684:3099207228	0	0	0
GL000205.1	3099207229:3099381816	0	0	0
GL000219.1	3099381817:3099561014	0	0	0
GL000224.1	3099561015:3099740707	0	0	0
GL000223.1	3099740708:3099921162	0	0	0
GL000195.1	3099921163:3100104058	0	0	0
GL000212.1	3100104059:3100290916	0	0	0
GL000222.1	3100290917:3100477777	0	0	0
GL000200.1	3100477778:3100664812	0	0	0
GL000193.1	3100664813:3100854601	0	0	0
GL000194.1	3100854602:3101046070	0	0	0
GL000225.1	3101046071:3101257243	0	0	0
GL000192.1	3101257244:3101804739	0	0	0
