#name	absolute_pos	mapped_bases	mean_coverage	std_coverage
1	1:249250621	171291113	0.7	8.05
2	249250622:492449994	138339482	0.58	5.32
3	492449995:690472424	110072488	0.56	5.14
4	690472425:881626700	80908663	0.43	4.27
5	881626701:1062541960	86924624	0.49	4.72
6	1062541961:1233657027	94920460	0.56	5.33
7	1233657028:1392795690	91437842	0.58	5.55
8	1392795691:1539159712	69395899	0.48	10.71
9	1539159713:1680373143	74277479	0.53	5.56
10	1680373144:1815907890	77898234	0.58	5.3
11	1815907891:1950914406	91981843	0.7	6.32
12	1950914407:2084766301	94261876	0.72	6.14
13	2084766302:2199936179	40634968	0.36	3.67
14	2199936180:2307285719	56984152	0.54	5.6
15	2307285720:2409817111	63793283	0.63	6.58
16	2409817112:2500171864	61238242	0.7	7.54
17	2500171865:2581367074	82842624	1.06	8.13
18	2581367075:2659444322	32442803	0.42	3.89
19	2659444323:2718573305	72488933	1.3	8.91
20	2718573306:2781598825	41574175	0.67	5.79
21	2781598826:2829728720	19908901	0.42	4.64
22	2829728721:2881033286	32636296	0.65	5.79
X	2881033287:3036303846	54260432	0.35	3.25
Y	3036303847:3095677412	7889137	0.13	4.42
MT	3095677413:3095693981	61393	3.71	3.73
GL000207.1	3095693982:3095698243	710	0.17	0.42
GL000226.1	3095698244:3095713251	1320	0.09	0.55
GL000229.1	3095713252:3095733164	242133	12.16	53.66
GL000231.1	3095733165:3095760550	41536	1.52	7.84
GL000210.1	3095760551:3095788232	4821	0.17	0.53
GL000239.1	3095788233:3095822056	527	0.02	0.18
GL000235.1	3095822057:3095856530	35943	1.04	10.84
GL000201.1	3095856531:3095892678	783	0.02	0.3
GL000247.1	3095892679:3095929100	277	0.01	0.09
GL000245.1	3095929101:3095965751	481	0.01	0.14
GL000197.1	3095965752:3096002926	4873	0.13	0.58
GL000203.1	3096002927:3096040424	4179	0.11	0.44
GL000246.1	3096040425:3096078578	11958	0.31	2.28
GL000249.1	3096078579:3096117080	134	0	0.07
GL000196.1	3096117081:3096155994	8008	0.21	0.8
GL000248.1	3096155995:3096195780	753	0.02	0.19
GL000244.1	3096195781:3096235709	2691	0.07	0.43
GL000238.1	3096235710:3096275648	35284	0.88	3.36
GL000202.1	3096275649:3096315751	11638	0.29	1.54
GL000234.1	3096315752:3096356282	30565	0.75	3.48
GL000232.1	3096356283:3096396934	13024	0.32	1.92
GL000206.1	3096396935:3096437935	412	0.01	0.11
GL000240.1	3096437936:3096479868	8383	0.2	1.45
GL000236.1	3096479869:3096521802	3109	0.07	1.11
GL000241.1	3096521803:3096563954	191758	4.55	23.1
GL000243.1	3096563955:3096607295	1464	0.03	0.36
GL000242.1	3096607296:3096650818	3902	0.09	1.09
GL000230.1	3096650819:3096694509	31711	0.73	3.88
GL000237.1	3096694510:3096740376	28107	0.61	4.67
GL000233.1	3096740377:3096786317	7302	0.16	0.53
GL000204.1	3096786318:3096867627	18403	0.23	0.77
GL000198.1	3096867628:3096957712	6914	0.08	0.43
GL000208.1	3096957713:3097050401	10654	0.11	0.4
GL000191.1	3097050402:3097156834	10819	0.1	1.7
GL000227.1	3097156835:3097285208	1569	0.01	0.15
GL000228.1	3097285209:3097414328	17187	0.13	2.04
GL000214.1	3097414329:3097552046	549156	3.99	27.72
GL000221.1	3097552047:3097707443	46185	0.3	6.18
GL000209.1	3097707444:3097866612	539205	3.39	17.99
GL000218.1	3097866613:3098027759	108426	0.67	6.17
GL000220.1	3098027760:3098189561	5000260	30.9	284.25
GL000213.1	3098189562:3098353800	26241	0.16	1.38
GL000211.1	3098353801:3098520366	487586	2.93	21.43
GL000199.1	3098520367:3098690240	36081	0.21	2.3
GL000217.1	3098690241:3098862389	23843	0.14	1
GL000216.1	3098862390:3099034683	198392	1.15	11.05
GL000215.1	3099034684:3099207228	11614	0.07	1.13
GL000205.1	3099207229:3099381816	266547	1.53	15.18
GL000219.1	3099381817:3099561014	205801	1.15	10.28
GL000224.1	3099561015:3099740707	92786	0.52	3.82
GL000223.1	3099740708:3099921162	57722	0.32	2.08
GL000195.1	3099921163:3100104058	243160	1.33	12.95
GL000212.1	3100104059:3100290916	903978	4.84	36.67
GL000222.1	3100290917:3100477777	207233	1.11	20.97
GL000200.1	3100477778:3100664812	225	0	0.08
GL000193.1	3100664813:3100854601	164787	0.87	9.55
GL000194.1	3100854602:3101046070	87158	0.46	4.4
GL000225.1	3101046071:3101257243	2008990	9.51	66.55
GL000192.1	3101257244:3101804739	299110	0.55	5.2
