# Position (bp)	A	C	G	T	N
0.0	25.21015517664714	27.114238210444075	23.81885263374276	23.338392840123987	0.5183611390420387
1.0	23.57283657789641	24.812670403847903	25.00820476529398	26.60448489492408	0.0018033580376258579
2.0	25.649455249721676	25.47073065131692	23.290756443960856	25.562495372793926	0.026562282206625883
3.0	25.93876525667873	25.434845367699822	23.19835772139598	25.426544782954558	0.0014868712709086135
4.0	25.375395178169974	24.927259164488294	24.36949850565327	25.316361148187273	0.011486003501186235
5.0	25.20831688175864	24.863478860559272	24.453323313992534	25.473947924260397	9.330194291534354E-4
6.0	25.50637754230454	24.75485608098239	24.450687636860618	25.286930961545885	0.0011477783065687085
7.0	24.98355989966753	25.183451091928156	23.78312970372677	26.04771582612114	0.002143478556403157
8.0	24.67432150195166	25.059631809776654	23.69496347788952	26.570960931404112	1.222789780498445E-4
9.0	24.98307078375533	24.89593313990991	23.85507187255201	26.265529622878788	3.945809039591621E-4
10.0	25.0373801184349	24.974254366682494	23.830416731381188	26.15792103953161	2.7743969809628588E-5
11.0	24.976398872793336	24.976493407801573	23.80778587245203	26.23931979184419	2.0551088747873025E-6
12.0	25.040688843723302	24.90880120412939	23.794584880594837	26.24269428061659	0.013230790935880653
13.0	24.934319491027626	24.892048984136565	23.804989896827884	26.368559423652936	8.220435499149211E-5
14.0	24.969247093909072	24.88034411154021	23.749722881412666	26.400583157694307	1.0275544373936513E-4
15.0	24.969066244328094	24.904257358407236	23.73042540907841	26.395674530146877	5.764580393778384E-4
16.0	24.875709841027565	24.87965873273047	23.81305311649811	26.431290594501384	2.8771524247022236E-4
17.0	24.84099802457797	24.885889822838823	23.830713694613596	26.44205011701533	3.483409542764478E-4
18.0	24.803350485100744	24.901747042916682	23.829385066726044	26.465218386915247	2.990183412815525E-4
19.0	24.815421167076806	24.805866965917918	23.816481038101255	26.562210277815268	2.0551088747873027E-5
20.0	24.83152089000189	24.805577195566574	23.841366351466057	26.52141020132412	1.2536164136202547E-4
21.0	24.79818291383509	24.84757129031398	23.895056070819873	26.45918150459556	8.22043549914921E-6
22.0	24.737691811660163	24.79651416542876	23.92531138367449	26.538496376509098	0.001986262727481928
23.0	24.736231656804627	24.796942655629156	23.968343308403664	26.498304612244883	1.7776691766910167E-4
24.0	24.731364131434695	24.783869080522198	23.960547252887157	26.52421953515595	0.0
25.0	24.78896575053167	24.766869219909957	23.974477808394905	26.46968722116347	0.0
26.0	25.067271677018677	24.58907250316217	24.09872044297461	26.244755554818	1.79822026543889E-4
27.0	24.849563718368085	24.563594290886996	24.221345706869855	26.363698063609625	0.0017982202654388897
28.0	24.422278839329994	24.944107974598236	23.936601124278138	26.69701206179363	0.0
29.0	24.5776748693426	24.903975808491392	24.005188327865287	26.51309317570785	6.781859286798099E-5
30.0	24.433106180436813	24.948119547121824	23.954532976765094	26.664072776748537	1.685189277325588E-4
31.0	24.464753829554102	24.163582761726207	24.375348373065354	26.99596361203675	3.5142361758862874E-4
32.0	24.63349265393626	23.989757542878948	24.72087588329222	26.64343434587349	0.012439574019087544
33.0	24.5676531309147	25.49189416250948	24.123994171916742	25.81491617544855	0.0015423592105278704
34.0	23.078629133459746	24.39173067346072	25.65712594359682	26.87205596020364	4.5828927907756847E-4
35.0	24.864144757884052	24.558301331564337	24.02285829295834	26.5545256778973	1.6993969597529787E-4
36.0	24.92071989927896	24.560824566615448	23.99138435296135	26.526960350907743	1.1083023650562904E-4
37.0	24.816238388154492	24.56692761830569	23.973492658448126	26.61945557195412	0.023885763137571486
38.0	24.782884028478126	24.602860628151426	24.114481649477543	26.499753375016216	2.0318876692698656E-5
39.0	24.734755998275556	24.66124230240137	24.08136926915088	26.522599181101242	3.324907095168871E-5
40.0	24.740644778175223	24.706595882350083	23.932507636988344	26.61950175121933	7.499512670214232E-4
41.0	24.792417275988218	24.693815308910377	24.14382395459241	26.36975874344816	1.8471706084271508E-4
42.0	24.25834853231489	24.90156474006957	24.12716986438683	26.709270548447673	0.0036463147810351956
43.0	23.66797063981427	25.40679545620413	23.821428032450576	27.10190882731617	0.0018970442148546836
44.0	23.711059588597053	25.526283381351455	24.012905737720132	26.748314193598	0.0014370987333563233
45.0	23.722380897256105	25.24502210148869	24.197707768410837	26.815281516835913	0.019607716008454203
46.0	23.862498023758345	24.40169636021127	24.325289995164294	27.408149395316695	0.00236622554939518
47.0	23.811621403690435	24.87658175759059	23.872190127940762	27.415567632480137	0.02403907829807094
48.0	26.031648940940432	25.38996588479075	23.794285707530346	24.783089064415663	0.0010104023228096515
49.0	22.623177694616924	25.257372284176633	24.952275114782722	26.10425382887527	1.062921077548452
50.0	NaN	NaN	NaN	NaN	NaN
