#Position (bp)	insert size
3877256.5	155.86023963104716
1.16317685E7	156.87098213985328
1.93862805E7	156.68735665885265
2.71407925E7	156.57405797747165
3.48953045E7	156.85190316009496
4.26498165E7	156.54737265232117
5.04043285E7	156.51553703321463
5.81588405E7	156.3626025011709
6.59133525E7	156.48855443925962
7.36678645E7	156.2360519623541
8.14223765E7	155.6671093231262
8.91768885E7	156.3213460112205
9.69314005E7	156.59097202772375
1.046859125E8	155.5517701488161
1.124404245E8	156.74979068404454
1.201949365E8	157.3854027567164
1.279494485E8	NaN
1.357039605E8	NaN
1.434584725E8	156.46577839997443
1.512129845E8	157.90625980132083
1.589674965E8	156.47065853493496
1.667220085E8	156.57614907021218
1.744765205E8	156.86277963362585
1.822310325E8	156.91582516494347
1.899855445E8	156.34363393002977
1.977400565E8	156.37581866469966
2.054945685E8	156.5478058325526
2.132490805E8	156.6929863387831
2.210035925E8	156.87264277897987
2.287581045E8	156.8844536343025
2.365126165E8	156.70331526516358
2.442671285E8	155.96823780533816
2.48697503E8	155.54372266657438
2.52574759E8	155.70779105244776
2.597761525E8	156.58157835601725
2.675306645E8	156.5292500046355
2.752851765E8	156.40248986012446
2.830396885E8	156.91103282258442
2.907942005E8	156.75832120522742
2.985487125E8	157.12341940662677
3.063032245E8	156.5756915337355
3.140577365E8	156.6832119900907
3.218122485E8	156.7966829921563
3.295667605E8	156.24736223035939
3.373212725E8	156.7563422784293
3.450757845E8	157.24140761095845
3.528302965E8	156.39333610610473
3.605848085E8	156.51708037498992
3.683393205E8	156.39267781594577
3.760938325E8	156.31553507294424
3.838483445E8	155.90658810576724
3.916028565E8	156.07158057992342
3.993573685E8	157.70096490224861
4.071118805E8	157.1433451710788
4.148663925E8	156.95023063203428
4.226209045E8	156.7277959926341
4.303754165E8	156.2567151113866
4.381299285E8	156.33624942721457
4.458844405E8	156.61564980931294
4.536389525E8	156.90589909970655
4.613934645E8	156.655565879706
4.691479765E8	156.25452055956478
4.769024885E8	156.57200495785017
4.846570005E8	156.28640475415014
4.904921255E8	156.11435618254652
4.943693815E8	157.177521985005
5.001660245E8	156.8326802454336
5.079205365E8	156.68346658448684
5.156750485E8	156.23425202448578
5.234295605E8	156.42042178916645
5.311840725E8	156.57149311154038
5.389385845E8	156.53586396434466
5.466930965E8	156.63698017315212
5.544476085E8	156.95952224722868
5.622021205E8	156.94022306420365
5.699566325E8	155.39213029229336
5.777111445E8	155.10757072785742
5.854656565E8	155.09396871503995
5.932201685E8	156.5718983070525
6.009746805E8	157.0271951935784
6.087291925E8	156.80886844922713
6.164837045E8	156.9754436568677
6.242382165E8	156.69658663999226
6.319927285E8	156.42337961035483
6.397472405E8	156.49157263963767
6.475017525E8	156.32175139728778
6.552562645E8	154.3258879953649
6.630107765E8	156.15380229075018
6.707652885E8	155.70617309447684
6.785198005E8	156.39957780803687
6.862743125E8	158.0623976351762
6.903119965E8	155.28077078420387
6.941892525E8	156.5556855768807
7.017833365E8	156.0511686193169
7.095378485E8	156.00182380596274
7.172923605E8	156.16526130556784
7.250468725E8	155.50223929435197
7.328013845E8	156.57388499540087
7.405558965E8	157.5488480418503
7.483104085E8	156.38686119712756
7.560649205E8	156.27099130860728
7.638194325E8	156.7649489726569
7.715739445E8	155.20136193967323
7.793284565E8	156.81432422286903
7.870829685E8	156.57616835756838
7.948374805E8	156.36133809263546
8.025919925E8	156.3195084974977
8.103465045E8	156.61805396557213
8.181010165E8	156.28330097047814
8.258555285E8	154.64488173825524
8.336100405E8	156.53576166850127
8.413645525E8	156.7543422885736
8.491190645E8	157.24464150446266
8.568735765E8	156.257102406935
8.646280885E8	156.43760419856417
8.723826005E8	156.73558110123872
8.789432785E8	156.42040714570632
8.828205345E8	157.71266617429836
8.878916245E8	156.5915370668301
8.956461365E8	156.79183813050966
9.034006485E8	158.13597889266867
9.111551605E8	155.9098349744012
9.189096725E8	156.78499668587338
9.266641845E8	155.61342439952224
9.344186965E8	156.13829613067128
9.421732085E8	156.22197647380887
9.499277205E8	157.1898807031665
9.576822325E8	156.4785402297642
9.654367445E8	156.11388738942748
9.731912565E8	157.01084431476758
9.809457685E8	156.90413779443534
9.887002805E8	155.7574824102185
9.964547925E8	156.3768964133562
1.0042093045E9	156.21630513039304
1.0119638165E9	156.18377883860086
1.0197183285E9	156.47936564600357
1.0274728405E9	156.90059527611018
1.0352273525E9	156.57341233283424
1.0429818645E9	156.3481615488756
1.0507363765E9	155.47621494391106
1.0584908885E9	156.07277560226655
1.0624550525E9	NaN
1.0663323085E9	156.30204548342016
1.0739999125E9	156.43573630368167
1.0817544245E9	156.55654887570677
1.0895089365E9	156.18897349321898
1.0972634485E9	156.66798092976495
1.1050179605E9	156.41051731808196
1.1127724725E9	156.85448708614695
1.1205269845E9	165.2858729474208
1.1282814965E9	155.37597686560972
1.1360360085E9	156.28478043336358
1.1437905205E9	155.88757037608983
1.1515450325E9	156.61311182549002
1.1592995445E9	155.68760709271604
1.1670540565E9	156.53888120176168
1.1748085685E9	156.32239689625322
1.1825630805E9	156.95463532752365
1.1903175925E9	156.181101876338
1.1980721045E9	156.638545102306
1.2058266165E9	156.40109385842518
1.2135811285E9	156.72635180694084
1.2213356405E9	158.7960484189961
1.2290901525E9	156.16443643387348
1.233312218E9	156.74328635667095
1.237189474E9	155.57726011899564
1.2445991765E9	155.8490443090109
1.2523536885E9	157.0101701047765
1.2601082005E9	156.82721593841103
1.2678627125E9	156.25434977937482
1.2756172245E9	156.71430136684128
1.2833717365E9	157.2644656228727
1.2911262485E9	155.76313066527703
1.2988807605E9	155.49095358317368
1.3066352725E9	155.99370400975877
1.3143897845E9	156.52754845588225
1.3221442965E9	156.94302735907806
1.3298988085E9	156.9496334037589
1.3376533205E9	161.91316913312772
1.3454078325E9	156.4130152947686
1.3531623445E9	156.6840790155472
1.3609168565E9	156.5330463921322
1.3686713685E9	156.50246402953832
1.3764258805E9	156.48433679866707
1.3841803925E9	155.9180631599993
1.3904266695E9	157.5948949224415
1.3943039255E9	157.40816948261417
1.3996894165E9	157.90605033881897
1.4074439285E9	174.90156260706183
1.4151984405E9	156.4232306275461
1.4229529525E9	156.6581232278307
1.4307074645E9	156.64780854458323
1.4384619765E9	156.71307497692874
1.4462164885E9	155.50968692925224
1.4539710005E9	156.20881200700703
1.4617255125E9	156.41189493011268
1.4694800245E9	156.1568613455746
1.4772345365E9	156.0186711442101
1.4849890485E9	156.40729459428968
1.4927435605E9	156.66879752236488
1.5004980725E9	156.8650770826366
1.5082525845E9	156.55863804589194
1.5160070965E9	156.76292884455972
1.5237616085E9	156.34716585032717
1.5315161205E9	156.306094744726
1.5372765445E9	154.79631203148477
1.5411538005E9	156.3078269756886
1.5470251445E9	156.70683863025673
1.5547796565E9	156.46428266836543
1.5625341685E9	157.4136094533057
1.5702886805E9	155.96942210834436
1.5780431925E9	156.07398746465918
1.5857977045E9	154.04102616937976
1.5935522165E9	NaN
1.6013067285E9	163.89958158995816
1.6090612405E9	156.26534450961026
1.6168157525E9	156.60645329936415
1.6245702645E9	156.17830443270273
1.6323247765E9	155.54019552182672
1.6400792885E9	156.54726466981793
1.6478338005E9	156.29122742680133
1.6555883125E9	156.74040742103406
1.6633428245E9	156.61012801302425
1.6710973365E9	156.3821409135586
1.677673868E9	158.2235738607117
1.681551124E9	157.15261588668992
1.6866063605E9	156.8678190093524
1.6943608725E9	156.0098883623671
1.7021153845E9	156.594261450303
1.7098698965E9	156.0809485094851
1.7176244085E9	156.72346635651795
1.7253789205E9	161.41051005906863
1.7331334325E9	156.4261380369892
1.7408879445E9	156.40369955054746
1.7486424565E9	155.77390629855327
1.7563969685E9	156.51260949998596
1.7641514805E9	156.6202584651511
1.7719059925E9	156.69165684818662
1.7796605045E9	156.9232346653417
1.7874150165E9	156.52208554998256
1.7951695285E9	156.8480933249042
1.8029240405E9	158.60678128489315
1.8106785525E9	156.60890356658678
1.8152318495E9	158.09309264026368
1.8191091055E9	155.79686249204372
1.8261875765E9	156.92219364468866
1.8339420885E9	156.46876388229018
1.8416966005E9	156.1233321577035
1.8494511125E9	157.13508098194524
1.8572056245E9	156.28388895099965
1.8649601365E9	156.40413640821654
1.8727146485E9	156.49676137354018
1.8804691605E9	155.88156115900676
1.8882236725E9	156.321614258839
1.8959781845E9	155.94981204180786
1.9037326965E9	155.87534241380214
1.9114872085E9	157.01254446800974
1.9192417205E9	157.01533615056525
1.9269962325E9	156.77544007832145
1.9347507445E9	156.5211662469798
1.9425052565E9	156.71262061273805
1.9486484595E9	163.34821162977215
1.9525257155E9	156.7119771095334
1.9580142805E9	156.49913120267053
1.9657687925E9	156.72189986936695
1.9735233045E9	156.16031121878098
1.9812778165E9	157.13914048307794
1.9890323285E9	158.29048550267157
1.9967868405E9	156.3056903300256
2.0045413525E9	156.28624964492286
2.0122958645E9	156.2070639098797
2.0200503765E9	156.8395957701848
2.0278048885E9	156.5231761438655
2.0355594005E9	158.15307599902198
2.0433139125E9	155.73687363799272
2.0510684245E9	156.82562047609068
2.0588229365E9	156.67343668799612
2.0665774485E9	156.94128547337107
2.0743319605E9	156.72959136504414
2.081487759E9	157.49823030080586
2.085365015E9	NaN
2.0898409845E9	NaN
2.0975954965E9	NaN
2.1053500085E9	155.40950895803186
2.1131045205E9	156.43342495893867
2.1208590325E9	156.711725193358
2.1286135445E9	156.53322638265442
2.1363680565E9	156.46409976895458
2.1441225685E9	155.4229755387196
2.1518770805E9	154.46440084058014
2.1596315925E9	156.01324608413353
2.1673861045E9	155.1233903161016
2.1751406165E9	154.19860224670379
2.1828951285E9	156.2020194743708
2.1906496405E9	156.5260290655004
2.197231538E9	156.13365194932675
2.201108794E9	NaN
2.2061586645E9	NaN
2.2139131765E9	NaN
2.2216676885E9	156.46931921009963
2.2294222005E9	156.17931308694335
2.2371767125E9	156.19531310099478
2.2449312245E9	154.44612855884944
2.2526857365E9	156.5230563188229
2.2604402485E9	156.56907156478425
2.2681947605E9	156.7639180335003
2.2759492725E9	156.64127320149348
2.2837037845E9	156.52677075897012
2.2914582965E9	155.87953464749285
2.2992128085E9	156.73854169514843
2.305187892E9	155.66513912834642
2.309065148E9	NaN
2.3147218325E9	NaN
2.3224763445E9	NaN
2.3302308565E9	157.73429349771894
2.3379853685E9	156.290732298298
2.3457398805E9	156.15091818344638
2.3534943925E9	156.8193290910857
2.3612489045E9	153.5041356745963
2.3690034165E9	156.94656542722922
2.3767579285E9	156.6103687330453
2.3845124405E9	156.4296117206152
2.3922669525E9	156.85837096402017
2.4000214645E9	156.34289815569272
2.406857916E9	156.40467301984697
2.410735172E9	155.34002648539754
2.4155304885E9	155.80067315889218
2.4232850005E9	156.19564257223067
2.4310395125E9	156.78223310707386
2.4387940245E9	155.8361307925778
2.4465485365E9	155.36227908451448
2.4543030485E9	155.60303188815368
2.4620575605E9	156.5824211661412
2.4698120725E9	156.61138831237395
2.4775665845E9	156.45033295448775
2.4853210965E9	156.3497372477487
2.4930756085E9	156.54081072716622
2.4985623645E9	155.90748024461655
2.5024396205E9	155.88481126721558
2.5085846325E9	156.26534106242042
2.5163391445E9	155.44993764286585
2.5240936565E9	156.99572944890238
2.5318481685E9	156.43011760049347
2.5396026805E9	156.21458343770544
2.5473571925E9	156.28897116398088
2.5551117045E9	156.65860996791244
2.5628662165E9	156.55249816162828
2.5706207285E9	156.13597277865773
2.5779325295E9	156.59226792455138
2.5818097855E9	157.3002655599384
2.5861297525E9	156.6562494566656
2.5938842645E9	156.18887619769663
2.6016387765E9	158.6444226369325
2.6093932885E9	156.29505305737953
2.6171478005E9	157.04398784685498
2.6249023125E9	156.81975458218392
2.6326568245E9	156.62465555777231
2.6404113365E9	156.52619678911674
2.6481658485E9	155.97651016499276
2.6557437135E9	155.82180704646046
2.6596209695E9	158.69816620520845
2.6636748725E9	155.50135698546873
2.6714293845E9	156.51037199629127
2.6791838965E9	155.35595597925703
2.6869384085E9	159.6860681901275
2.6946929205E9	156.1017199298113
2.7024474325E9	156.08301455059222
2.7102019445E9	156.21614719213233
2.716326253E9	156.09220987770678
2.720203509E9	156.71264272776943
2.7257109685E9	156.7020791012373
2.7334654805E9	156.99073384191436
2.7412199925E9	156.26551462972353
2.7489745045E9	156.7019552017537
2.7567290165E9	156.43122648114115
2.7644835285E9	156.60236938652494
2.7722380405E9	156.9354936219092
2.778857061E9	156.91882079843438
2.782734317E9	NaN
2.7877470645E9	158.52217098261795
2.7955015765E9	156.2209606411111
2.8032560885E9	154.85991056651082
2.8110106005E9	158.24375785592753
2.8187651125E9	156.90590784110435
2.8261855445E9	156.2266842894839
2.8300628005E9	NaN
2.8342741365E9	NaN
2.8420286485E9	145.53783469150176
2.8497831605E9	156.27148369598234
2.8575376725E9	156.09784554258601
2.8652921845E9	156.56677721717472
2.8730466965E9	156.12282556685756
2.8789786195E9	155.6934366082348
2.8828558755E9	156.870151221356
2.8885557205E9	155.99194565313914
2.8963102325E9	157.46508506621947
2.9040647445E9	156.722240131475
2.9118192565E9	156.26422647351544
2.9195737685E9	155.99928973989824
2.9273282805E9	155.92481895669619
2.9350827925E9	156.02206588294794
2.9428373045E9	155.57767962854288
2.9505918165E9	155.92120736637375
2.9583463285E9	155.73388799242326
2.9661008405E9	155.41490044388453
2.9738553525E9	154.40832704575072
2.9816098645E9	156.2135582964505
2.9893643765E9	157.3954650881097
2.9971188885E9	156.35133477504777
3.0048734005E9	156.23463214241255
3.0126279125E9	156.65507302195593
3.0203824245E9	155.55895022913126
3.0281369365E9	156.6725612164515
3.0341590195E9	156.54772076064486
3.0380362755E9	NaN
3.0436459605E9	151.3021312160468
3.0514004725E9	223.37688162051663
3.0591549845E9	153.8563072227874
3.0669094965E9	243.96296296296296
3.0746640085E9	NaN
3.0824185205E9	NaN
3.0901730325E9	NaN
3.0948638505E9	718.0909090909091
3.095685697E9	153.80189057832078
3.0956961125E9	NaN
3.0957057475E9	56.0
3.095723208E9	152.40370620451648
3.0957468575E9	153.6664372957165
3.0957743915E9	153.23529411764707
3.0958051445E9	NaN
3.0958392935E9	145.91549295774647
3.0958746045E9	NaN
3.0959108895E9	NaN
3.095947426E9	NaN
3.095984339E9	NaN
3.0960216755E9	NaN
3.0960595015E9	NaN
3.0960978295E9	NaN
3.0961365375E9	NaN
3.0961758875E9	146.8148148148148
3.096215745E9	NaN
3.096255679E9	152.88476150274377
3.0962957E9	142.29268292682926
3.096336017E9	154.23096264367817
3.0963766085E9	152.4279210925645
3.096417435E9	NaN
3.096458902E9	190.58823529411765
3.0965008355E9	NaN
3.0965428785E9	154.30627712242529
3.096585625E9	NaN
3.096629057E9	155.0
3.096672664E9	154.88597210828547
3.096717443E9	144.2373550456452
3.096763347E9	NaN
3.0968269725E9	152.06188925081435
3.09691267E9	172.6551724137931
3.097004057E9	150.98507462686567
3.097103618E9	148.0
3.0972210215E9	NaN
3.0973497685E9	NaN
3.0974831875E9	153.8921506982106
3.097629745E9	167.0
3.097787028E9	154.6578477309793
3.097947186E9	150.40899725274724
3.0981086605E9	153.62385563904468
3.098271681E9	162.0
3.0984370835E9	153.75670979215596
3.0986053035E9	211.4622093023256
3.098776315E9	105.0
3.0989485365E9	213.1754102771052
3.099120956E9	157.7058823529412
3.0992945225E9	153.14509978705493
3.0994714155E9	154.8339870935088
3.099650861E9	152.43362635739086
3.099830935E9	159.5
3.1000126105E9	153.80023843230757
3.1001974875E9	164.50388705161336
3.100384347E9	143.27899686520377
3.100571295E9	NaN
3.100759707E9	152.9262941748622
3.100950336E9	147.67519786206188
3.101151657E9	153.6265613519471
3.1015309915E9	161.69820479941382
