# Position (bp)	A	C	G	T	N
0.0	28.036482914374282	24.937232925123826	22.459818220162862	24.031433701957237	0.535032238381795
1.0	25.870665631980806	22.697491569289486	23.941719066407586	27.48856351340007	0.0015602189220566226
2.0	27.99558142725223	23.289441085355442	22.247747203583998	26.444670582911712	0.022559700896613997
3.0	28.308047003130675	23.159652165366825	22.161001488555325	26.370173200680597	0.0011261422665763024
4.0	27.768624857440628	22.67169676879071	23.306619873749217	26.24480285343975	0.008255646579701183
5.0	27.572663817867987	22.566773070048097	23.364876236964903	26.495019379884642	6.67495234370681E-4
6.0	27.871308556838446	22.56791968762861	23.310252194441773	26.24964731271742	8.722483737481905E-4
7.0	27.336505641972757	22.916298964153867	22.660386205371495	27.084986885561424	0.0018223029404598346
8.0	27.035313773948438	22.758106688670804	22.62767893888733	27.57879412686095	1.0647163247630495E-4
9.0	27.34080955296247	22.685787879842668	22.67374839524727	27.299338852112946	3.1531983464136464E-4
10.0	27.39603966477816	22.678343055694903	22.715497560366344	27.210078768532718	4.09506278755019E-5
11.0	27.311529854031484	22.753630785044013	22.636225334924948	27.29858536056004	2.8665439512851333E-5
12.0	27.356133277913486	22.664735162051873	22.657138820580965	27.31279932349563	0.009193415958050177
13.0	27.247573163415527	22.611470680374207	22.656053628942267	27.484841101326186	6.142594181325285E-5
14.0	27.32018681676437	22.60641737289437	22.541305874572323	27.53199165426204	9.828150690120457E-5
15.0	27.292790846715658	22.577678222251343	22.512976230208047	27.616022342662568	5.323581623815247E-4
16.0	27.175905469570612	22.665242949837527	22.564483929949855	27.59410966168639	2.5798895561566197E-4
17.0	27.133972026626097	22.65542298927298	22.605020956483816	27.605244137405737	3.398902113666658E-4
18.0	27.073942501223403	22.609894081201002	22.620238209802352	27.69569178919436	2.3341857889036085E-4
19.0	27.06361065781041	22.59332545716257	22.51775107341833	27.825259575792444	5.3235816238152475E-5
20.0	27.078619062926784	22.615893348184763	22.55692444404404	27.74849352877703	6.961606738835323E-5
21.0	26.99729930609161	22.688871462121693	22.57352173352198	27.740299308139143	8.19012557510038E-6
22.0	26.953785168911104	22.61661407923537	22.656536846351198	27.771475021140763	0.0015888843615694738
23.0	26.94423138742775	22.577784693883817	22.678887699045646	27.79895289244522	1.4332719756425665E-4
24.0	26.928125505484314	22.569197347218324	22.602637629941462	27.9000395173559	0.0
25.0	26.964514233414484	22.566949157747963	22.60130263947272	27.867229874302048	4.09506278755019E-6
26.0	27.189054716181438	22.481292729420773	22.689989414262694	27.639573048753768	9.009138132610419E-5
27.0	26.95818736140772	22.456951676211574	22.81987661575821	27.76369440184442	0.00128994477807831
28.0	26.560847514194514	22.778692569303818	22.613112800552017	28.047318450510144	2.8665439512851333E-5
29.0	26.69910911909057	22.78724715546701	22.59577020964674	27.917775234288776	9.828150690120457E-5
30.0	26.530617760696817	22.79203018880287	22.563767293962034	28.113425049089564	1.5970744871445742E-4
31.0	26.56097855620371	22.1519636849832	22.92187643967051	28.36488647462187	2.948445207036137E-4
32.0	26.693376031188	22.01602807575047	23.23551729856898	28.041220902019482	0.013857692473069843
33.0	26.66430518045918	23.286406643829867	22.804405468546847	27.24318735117006	0.0016953559940457786
34.0	25.15453333688239	22.247517880067896	24.118576638076302	28.479015874510893	3.5627046251686655E-4
35.0	26.92335679936424	22.556105835709058	22.60742630860424	27.912903604162125	2.0745216033498737E-4
36.0	26.934886352121318	22.65955265335303	22.53509731501052	27.870351974505724	1.1170500941114705E-4
37.0	26.781387711331917	22.68043351118367	22.647632133063006	27.87034399557648	0.02020264884493031
38.0	26.854043841024623	22.554366429133943	22.73995632334132	27.85160149078314	3.1915716974613437E-5
39.0	26.742163295170112	22.704497961782526	22.614160524885882	27.93912236565677	5.5852504705573524E-5
40.0	26.73495034313385	22.70435434105614	22.601019228421585	27.95898192054423	6.941668441978423E-4
41.0	26.68549693968169	22.82126959126339	22.708862436078803	27.784147622957295	2.234100188222941E-4
42.0	26.27371238034598	22.995848563114528	22.77592533637171	27.951537579559897	0.0029761406078827033
43.0	25.79390744920813	23.296678132387992	22.63334984971687	28.274396972475085	0.0016675962119235524
44.0	25.879090497813372	23.45351196560124	22.615038207102682	28.051058764015984	0.0013005654667154977
45.0	25.808788152247548	23.306141142470963	22.77535883239541	28.091607682432233	0.018104190453849475
46.0	25.97847604047232	22.719610053770005	22.866398415065493	28.433648421249163	0.0018670694430148863
47.0	25.793604249896873	23.121931603022738	22.634873825202405	28.42750464573155	0.0220856761464325
48.0	27.747037623045063	23.309252924875988	22.512070125213338	26.43080153929503	8.377875705836027E-4
49.0	24.8016478084674	22.92435735709139	23.497587570743182	27.7931957287196	0.983211534978429
50.0	NaN	NaN	NaN	NaN	NaN
