#Insert size (bp)	insert size
1.0	51.0
2.0	52.0
3.0	62.0
4.0	56.0
5.0	50.0
6.0	57.0
7.0	50.0
8.0	50.0
9.0	48.0
10.0	37.0
11.0	39.0
12.0	33.0
13.0	27.0
14.0	38.0
15.0	34.0
16.0	37.0
17.0	27.0
18.0	31.0
19.0	37.0
20.0	69.0
21.0	135.0
22.0	439.0
23.0	465.0
24.0	534.0
25.0	626.0
26.0	678.0
27.0	759.0
28.0	869.0
29.0	924.0
30.0	898.0
31.0	1013.0
32.0	992.0
33.0	1228.0
34.0	1161.0
35.0	1184.0
36.0	1130.0
37.0	1253.0
38.0	1199.0
39.0	1333.0
40.0	1271.0
41.0	1222.0
42.0	1276.0
43.0	1173.0
44.0	1338.0
45.0	1348.0
46.0	1361.0
47.0	1294.0
48.0	1442.0
49.0	1274.0
50.0	1397.0
51.0	1388.0
52.0	1445.0
53.0	1371.0
54.0	1356.0
55.0	1347.0
56.0	1432.0
57.0	1726.0
58.0	1684.0
59.0	1655.0
60.0	1710.0
61.0	1534.0
62.0	1700.0
63.0	1893.0
64.0	2034.0
65.0	1947.0
66.0	2202.0
67.0	2571.0
68.0	2275.0
69.0	2665.0
70.0	2720.0
71.0	2793.0
72.0	2960.0
73.0	3162.0
74.0	3828.0
75.0	3581.0
76.0	3758.0
77.0	3948.0
78.0	4326.0
79.0	4534.0
80.0	4684.0
81.0	4798.0
82.0	5335.0
83.0	5464.0
84.0	5848.0
85.0	5793.0
86.0	6650.0
87.0	6579.0
88.0	7213.0
89.0	7347.0
90.0	7828.0
91.0	8200.0
92.0	8737.0
93.0	8901.0
94.0	9138.0
95.0	9621.0
96.0	10216.0
97.0	11129.0
98.0	11105.0
99.0	11479.0
100.0	12082.0
101.0	12706.0
102.0	13322.0
103.0	13373.0
104.0	14213.0
105.0	14615.0
106.0	15535.0
107.0	16319.0
108.0	16819.0
109.0	17552.0
110.0	17880.0
111.0	18640.0
112.0	19612.0
113.0	20130.0
114.0	21174.0
115.0	21674.0
116.0	23144.0
117.0	23413.0
118.0	24754.0
119.0	25513.0
120.0	26931.0
121.0	27736.0
122.0	28846.0
123.0	29491.0
124.0	30753.0
125.0	32319.0
126.0	34564.0
127.0	36294.0
128.0	37958.0
129.0	39880.0
130.0	41872.0
131.0	43817.0
132.0	45989.0
133.0	48686.0
134.0	50698.0
135.0	53274.0
136.0	55704.0
137.0	58284.0
138.0	60773.0
139.0	63008.0
140.0	66020.0
141.0	68798.0
142.0	72334.0
143.0	76526.0
144.0	80939.0
145.0	86250.0
146.0	91704.0
147.0	98604.0
148.0	105873.0
149.0	115208.0
150.0	123779.0
151.0	134416.0
152.0	146404.0
153.0	158537.0
154.0	172631.0
155.0	187806.0
156.0	203485.0
157.0	219973.0
158.0	237071.0
159.0	253914.0
160.0	269105.0
161.0	283407.0
162.0	298171.0
163.0	310237.0
164.0	324718.0
165.0	335721.0
166.0	346491.0
167.0	355278.0
168.0	358901.0
169.0	364915.0
170.0	366936.0
171.0	371560.0
172.0	371936.0
173.0	374561.0
174.0	373897.0
175.0	374085.0
176.0	373209.0
177.0	372637.0
178.0	372435.0
179.0	370177.0
180.0	370756.0
181.0	372100.0
182.0	372881.0
183.0	376578.0
184.0	381197.0
185.0	384211.0
186.0	386904.0
187.0	388253.0
188.0	389150.0
189.0	385230.0
190.0	381402.0
191.0	373995.0
192.0	365219.0
193.0	353496.0
194.0	340304.0
195.0	323078.0
196.0	304200.0
197.0	281180.0
198.0	259638.0
199.0	235230.0
200.0	211647.0
201.0	187097.0
202.0	163850.0
203.0	140763.0
204.0	120015.0
205.0	99546.0
206.0	82412.0
207.0	66500.0
208.0	52518.0
209.0	40520.0
210.0	30945.0
211.0	22950.0
212.0	17037.0
213.0	12907.0
214.0	9275.0
215.0	6852.0
216.0	5418.0
217.0	4319.0
218.0	3510.0
219.0	3234.0
220.0	2837.0
221.0	2635.0
222.0	2505.0
223.0	2552.0
224.0	2428.0
225.0	2278.0
226.0	2411.0
227.0	2350.0
228.0	2338.0
229.0	2273.0
230.0	2143.0
231.0	2133.0
232.0	2200.0
233.0	2138.0
234.0	1995.0
235.0	1991.0
236.0	1886.0
237.0	1857.0
238.0	1886.0
239.0	1766.0
240.0	1775.0
241.0	1731.0
242.0	1740.0
243.0	1683.0
244.0	1600.0
245.0	1571.0
246.0	1641.0
247.0	1630.0
248.0	1577.0
249.0	1483.0
250.0	1469.0
251.0	1471.0
252.0	1347.0
253.0	1400.0
254.0	1375.0
255.0	1325.0
256.0	1199.0
257.0	1296.0
258.0	1227.0
259.0	1326.0
260.0	1183.0
261.0	1213.0
262.0	1162.0
263.0	1175.0
264.0	1089.0
265.0	1122.0
266.0	1046.0
267.0	1031.0
268.0	1074.0
269.0	928.0
270.0	983.0
271.0	963.0
272.0	963.0
273.0	924.0
274.0	953.0
275.0	830.0
276.0	925.0
277.0	934.0
278.0	801.0
279.0	790.0
280.0	748.0
281.0	771.0
282.0	755.0
283.0	805.0
284.0	709.0
285.0	678.0
286.0	695.0
287.0	673.0
288.0	658.0
289.0	677.0
290.0	666.0
291.0	614.0
292.0	660.0
293.0	610.0
294.0	587.0
295.0	587.0
296.0	583.0
297.0	556.0
298.0	557.0
299.0	539.0
300.0	517.0
301.0	516.0
302.0	558.0
303.0	542.0
304.0	517.0
305.0	479.0
306.0	486.0
307.0	467.0
308.0	480.0
309.0	484.0
310.0	499.0
311.0	458.0
312.0	408.0
313.0	424.0
314.0	435.0
315.0	409.0
316.0	395.0
317.0	397.0
318.0	349.0
319.0	393.0
320.0	396.0
321.0	365.0
322.0	336.0
323.0	350.0
324.0	350.0
325.0	318.0
326.0	336.0
327.0	305.0
328.0	312.0
329.0	284.0
330.0	319.0
331.0	312.0
332.0	312.0
333.0	274.0
334.0	260.0
335.0	303.0
336.0	283.0
337.0	279.0
338.0	234.0
339.0	228.0
340.0	240.0
341.0	266.0
342.0	183.0
343.0	204.0
344.0	222.0
345.0	243.0
346.0	218.0
347.0	210.0
348.0	173.0
349.0	159.0
350.0	182.0
351.0	169.0
352.0	174.0
353.0	156.0
354.0	188.0
355.0	165.0
356.0	149.0
357.0	147.0
358.0	145.0
359.0	132.0
360.0	102.0
361.0	122.0
362.0	124.0
363.0	109.0
364.0	124.0
365.0	124.0
366.0	113.0
367.0	119.0
368.0	103.0
369.0	102.0
370.0	116.0
371.0	101.0
372.0	96.0
373.0	84.0
374.0	82.0
375.0	79.0
376.0	70.0
377.0	96.0
