##FastQC	0.10.0
>>Basic Statistics	pass
#Measure	Value	
Filename	exm2-sorted.rg.dedup.realigned.recal.bam	
File type	Conventional base calls	
Encoding	Sanger / Illumina 1.9	
Total Sequences	221582766	
Filtered Sequences	0	
Sequence length	35-50	
%GC	48	
>>END_MODULE
>>Per base sequence quality	warn
#Base	Mean	Median	Lower Quartile	Upper Quartile	10th Percentile	90th Percentile
1	19.157630296031236	23.0	12.0	24.0	10.0	28.0
2	21.984995168802975	24.0	18.0	26.0	15.0	27.0
3	23.005768837636047	25.0	19.0	26.0	16.0	28.0
4	23.763160813688913	25.0	20.0	27.0	16.0	28.0
5	25.0298657477721	26.0	21.0	28.0	18.0	29.0
6	24.595225212596183	26.0	21.0	28.0	18.0	29.0
7	25.1186211656912	27.0	21.0	28.0	18.0	30.0
8	25.38528044640439	27.0	21.0	29.0	18.0	30.0
9	25.731141856943875	28.0	21.0	29.0	18.0	31.0
10	26.471926178590984	28.0	22.0	30.0	19.0	31.0
11	25.92566143433736	27.0	22.0	29.0	19.0	31.0
12	26.172580560710212	28.0	22.0	30.0	19.0	31.0
13	26.34216267974559	28.0	22.0	30.0	19.0	32.0
14	26.46110841038964	28.0	22.0	31.0	19.0	32.0
15	27.64063902875912	29.0	24.0	31.0	21.0	33.0
16	26.833837790435382	28.0	23.0	30.0	20.0	32.0
17	27.011216215253853	28.0	23.0	31.0	20.0	32.0
18	27.129873678894324	28.0	23.0	31.0	20.0	33.0
19	27.33833803211934	28.0	23.0	32.0	20.0	33.0
20	28.088229235300727	29.0	24.0	32.0	21.0	34.0
21	27.47384524029274	29.0	24.0	31.0	21.0	33.0
22	27.46355724704691	28.0	23.0	31.0	20.0	33.0
23	27.509116968058787	28.0	23.0	32.0	20.0	34.0
24	27.174867706092268	28.0	23.0	32.0	20.0	33.0
25	27.901292675442097	29.0	24.0	32.0	21.0	34.0
26	26.741637718341327	28.0	23.0	31.0	19.0	33.0
27	26.43363153973807	27.0	22.0	31.0	18.0	33.0
28	25.698361762484723	26.0	21.0	31.0	17.0	33.0
29	25.96413730118343	27.0	21.0	31.0	17.0	33.0
30	26.4637961555187	27.0	22.0	31.0	19.0	34.0
31	25.0483795341737	26.0	21.0	30.0	16.0	32.0
32	24.198668270979162	24.0	19.0	30.0	15.0	33.0
33	22.832110729225214	22.0	17.0	30.0	13.0	32.0
34	23.331655197408267	23.0	18.0	30.0	13.0	32.0
35	26.169950112455947	25.0	20.0	31.0	18.0	37.0
36	25.558166502217734	27.0	20.0	31.0	15.0	33.0
37	25.50300393353326	27.0	20.0	31.0	15.0	34.0
38	24.671491561069637	26.0	18.0	31.0	13.0	34.0
39	24.594194235567358	26.0	18.0	31.0	13.0	34.0
40	24.80852082402585	26.0	18.0	31.0	14.0	34.0
41	24.08179564171833	25.0	19.0	30.0	12.0	33.0
42	24.244786868650518	25.0	18.0	31.0	13.0	33.0
43	23.287977091111532	24.0	17.0	30.0	11.0	33.0
44	23.348191061290922	24.0	17.0	30.0	11.0	33.0
45	23.455229422349692	24.0	17.0	30.0	12.0	33.0
46	22.676359292797112	23.0	17.0	29.0	11.0	32.0
47	22.893648209511305	23.0	17.0	30.0	11.0	32.0
48	21.95417754760433	22.0	16.0	29.0	10.0	32.0
49	21.42499888055222	22.0	15.0	29.0	8.0	32.0
50	35.597904610376524	41.0	21.0	50.0	17.0	50.0
>>END_MODULE
>>Per sequence quality scores	pass
#Quality	Count
0	24373.0
1	15730.0
2	8165.0
3	7910.0
4	7090.0
5	7258.0
6	19573.0
7	64463.0
8	152046.0
9	269341.0
10	381570.0
11	479556.0
12	585804.0
13	711025.0
14	866205.0
15	1080821.0
16	1557032.0
17	3453596.0
18	7164190.0
19	1.0492603E7
20	1.2613037E7
21	1.5200457E7
22	1.6642894E7
23	1.5788542E7
24	1.5200359E7
25	1.5956277E7
26	1.7474218E7
27	1.9337066E7
28	2.0530801E7
29	1.8668332E7
30	1.31771E7
31	2674338.0
32	2466290.0
33	1825759.0
34	1448344.0
35	765206.0
36	710682.0
37	531864.0
38	390176.0
39	321623.0
40	212993.0
41	154724.0
42	132544.0
43	121442.0
44	112128.0
45	104801.0
46	97504.0
47	92341.0
48	92075.0
49	92768.0
50	94340.0
51	97034.0
52	99755.0
53	102254.0
54	106377.0
55	109772.0
56	114816.0
57	120554.0
58	129404.0
59	141924.0
60	150620.0
61	30880.0
>>END_MODULE
>>Per base sequence content	pass
#Base	G	A	T	C
1	23.650784893362527	27.533098518671018	19.766642416055646	29.04947417191081
2	26.109812462267705	23.100669909669023	26.544019930140067	24.24549769792321
3	23.32423785764526	26.583127563202506	24.597055636206257	25.495578942945972
4	23.259052519743246	27.03285925863653	24.39188696528252	25.3162012563377
5	25.016350488295004	26.181082291116976	24.198074752522576	24.604492468065448
6	25.100283754415315	25.73505694653246	24.571190147242817	24.593469151809412
7	25.15975931348918	26.263863661451648	24.164704171266965	24.41167285379221
8	24.12240569761215	25.658822203485954	25.252423072953167	24.966349025948727
9	23.974534345253744	25.253260167814656	25.965865384124708	24.806340102806885
10	24.22110662119132	25.676493033149693	25.53572232783899	24.566678017819992
11	24.162278216026607	25.674418716838645	25.50796826569674	24.655334801438013
12	24.079864001021395	25.642890137730372	25.602060416918437	24.675185444329795
13	24.107851711562606	25.77042620669407	25.595393329275307	24.526328752468025
14	24.046882786853168	25.703583720531565	25.759262493099204	24.490270999516063
15	23.925791499514624	25.668464758962195	25.79363535602163	24.612108385501553
16	23.96016170517172	25.65792240230745	25.836970273578903	24.54494561894193
17	24.006324720289587	25.684645008721695	25.830821050022095	24.47820922096662
18	23.968420732446592	25.588380766871065	25.84012898135159	24.603069519330752
19	23.998893008555516	25.625855305764624	25.815925839835565	24.559325845844295
20	23.93848019648594	25.62724354152189	25.9097266937378	24.524549568254372
21	23.94542821107023	25.581082343688244	25.903655920313458	24.569833524928068
22	24.06068332050553	25.660271548474334	25.839562787287935	24.43948234373221
23	24.095433299222773	25.670670244200995	25.84857761283148	24.38531884374475
24	24.046341816514513	25.60833648922917	25.865063821374427	24.480257872881886
25	24.017227446101437	25.663296551999	25.85868889487033	24.46078710702924
26	24.058386114396935	25.647591508719092	25.874026521293313	24.419995855590656
27	24.05821776218534	25.60600649807867	25.87396693692646	24.461808802809525
28	24.10119263995273	25.64423603832938	25.820465878802544	24.434105442915342
29	24.107221640101812	25.631657688960264	25.84650342196407	24.414617248973858
30	24.05169508209393	25.579045880135244	25.870443979454226	24.498815058316605
31	24.1011713793477	25.59678699849573	25.811186009253667	24.490855612902905
32	24.160247542933774	25.595743646494736	25.809308386146952	24.434700424424545
33	24.119511022737854	25.558285919435374	25.826916331805922	24.49528672602085
34	24.17362681428022	25.575560666224174	25.765420472974508	24.485392046521092
35	24.06120184293438	25.53537143634321	25.88241112853254	24.521015592189865
36	23.636404741149068	25.323298843181735	26.146637380634253	24.89365903503494
37	23.68354947255318	25.38557693937411	26.114500885417367	24.816372702655343
38	23.688956170653743	25.376681736358016	26.142402742636833	24.79195935035141
39	23.755193792357314	25.356157103915606	26.06775516527317	24.82089393845391
40	23.690585925464795	25.378922079294963	26.089930329361145	24.840561665879097
41	23.731769290344904	25.347454474126398	26.1245148989034	24.7962613366253
42	23.827092400342035	25.32644079216626	26.026182636043227	24.820284171448474
43	23.802865792134998	25.377851975032	26.034228751729994	24.785053481103006
44	23.8505772926745	25.37725569608448	26.028897108406568	24.74326990283445
45	23.777828339692025	25.335261431951523	26.011833875926154	24.875076352430302
46	23.84544517157997	25.34089712730167	26.00386273059465	24.809794970523708
47	23.906254679794618	25.346373529034295	25.99240402867105	24.754967762500037
48	23.90735403221748	25.344336365879137	25.954805758969613	24.793503842933763
49	23.95366172885277	25.410698777509143	25.924817158177255	24.710822335460836
50	24.031841258137785	25.378941567182217	25.938692909305082	24.650524265374916
>>END_MODULE
>>Per base GC content	pass
#Base	%GC
1	52.700259065273336
2	50.35531016019091
3	48.819816800591234
4	48.57525377608095
5	49.62084295636045
6	49.693752906224724
7	49.57143216728139
8	49.08875472356088
9	48.780874448060636
10	48.78778463901131
11	48.81761301746462
12	48.75504944535119
13	48.63418046403063
14	48.53715378636923
15	48.537899885016174
16	48.50510732411365
17	48.48453394125621
18	48.57149025177734
19	48.55821885439981
20	48.46302976474031
21	48.5152617359983
22	48.50016566423774
23	48.480752142967525
24	48.5265996893964
25	48.47801455313068
26	48.47838196998759
27	48.520026564994865
28	48.535298082868074
29	48.52183888907567
30	48.55051014041054
31	48.59202699225061
32	48.59494796735832
33	48.614797748758704
34	48.65901886080131
35	48.58221743512425
36	48.530063776184015
37	48.49992217520852
38	48.48091552100515
39	48.576087730811224
40	48.531147591343895
41	48.52803062697021
42	48.64737657179051
43	48.58791927323801
44	48.59384719550895
45	48.65290469212232
46	48.65524014210368
47	48.66122244229465
48	48.70085787515124
49	48.6644840643136
50	48.6823655235127
>>END_MODULE
>>Per sequence GC content	pass
#GC Content	Count
0	3222.0
1	6784.5
2	10347.0
3	11131.0
4	15234.5
5	20139.5
6	21725.0
7	29503.5
8	37282.0
9	40442.0
10	54445.5
11	69958.0
12	74627.0
13	105521.5
14	136416.0
15	154731.0
16	215580.0
17	292074.5
18	326035.0
19	462811.0
20	599587.0
21	822349.5
22	1045112.0
23	1154434.5
24	1489715.5
25	1857555.5
26	1999437.0
27	2505741.0
28	3012045.0
29	3224955.0
30	3904033.0
31	4631551.0
32	4892901.0
33	5832106.0
34	6771311.0
35	7139734.0
36	8304747.5
37	9525469.5
38	9949601.0
39	1.13845115E7
40	1.2819422E7
41	1.4346453E7
42	1.5873484E7
43	1.63773795E7
44	1.7832966E7
45	1.92345125E7
46	1.9684368E7
47	2.06682525E7
48	2.1652137E7
49	2.1794502E7
50	2.20538485E7
51	2.20621795E7
52	2.1953529E7
53	2.1095191E7
54	2.0236853E7
55	1.97275625E7
56	1.8204992E7
57	1.65837825E7
58	1.5975853E7
59	1.4119851E7
60	1.2263849E7
61	1.04971045E7
62	8730360.0
63	8207051.0
64	6728971.5
65	5341233.5
66	4908266.0
67	3896526.5
68	2884787.0
69	2657445.0
70	1998840.5
71	1421605.5
72	1275633.0
73	945191.5
74	614750.0
75	567738.5
76	398054.5
77	251675.0
78	227968.0
79	160537.5
80	93107.0
81	64863.0
82	36619.0
83	34389.0
84	23252.0
85	13404.5
86	12464.0
87	8637.0
88	4810.0
89	4640.0
90	3244.0
91	1933.0
92	1848.0
93	1357.5
94	867.0
95	842.5
96	636.0
97	444.0
98	434.0
99	296.5
100	159.0
>>END_MODULE
>>Per base N content	pass
#Base	N-Count
1	1.2688920039927654
2	0.5496059201643868
3	0.14409017712144634
4	0.06465304255656779
5	0.047927915115925576
6	0.09811232341056704
7	0.09777023904467372
8	0.09288448001411807
9	0.0658228086204141
10	0.04187645170924529
11	0.086901162701435
12	0.022796899285930927
13	0.09738257351657033
14	0.1690496994698586
15	0.013870663569566597
16	0.1275965658809404
17	0.09197736975627427
18	0.07433384959189471
19	0.15256466290343176
20	0.061505234572259114
21	0.11170814611096605
22	0.04996146676858434
23	0.08880203255518528
24	0.1394927979191306
25	0.012185514463701568
26	0.07074647673637219
27	0.01265712153805319
28	0.04966902525262276
29	0.05001833039668799
30	0.06690050976256881
31	0.12508824806347982
32	0.09459760963539916
33	0.08529318566228206
34	0.10306983892420588
35	0.15802086340956678
36	0.02904200912720233
37	0.09631538264404008
38	0.24515116642848445
39	0.24293438452842203
40	0.10229419506505538
41	0.16550136236862714
42	0.16480004333916928
43	0.11522482108309057
44	0.27543785887823813
45	0.21491321429738036
46	0.24925076878601038
47	0.18905557265528403
48	0.2261514681400829
49	0.3385006104228482
50	0.19163158875576375
>>END_MODULE
>>Sequence Length Distribution	warn
#Length	Count
35	1.10791533E8
36	0.0
37	0.0
38	0.0
39	0.0
40	0.0
41	0.0
42	0.0
43	0.0
44	0.0
45	0.0
46	0.0
47	0.0
48	0.0
49	0.0
50	1.10791233E8
>>END_MODULE
>>Sequence Duplication Levels	warn
#Total Duplicate Percentage	31.71888331117681
#Duplication Level	Relative count
1	100.0
2	9.10411762996542
3	3.401621480254555
4	1.5546450469299393
5	0.8485165489785836
6	0.4736582105599628
7	0.2841949263359777
8	0.15807979542614709
9	0.11507279225873943
10++	0.2952372649870688
>>END_MODULE
>>Overrepresented sequences	pass
>>END_MODULE
>>Kmer Content	pass
>>END_MODULE
