#Position (bp)	mapping quality
3877256.5	192.75103823779682
1.16317685E7	201.73018373459374
1.93862805E7	185.08715407932783
2.71407925E7	205.9918027629998
3.48953045E7	214.9046604666057
4.26498165E7	213.43724277055236
5.04043285E7	200.70533916561277
5.81588405E7	200.45397883673158
6.59133525E7	207.34743649021456
7.36678645E7	193.81575469754284
8.14223765E7	180.27925866897823
8.91768885E7	191.9475310023378
9.69314005E7	202.4140598680185
1.046859125E8	178.92480595716077
1.124404245E8	210.26385363918374
1.201949365E8	184.25077706821247
1.279494485E8	NaN
1.357039605E8	NaN
1.434584725E8	161.85336729018815
1.512129845E8	193.79119519782355
1.589674965E8	209.86335343784094
1.667220085E8	204.7228547951324
1.744765205E8	201.2817639591744
1.822310325E8	212.96161692343134
1.899855445E8	190.5811854652775
1.977400565E8	198.56681062871024
2.054945685E8	206.40529692534997
2.132490805E8	202.14476598796452
2.210035925E8	197.6666153723029
2.287581045E8	204.44623244609693
2.365126165E8	199.09693176334153
2.442671285E8	187.7282429870928
2.48697503E8	139.34957957482442
2.52574759E8	204.68162893043797
2.597761525E8	204.79706872419325
2.675306645E8	200.30201093583705
2.752851765E8	217.00595664748062
2.830396885E8	206.41230542116438
2.907942005E8	197.5892570478765
2.985487125E8	198.70940510653145
3.063032245E8	196.2301674680403
3.140577365E8	191.91979404941844
3.218122485E8	210.83491125165764
3.295667605E8	183.0668272921787
3.373212725E8	165.68185774244438
3.450757845E8	165.39915863209333
3.528302965E8	203.13710263278674
3.605848085E8	179.31729831934297
3.683393205E8	206.77259395226838
3.760938325E8	194.47348968869636
3.838483445E8	164.0914558716109
3.916028565E8	191.43449072722055
3.993573685E8	213.27886518844196
4.071118805E8	196.25393652558935
4.148663925E8	194.8950079090961
4.226209045E8	204.05440032437951
4.303754165E8	210.24768629469665
4.381299285E8	195.64091759806337
4.458844405E8	198.8724657474748
4.536389525E8	196.5570471620851
4.613934645E8	204.221219775061
4.691479765E8	213.06138365184592
4.769024885E8	204.42620955903118
4.846570005E8	207.48905018600158
4.904921255E8	197.96837387843976
4.943693815E8	201.22592913242755
5.001660245E8	208.32802064976553
5.079205365E8	197.37277089620687
5.156750485E8	192.8381189356154
5.234295605E8	192.06452594130639
5.311840725E8	210.4220277578085
5.389385845E8	218.2754821658444
5.466930965E8	219.80960506339272
5.544476085E8	202.97726795896514
5.622021205E8	195.48001541096406
5.699566325E8	167.23695711605058
5.777111445E8	169.8316014601357
5.854656565E8	160.26618438005514
5.932201685E8	189.79485943093445
6.009746805E8	200.0390528073842
6.087291925E8	205.00396630872498
6.164837045E8	202.5623135852456
6.242382165E8	206.01273987860407
6.319927285E8	194.50596528668845
6.397472405E8	190.50247423622957
6.475017525E8	195.6836907352757
6.552562645E8	178.804620338864
6.630107765E8	198.03230834658768
6.707652885E8	180.7942768532796
6.785198005E8	204.801750529396
6.862743125E8	194.22824384917408
6.903119965E8	139.61830290494137
6.941892525E8	195.78988825466325
7.017833365E8	161.72960167383508
7.095378485E8	197.75716267486632
7.172923605E8	197.9958737126398
7.250468725E8	188.57071723032618
7.328013845E8	199.33561191384038
7.405558965E8	187.4694586173964
7.483104085E8	193.7901536323035
7.560649205E8	182.1795735424649
7.638194325E8	182.52461657861303
7.715739445E8	189.73129879083015
7.793284565E8	205.92489632875942
7.870829685E8	194.58173269043067
7.948374805E8	186.23411069591253
8.025919925E8	191.59610479759513
8.103465045E8	190.13239765688562
8.181010165E8	190.10369248604763
8.258555285E8	175.60592656649732
8.336100405E8	184.8316129912372
8.413645525E8	200.02614289075584
8.491190645E8	199.44318001890494
8.568735765E8	181.1614644407542
8.646280885E8	192.62770667306575
8.723826005E8	198.14779709208509
8.789432785E8	197.24959339410842
8.828205345E8	178.4075218159889
8.878916245E8	204.02690838212254
8.956461365E8	197.89576395792307
9.034006485E8	155.04939584282192
9.111551605E8	181.6018918803943
9.189096725E8	200.16554924618094
9.266641845E8	178.65052360152515
9.344186965E8	188.99294708764089
9.421732085E8	193.78708243244748
9.499277205E8	190.68867209560233
9.576822325E8	185.1341316370087
9.654367445E8	178.30049421049534
9.731912565E8	203.22471515932506
9.809457685E8	179.730476990845
9.887002805E8	175.77411380936826
9.964547925E8	196.99455676855288
1.0042093045E9	187.46788161623732
1.0119638165E9	203.68058240058414
1.0197183285E9	215.5994049118928
1.0274728405E9	209.50357332631006
1.0352273525E9	209.04223123193694
1.0429818645E9	200.04322754306264
1.0507363765E9	203.88346120183638
1.0584908885E9	197.16483264389697
1.0624550525E9	168.34710743801654
1.0663323085E9	193.9980544840853
1.0739999125E9	193.6167353161885
1.0817544245E9	190.14603869158668
1.0895089365E9	185.66350915435808
1.0972634485E9	210.5437358050516
1.1050179605E9	216.6504445495791
1.1127724725E9	198.32608304801417
1.1205269845E9	186.79689293250897
1.1282814965E9	155.80649364064217
1.1360360085E9	197.57238953738099
1.1437905205E9	190.93080736888155
1.1515450325E9	194.20511936191278
1.1592995445E9	176.79791839271454
1.1670540565E9	191.32458883944935
1.1748085685E9	193.94737390416986
1.1825630805E9	197.15145143722734
1.1903175925E9	199.94509151351497
1.1980721045E9	202.5599972030596
1.2058266165E9	183.29793943596107
1.2135811285E9	194.31003177087214
1.2213356405E9	190.9885205155004
1.2290901525E9	189.23429429825686
1.233312218E9	211.1199954337155
1.237189474E9	180.03479315081222
1.2445991765E9	196.88121247578678
1.2523536885E9	185.70480770616965
1.2601082005E9	195.17981583726677
1.2678627125E9	193.2361160559426
1.2756172245E9	192.16420185221426
1.2833717365E9	204.51110335168158
1.2911262485E9	145.34217707775198
1.2988807605E9	126.56353078162512
1.3066352725E9	158.87816250387812
1.3143897845E9	204.25970537638014
1.3221442965E9	198.2617922527288
1.3298988085E9	189.27060579764276
1.3376533205E9	186.3842851259245
1.3454078325E9	194.70579754306965
1.3531623445E9	202.86366575248903
1.3609168565E9	204.40381582847934
1.3686713685E9	193.93429729190112
1.3764258805E9	186.12933563106705
1.3841803925E9	195.40122736561764
1.3904266695E9	207.4484632226518
1.3943039255E9	215.58342162054603
1.3996894165E9	167.456731489474
1.4074439285E9	147.41753746493862
1.4151984405E9	213.59670826001056
1.4229529525E9	200.0360763705865
1.4307074645E9	204.73097916113878
1.4384619765E9	191.7877890419933
1.4462164885E9	189.34335578481242
1.4539710005E9	181.14419251426767
1.4617255125E9	197.8741708316593
1.4694800245E9	182.86918439520517
1.4772345365E9	187.80361587648102
1.4849890485E9	193.8301613409819
1.4927435605E9	197.82551067765422
1.5004980725E9	198.48977663554933
1.5082525845E9	188.20985354068824
1.5160070965E9	201.20847031844306
1.5237616085E9	203.65676398384295
1.5315161205E9	207.77922389066862
1.5372765445E9	208.02610638675597
1.5411538005E9	202.06996297160075
1.5470251445E9	177.5466249256425
1.5547796565E9	198.0495543339389
1.5625341685E9	193.6968582281284
1.5702886805E9	178.5105739199782
1.5780431925E9	199.67039665458591
1.5857977045E9	82.94544852261208
1.5935522165E9	NaN
1.6013067285E9	75.12443561495395
1.6090612405E9	158.36294149858537
1.6168157525E9	196.43270190192268
1.6245702645E9	165.5873762015926
1.6323247765E9	160.10592637715263
1.6400792885E9	197.35252558991377
1.6478338005E9	195.19052338797175
1.6555883125E9	214.25699758172482
1.6633428245E9	202.68004582440395
1.6710973365E9	218.07146982235292
1.677673868E9	203.8902516957459
1.681551124E9	206.77335700817926
1.6866063605E9	197.90080218594903
1.6943608725E9	193.05255147518744
1.7021153845E9	192.09865058487446
1.7098698965E9	164.91093287718397
1.7176244085E9	152.05391443246032
1.7253789205E9	142.14051347848132
1.7331334325E9	184.05551629410084
1.7408879445E9	197.17396659469264
1.7486424565E9	195.39558578528155
1.7563969685E9	203.72930021962173
1.7641514805E9	187.75316345846696
1.7719059925E9	195.66248069888036
1.7796605045E9	216.13537172813454
1.7874150165E9	209.85859799325874
1.7951695285E9	209.22858263432008
1.8029240405E9	194.7041907741043
1.8106785525E9	210.01332805591065
1.8152318495E9	214.17688423210714
1.8191091055E9	184.33691472110525
1.8261875765E9	216.21636197060667
1.8339420885E9	179.89398924067316
1.8416966005E9	188.08132668458495
1.8494511125E9	209.53604110053485
1.8572056245E9	194.4887869181296
1.8649601365E9	172.1501934800487
1.8727146485E9	188.44514371952016
1.8804691605E9	213.65662979651853
1.8882236725E9	198.33637204127757
1.8959781845E9	198.50482551434513
1.9037326965E9	175.0704936817133
1.9114872085E9	199.21938046736673
1.9192417205E9	197.91289781610695
1.9269962325E9	203.50688592578425
1.9347507445E9	215.86646205031292
1.9425052565E9	212.21643690817524
1.9486484595E9	214.18084269802802
1.9525257155E9	211.07431750485273
1.9580142805E9	193.6309375940518
1.9657687925E9	190.7828378935896
1.9735233045E9	186.78578038588046
1.9812778165E9	184.91622573106346
1.9890323285E9	182.08567829398518
1.9967868405E9	206.06125494316498
2.0045413525E9	216.8673970142371
2.0122958645E9	203.984463314179
2.0200503765E9	200.0844545241285
2.0278048885E9	192.79089414587648
2.0355594005E9	191.54359108843497
2.0433139125E9	179.9148088066536
2.0510684245E9	200.39462669396607
2.0588229365E9	215.50166535733675
2.0665774485E9	211.8476647001123
2.0743319605E9	212.95925706445837
2.081487759E9	203.49366423500373
2.085365015E9	NaN
2.0898409845E9	NaN
2.0975954965E9	NaN
2.1053500085E9	156.52515643887986
2.1131045205E9	186.58587985146946
2.1208590325E9	211.6703306715028
2.1286135445E9	186.9647661827074
2.1363680565E9	186.1066017233549
2.1441225685E9	169.97407477461215
2.1518770805E9	164.64970150353773
2.1596315925E9	182.11949001115096
2.1673861045E9	183.00973491681316
2.1751406165E9	167.4977580728149
2.1828951285E9	205.30940982160027
2.1906496405E9	198.90259916560365
2.197231538E9	215.55119746897776
2.201108794E9	NaN
2.2061586645E9	NaN
2.2139131765E9	NaN
2.2216676885E9	201.81376680990712
2.2294222005E9	190.52069707075552
2.2371767125E9	180.16315952479957
2.2449312245E9	173.55435149148718
2.2526857365E9	198.6350517697336
2.2604402485E9	190.9837167960307
2.2681947605E9	205.7801550331808
2.2759492725E9	214.7472422564196
2.2837037845E9	182.49957327768882
2.2914582965E9	206.1686911361529
2.2992128085E9	211.59622252720496
2.305187892E9	118.72820567882886
2.309065148E9	NaN
2.3147218325E9	NaN
2.3224763445E9	NaN
2.3302308565E9	138.7396955067113
2.3379853685E9	182.75796461516376
2.3457398805E9	204.93126784873715
2.3534943925E9	204.3712144122688
2.3612489045E9	197.0694678300901
2.3690034165E9	207.44402486652226
2.3767579285E9	202.13359805497618
2.3845124405E9	184.8044544329199
2.3922669525E9	197.39031446432043
2.4000214645E9	204.29823205310194
2.406857916E9	183.3604292130655
2.410735172E9	212.4678836378779
2.4155304885E9	202.63547217324873
2.4232850005E9	182.6967775852189
2.4310395125E9	197.6113142036752
2.4387940245E9	191.08983785061463
2.4465485365E9	114.79840313726598
2.4543030485E9	204.9989601347676
2.4620575605E9	192.8491510387402
2.4698120725E9	205.850711213271
2.4775665845E9	198.54899409024688
2.4853210965E9	188.30438962596247
2.4930756085E9	210.2950805181505
2.4985623645E9	199.58158131111387
2.5024396205E9	204.25030989613816
2.5085846325E9	216.8531707553147
2.5163391445E9	184.02010629164806
2.5240936565E9	171.09423232077606
2.5318481685E9	187.54907475012632
2.5396026805E9	204.22202193871422
2.5473571925E9	198.47565713351605
2.5551117045E9	177.99581851231255
2.5628662165E9	182.26927436062297
2.5706207285E9	207.80481098469994
2.5779325295E9	208.60103982452512
2.5818097855E9	195.04715841368716
2.5861297525E9	198.7708251898252
2.5938842645E9	171.39346176533715
2.6016387765E9	204.2591028917438
2.6093932885E9	190.95825953828916
2.6171478005E9	203.8442427299159
2.6249023125E9	206.71573830451473
2.6326568245E9	206.23911092270603
2.6404113365E9	196.42549907991977
2.6481658485E9	189.89117777032882
2.6557437135E9	205.2196221474158
2.6596209695E9	195.50630651962078
2.6636748725E9	202.68860898436427
2.6714293845E9	191.0422268886393
2.6791838965E9	169.8390365866321
2.6869384085E9	157.69529142278228
2.6946929205E9	204.39560780538412
2.7024474325E9	178.7408553628051
2.7102019445E9	178.2032348106853
2.716326253E9	183.97738292842286
2.720203509E9	217.5365908653787
2.7257109685E9	199.19050309949935
2.7334654805E9	201.1206882251378
2.7412199925E9	187.3125881272025
2.7489745045E9	209.09486001827247
2.7567290165E9	207.64700677837703
2.7644835285E9	213.18608189236016
2.7722380405E9	201.4403918599055
2.778857061E9	218.7799201427995
2.782734317E9	NaN
2.7877470645E9	101.2344909198489
2.7955015765E9	117.07492114916907
2.8032560885E9	175.60803461292483
2.8110106005E9	189.7070587814148
2.8187651125E9	200.0409845639371
2.8261855445E9	215.84883904023718
2.8300628005E9	NaN
2.8342741365E9	NaN
2.8420286485E9	63.34531351767423
2.8497831605E9	176.4678763502496
2.8575376725E9	201.9655514910453
2.8652921845E9	204.2726981989564
2.8730466965E9	204.3886857490062
2.8789786195E9	210.34936379242814
2.8828558755E9	166.47215711014263
2.8885557205E9	177.86801186802163
2.8963102325E9	200.9786371777899
2.9040647445E9	195.7178081842805
2.9118192565E9	181.6541494173475
2.9195737685E9	175.6397214718667
2.9273282805E9	166.2760921343978
2.9350827925E9	170.89595792966134
2.9428373045E9	159.49794875126173
2.9505918165E9	184.77967777554707
2.9583463285E9	173.28515094380901
2.9661008405E9	176.51347036163395
2.9738553525E9	150.48316202074776
2.9816098645E9	180.3822276450087
2.9893643765E9	203.39473675341796
2.9971188885E9	190.09431060954864
3.0048734005E9	178.62610823579507
3.0126279125E9	176.0092517536386
3.0203824245E9	177.1090658626094
3.0281369365E9	178.69827419994397
3.0341590195E9	200.64242950379605
3.0380362755E9	156.98724654503246
3.0436459605E9	158.0865606175758
3.0514004725E9	129.4462464117202
3.0591549845E9	153.4197431379533
3.0669094965E9	127.63137359455538
3.0746640085E9	NaN
3.0824185205E9	NaN
3.0901730325E9	NaN
3.0948638505E9	102.12481043372763
3.095685697E9	111.0642573731567
3.0956961125E9	168.27785419532324
3.0957057475E9	98.71192052980132
3.095723208E9	80.90556185895808
3.0957468575E9	74.13000388071286
3.0957743915E9	193.72340425531914
3.0958051445E9	255.0
3.0958392935E9	74.92771581044869
3.0958746045E9	57.27432216905901
3.0959108895E9	152.07055214723925
3.095947426E9	130.82035928143713
3.095984339E9	189.42718151413803
3.0960216755E9	184.36777423759673
3.0960595015E9	88.61124634858812
3.0960978295E9	21.0
3.0961365375E9	203.5867716535433
3.0961758875E9	96.19957983193277
3.096215745E9	99.87026161238654
3.096255679E9	144.5752111631848
3.0962957E9	105.05420076156526
3.096336017E9	94.6584051724138
3.0963766085E9	107.83460674157304
3.096417435E9	68.29158512720157
3.096458902E9	71.1163244086301
3.0965008355E9	45.51605504587156
3.0965428785E9	65.19508196721311
3.096585625E9	66.3628083491461
3.096629057E9	48.140845070422536
3.096672664E9	76.68869950193691
3.096717443E9	74.50866125963753
3.096763347E9	113.20979135863315
3.0968269725E9	181.55173448565597
3.09691267E9	90.79604658289917
3.097004057E9	83.82007193181258
3.097103618E9	51.36236974593139
3.0972210215E9	159.24866310160428
3.0973497685E9	43.77058582548136
3.0974831875E9	63.272292850752045
3.097629745E9	43.99846747489122
3.097787028E9	65.32150452097905
3.097947186E9	59.286514429006004
3.0981086605E9	137.94777930932125
3.098271681E9	142.29764402899656
3.0984370835E9	67.99314047381488
3.0986053035E9	61.3061692095783
3.098776315E9	135.32608070938872
3.0989485365E9	98.86373929870176
3.099120956E9	56.571090514691384
3.0992945225E9	128.31272341308087
3.0994714155E9	70.34528177061406
3.099650861E9	77.83747235264444
3.099830935E9	169.92970213101503
3.1000126105E9	121.73572650853724
3.1001974875E9	67.76184345929458
3.100384347E9	70.44914387545045
3.100571295E9	9.655328798185941
3.100759707E9	88.5251650563308
3.100950336E9	57.45124863537118
3.101151657E9	102.83329005103383
3.1015309915E9	56.58321509296992
