# Position (bp)	A	C	G	T	N
0.0	27.98185882861927	24.072653271301036	22.763148260676655	25.182301395935248	3.824346778971739E-5
1.0	26.24169412721488	24.032000465040568	23.30897641636595	26.416671899068394	6.570923102051442E-4
2.0	28.355128980962473	23.034197100296833	21.587592734325202	27.01848501492295	0.004596169492546035
3.0	28.343711567487794	22.537313630020595	22.13565639454075	26.974240799369138	0.009077608581722917
4.0	28.725461339643644	22.133121895629962	22.44722940330247	26.692991383885772	0.001195977538151162
5.0	28.396063398213027	21.873608676566718	22.81402945623143	26.913402395473472	0.0028960735153485987
6.0	28.567199439893127	22.31328339570843	22.224304752877316	26.894753489907654	4.5892161347660864E-4
7.0	28.265302028482203	22.22242734627673	21.879706771339734	27.632125792361194	4.380615401367628E-4
8.0	27.8639437873869	21.951896531811162	22.19012204603109	27.993884660899692	1.5297387115886956E-4
9.0	28.28345029228787	22.168107715299772	21.723798583197727	27.824566922279054	7.648693557943478E-5
10.0	28.286933924535624	21.94274243629386	21.94237390833152	27.82765073645446	2.989943845377905E-4
11.0	28.29289642883193	22.278798217798773	21.615534802563925	27.806123140767735	0.006647410037630877
12.0	28.267596636549584	22.019159838295494	21.854410455736282	27.857063439863644	0.0017696295549969228
13.0	28.05073531410855	21.66244910750524	22.109876820571593	28.175409019103032	0.0015297387115886956
14.0	28.3390632478119	21.994583195222265	21.493479036773596	28.171935816891946	9.387033002930631E-4
15.0	28.231769460588403	21.66249082765192	21.752112656077678	28.344712851008108	0.008914204673894126
16.0	28.238959232532867	22.10320507378173	21.430043553747126	28.22476742930399	0.003024710634277648
17.0	28.160866071306266	21.831248820971272	21.73670053855842	28.262583265590248	0.008601303573796439
18.0	27.984229923622234	21.479958232570485	22.0681566738919	28.465343178453544	0.002311991461832915
19.0	28.196050061672807	21.876841987934394	21.49078113395498	28.43624685282335	7.996361446940909E-5
20.0	28.119163308021022	21.57980497361166	21.718465357780506	28.58217697255113	3.8938803567712245E-4
21.0	28.018197076377284	22.091544292784757	21.46237666742389	28.425312697714382	0.0025692656996910137
22.0	27.98327731360638	21.779300284997273	21.745207971802188	28.49218313948415	3.129011000976877E-5
23.0	27.750305061189202	21.415180751492485	22.095702400737167	28.73870400953556	1.0777704558920355E-4
24.0	27.952154084183327	21.824024282237904	21.580573319646344	28.64287978597008	3.6852796233727666E-4
25.0	27.905403183149847	21.53791794634525	21.833623392653124	28.722669566494996	3.859113567871482E-4
26.0	28.096279807567214	21.90984262395803	21.654803890626184	28.33893808737186	1.35590476708998E-4
27.0	27.929941582755287	21.596572995898004	21.991652354918013	28.481614035658627	2.190307700683814E-4
28.0	27.425819667030122	21.580479449316314	22.21072484513308	28.780771824104246	0.0022042144162437113
29.0	27.59472368086285	22.118276476769772	21.645420334302145	28.641283990359582	2.955177056478162E-4
30.0	27.45278478850076	21.801168595215216	21.81108060673053	28.934222000271042	7.44009282454502E-4
31.0	27.525461284016785	21.82899940972946	21.995205520743568	28.646346034823388	0.003987750686800531
32.0	27.63054738014515	21.305335081963747	22.60141315871505	28.448582109524978	0.01412226965107564
33.0	26.838789389815737	22.10717544107408	23.06972180519459	27.98156331091362	0.0027500530019696776
34.0	26.408526040429187	21.89249399629706	23.09264702579508	28.597679483721528	0.008653453757146053
35.0	27.678585886851426	21.798581073138728	21.982071832662673	28.539246728521867	0.0015144788253143038
36.0	27.60263477376191	22.569287697504056	21.605450073399798	28.220973178463503	0.0016542768707279321
37.0	27.498881324390762	22.13749230965127	22.174428118233262	28.186507135350485	0.00269111237421234
38.0	27.327564644654924	21.497368709539387	22.728226425302232	28.436128195273636	0.010712025229819249
39.0	27.476967980772177	22.300607504056185	21.906406140582547	28.315488307000237	5.300675888600063E-4
40.0	27.368263350625966	22.09175504912678	22.126989981489572	28.412845995793713	1.4562296397252922E-4
41.0	27.21767755604125	22.770160014007764	21.829837586125787	28.182045247734365	2.795960908272561E-4
42.0	27.084514092866215	22.421200792981114	22.273609006535676	28.220122740353904	5.533672630956111E-4
43.0	26.455749083944184	22.16380929170039	22.738594780337078	28.641206102976874	6.407410414791285E-4
44.0	26.50881409201577	23.110708052635363	21.90792644432642	28.46718083611114	0.0053705749113068775
45.0	26.370192680151046	22.795795480585486	22.254841118938895	28.577475669023933	0.0016950513006402403
46.0	26.45517241700685	22.878928718258127	22.32743707893848	28.326497403076562	0.011964382719983
47.0	26.579149983614503	22.502446757040666	22.575246589189813	28.342783875367246	3.727947877696748E-4
48.0	26.569428194539697	22.958083536555034	24.149791974683506	26.321810906600813	8.853876209529777E-4
49.0	25.67115002881587	23.598556631780454	22.971154653801207	27.759080436416877	5.8249185589011685E-5
50.0	NaN	NaN	NaN	NaN	NaN
