#GC Content (%)	Sample
1.0	0.0
2.0	0.0
3.0	0.0
4.0	1.5174357157326976E-6
5.0	6.0697428629307905E-6
6.0	9.863332152262534E-6
7.0	2.4278971451723165E-5
8.0	3.0348714314653954E-5
9.0	3.6418457177584746E-5
10.0	4.855794290344632E-5
11.0	5.766255719784251E-5
12.0	8.118281079169933E-5
13.0	9.408101437542725E-5
14.0	1.2518844654794755E-4
15.0	1.8133356803005734E-4
16.0	1.987840787609834E-4
17.0	2.799668895526827E-4
18.0	3.7708277535957536E-4
19.0	5.197217326384489E-4
20.0	6.85122225653313E-4
21.0	0.0010106121866779766
22.0	0.0014544621335297906
23.0	0.0019939105304727645
24.0	0.0028482268384302733
25.0	0.004124390275361473
26.0	0.0045234758685991725
27.0	0.0061835505416107436
28.0	0.007987781607616921
29.0	0.009713106016404998
30.0	0.011666804500410848
31.0	0.013886054234669917
32.0	0.016334436762004623
33.0	0.01889055722515635
34.0	0.022086276842489413
35.0	0.025095351866787352
36.0	0.027927645630202433
37.0	0.031775862605300555
38.0	0.03527431064792229
39.0	0.038878220472787446
40.0	0.04193585343998883
41.0	0.04399804857766957
42.0	0.04524613945385972
43.0	0.04615660088329933
44.0	0.04576813734007176
45.0	0.04441989570664326
46.0	0.0430504099731945
47.0	0.04127197531435577
48.0	0.03904589711937591
49.0	0.0372424247712276
50.0	0.03582438109487539
51.0	0.0361354554166006
52.0	0.02661051142894645
53.0	0.02649291016097717
54.0	0.023925408929957443
55.0	0.021563520238419502
56.0	0.019205425136170885
57.0	0.017105294105596833
58.0	0.015128834085854997
59.0	0.01311595560893557
60.0	0.011267718907173147
61.0	0.009468798866172034
62.0	0.007814035218165526
63.0	0.006297358220290695
64.0	0.004872486083217692
65.0	0.003778414932174417
66.0	0.002763250438349243
67.0	0.0020189482197823542
68.0	0.0013186516369717144
69.0	8.474878472367117E-4
70.0	6.411165898970647E-4
71.0	3.8087636464890714E-4
72.0	2.701035574004202E-4
73.0	1.7981613231432463E-4
74.0	1.0849665367488787E-4
75.0	9.7874603664759E-5
76.0	4.476435361411459E-5
77.0	3.2624867888253E-5
78.0	2.3520253593856812E-5
79.0	1.2139485725861583E-5
80.0	2.4278971451723162E-5
81.0	3.793589289331744E-6
82.0	1.5174357157326976E-6
83.0	7.587178578663488E-6
84.0	6.828460720797139E-6
85.0	3.0348714314653952E-6
86.0	3.793589289331744E-6
87.0	2.2761535735990466E-6
88.0	1.5174357157326976E-6
89.0	7.587178578663488E-7
90.0	1.5174357157326976E-6
91.0	7.587178578663488E-7
92.0	1.5174357157326976E-6
93.0	1.5174357157326976E-6
94.0	1.5174357157326976E-6
95.0	2.2761535735990466E-6
96.0	0.0
97.0	0.0
98.0	0.0
99.0	0.0
100.0	4.172948218264918E-5
