#Position (bp)	mapping quality
3877256.5	202.2921293285077
1.16317685E7	198.69617523263761
1.93862805E7	187.35162014182856
2.71407925E7	206.49381609123174
3.48953045E7	214.95425454169538
4.26498165E7	213.0192038778032
5.04043285E7	201.4424665533253
5.81588405E7	202.19165765169427
6.59133525E7	210.33061413536103
7.36678645E7	199.42220476499017
8.14223765E7	185.80899834052533
8.91768885E7	196.18917315323196
9.69314005E7	205.48810093331525
1.046859125E8	186.93795048393835
1.124404245E8	211.66994094047286
1.201949365E8	191.5104091544702
1.279494485E8	NaN
1.357039605E8	NaN
1.434584725E8	164.70152470930205
1.512129845E8	196.60017097756693
1.589674965E8	210.06574612177474
1.667220085E8	207.4124512817008
1.744765205E8	207.5683866556559
1.822310325E8	213.89990986685802
1.899855445E8	196.5573773702001
1.977400565E8	200.99563803202983
2.054945685E8	206.19829558491278
2.132490805E8	203.52497231456152
2.210035925E8	200.07997780107294
2.287581045E8	205.9073182508457
2.365126165E8	204.14990105135251
2.442671285E8	194.4968515168429
2.48697503E8	145.76031085823368
2.52574759E8	201.85990740648552
2.597761525E8	205.36744926949893
2.675306645E8	203.25582783160934
2.752851765E8	216.95354674064015
2.830396885E8	208.59173085787606
2.907942005E8	200.86350772350033
2.985487125E8	200.38467345963326
3.063032245E8	201.2225833265343
3.140577365E8	196.59001139394914
3.218122485E8	212.57414457270647
3.295667605E8	188.34313868626188
3.373212725E8	171.39977058289236
3.450757845E8	169.92940098726194
3.528302965E8	204.09934861436582
3.605848085E8	187.64804509211152
3.683393205E8	207.89680723586193
3.760938325E8	202.40592608134756
3.838483445E8	166.96286445249083
3.916028565E8	195.21200058725654
3.993573685E8	214.9429384989187
4.071118805E8	200.2157879565367
4.148663925E8	199.79115391583
4.226209045E8	207.85070950040333
4.303754165E8	213.12875196150182
4.381299285E8	201.75347339911104
4.458844405E8	205.3776635414034
4.536389525E8	202.82026348586268
4.613934645E8	209.76757344674888
4.691479765E8	211.83653956367883
4.769024885E8	208.6420572372579
4.846570005E8	207.53146052812988
4.904921255E8	214.04476778035564
4.943693815E8	207.47650579636502
5.001660245E8	210.1498037666437
5.079205365E8	202.58319452447157
5.156750485E8	194.56109535620178
5.234295605E8	197.4722850995452
5.311840725E8	210.70073970956915
5.389385845E8	218.89812477654036
5.466930965E8	220.35264785012868
5.544476085E8	205.6219510687038
5.622021205E8	201.7446324753313
5.699566325E8	175.13264214209028
5.777111445E8	175.53706340623071
5.854656565E8	162.31696148144425
5.932201685E8	198.86036648121524
6.009746805E8	202.90867423249264
6.087291925E8	206.20773651397116
6.164837045E8	205.9272872068604
6.242382165E8	208.79235194321336
6.319927285E8	198.63989408319213
6.397472405E8	196.95902596489302
6.475017525E8	197.79043494110576
6.552562645E8	185.64228858462045
6.630107765E8	201.51171075705702
6.707652885E8	186.2140831758034
6.785198005E8	210.30497762526406
6.862743125E8	197.62549618522425
6.903119965E8	143.7235748882644
6.941892525E8	197.13196931373855
7.017833365E8	170.79681490838533
7.095378485E8	204.31699042190075
7.172923605E8	199.530993264755
7.250468725E8	193.61932919862625
7.328013845E8	203.4630687034702
7.405558965E8	200.34839040984582
7.483104085E8	198.5775416473133
7.560649205E8	189.30670282766405
7.638194325E8	186.08233584151603
7.715739445E8	195.21804246554592
7.793284565E8	210.9686713921617
7.870829685E8	198.6086757427365
7.948374805E8	192.79790963226716
8.025919925E8	195.72671630393694
8.103465045E8	196.15136840671605
8.181010165E8	195.0576400092505
8.258555285E8	183.3215598977657
8.336100405E8	191.903169813973
8.413645525E8	203.28127915280422
8.491190645E8	204.47282511240894
8.568735765E8	187.4483720145376
8.646280885E8	197.68475616468115
8.723826005E8	200.68581732778662
8.789432785E8	198.7327491472938
8.828205345E8	182.805982518519
8.878916245E8	204.24530921626854
8.956461365E8	199.21439771289147
9.034006485E8	158.15478394131185
9.111551605E8	186.71488084207405
9.189096725E8	202.73261655269195
9.266641845E8	185.23872241049875
9.344186965E8	193.85964396993987
9.421732085E8	196.11293499537678
9.499277205E8	199.5134742202278
9.576822325E8	190.90025195080344
9.654367445E8	187.15127494272045
9.731912565E8	205.55631130054843
9.809457685E8	188.32245596653667
9.887002805E8	180.53703812890765
9.964547925E8	203.17396428446085
1.0042093045E9	192.2469333664876
1.0119638165E9	208.56304585725496
1.0197183285E9	216.31620596061336
1.0274728405E9	210.03097580448696
1.0352273525E9	209.294889090294
1.0429818645E9	201.49927555306724
1.0507363765E9	202.5983256052771
1.0584908885E9	197.83676495203193
1.0624550525E9	90.38904899135447
1.0663323085E9	194.53208300224185
1.0739999125E9	196.78148225113813
1.0817544245E9	193.4581028322093
1.0895089365E9	191.30513694543495
1.0972634485E9	211.4126408920498
1.1050179605E9	216.48285433280634
1.1127724725E9	202.20574301988034
1.1205269845E9	194.56741692532776
1.1282814965E9	170.6875890582116
1.1360360085E9	202.84158586116104
1.1437905205E9	198.40501969610767
1.1515450325E9	198.47642112251623
1.1592995445E9	198.95594255897961
1.1670540565E9	195.1679671348712
1.1748085685E9	197.96409840057186
1.1825630805E9	203.66093298275533
1.1903175925E9	202.3540580484031
1.1980721045E9	205.49670535354844
1.2058266165E9	204.9527586688842
1.2135811285E9	199.06454547913134
1.2213356405E9	193.7048619357617
1.2290901525E9	196.7374065860257
1.233312218E9	206.7797138651142
1.237189474E9	181.56019073143798
1.2445991765E9	201.27154879380126
1.2523536885E9	206.29635986785743
1.2601082005E9	196.58703428193292
1.2678627125E9	196.93273946739387
1.2756172245E9	193.8961516598467
1.2833717365E9	206.39325869983824
1.2911262485E9	149.87199464539668
1.2988807605E9	133.73249991338824
1.3066352725E9	163.97293492814555
1.3143897845E9	209.00479272601126
1.3221442965E9	203.9454543341022
1.3298988085E9	192.00053984532852
1.3376533205E9	192.0413498854477
1.3454078325E9	201.39252033907894
1.3531623445E9	207.31353329962462
1.3609168565E9	207.35178522204302
1.3686713685E9	196.81174778588522
1.3764258805E9	189.51175951171973
1.3841803925E9	196.69230511702307
1.3904266695E9	201.44450000328058
1.3943039255E9	215.14686076194545
1.3996894165E9	170.66635884648835
1.4074439285E9	152.21161110036232
1.4151984405E9	214.7016947556282
1.4229529525E9	201.7129064255287
1.4307074645E9	206.60294281094113
1.4384619765E9	196.45982560698218
1.4462164885E9	192.13769708962423
1.4539710005E9	186.40218902744698
1.4617255125E9	201.34066816979382
1.4694800245E9	188.2007434687504
1.4772345365E9	191.58936748327878
1.4849890485E9	198.81893849652815
1.4927435605E9	199.8371650538154
1.5004980725E9	203.12171608494899
1.5082525845E9	197.51192849269816
1.5160070965E9	204.4227402729123
1.5237616085E9	205.42506176690225
1.5315161205E9	207.29892885812208
1.5372765445E9	203.1359525014179
1.5411538005E9	205.94641488447283
1.5470251445E9	192.6055620587291
1.5547796565E9	199.97464294526372
1.5625341685E9	198.47550201573478
1.5702886805E9	183.61662930095142
1.5780431925E9	200.20411435876062
1.5857977045E9	89.33620814443911
1.5935522165E9	NaN
1.6013067285E9	98.14668490097756
1.6090612405E9	162.3067016440326
1.6168157525E9	201.18816206634708
1.6245702645E9	172.32932034557936
1.6323247765E9	166.79540068335302
1.6400792885E9	198.9334167010284
1.6478338005E9	195.67578802605777
1.6555883125E9	215.413060332098
1.6633428245E9	206.5559058823106
1.6710973365E9	217.60361497413265
1.677673868E9	201.35564453531558
1.681551124E9	210.48818985023829
1.6866063605E9	198.09851230030864
1.6943608725E9	197.40623994727287
1.7021153845E9	196.06549667751338
1.7098698965E9	172.9352737298892
1.7176244085E9	163.85599748474021
1.7253789205E9	147.47790060842763
1.7331334325E9	185.18815111913779
1.7408879445E9	201.72997140556524
1.7486424565E9	197.16247265937446
1.7563969685E9	203.63377087836852
1.7641514805E9	187.91790601336092
1.7719059925E9	199.19819096341973
1.7796605045E9	217.18890048697784
1.7874150165E9	212.11516944939305
1.7951695285E9	211.4011107334125
1.8029240405E9	199.71521669961928
1.8106785525E9	209.24022737165285
1.8152318495E9	207.65054909432035
1.8191091055E9	195.692851373812
1.8261875765E9	215.53753446929076
1.8339420885E9	201.45060698581216
1.8416966005E9	193.37644583072782
1.8494511125E9	211.922507594482
1.8572056245E9	198.5093103284666
1.8649601365E9	172.8582005642079
1.8727146485E9	191.05404328380953
1.8804691605E9	214.01499229565198
1.8882236725E9	201.32037901476136
1.8959781845E9	198.91404805147755
1.9037326965E9	180.42594690769644
1.9114872085E9	202.80052666740482
1.9192417205E9	201.69905006844485
1.9269962325E9	206.4232798964847
1.9347507445E9	216.25210644557842
1.9425052565E9	211.9325210558312
1.9486484595E9	209.99876801182032
1.9525257155E9	209.1622547175106
1.9580142805E9	196.00968615667372
1.9657687925E9	196.3338388540693
1.9735233045E9	193.2767220442689
1.9812778165E9	193.6825950517131
1.9890323285E9	191.21297947027318
1.9967868405E9	208.6863711505823
2.0045413525E9	216.38237798042974
2.0122958645E9	205.44764665501066
2.0200503765E9	202.89129223448455
2.0278048885E9	198.5445312804978
2.0355594005E9	198.3705114011704
2.0433139125E9	183.8798805853608
2.0510684245E9	204.2305617783946
2.0588229365E9	216.5268185001755
2.0665774485E9	210.16223304810492
2.0743319605E9	212.70747879844478
2.081487759E9	199.13923730041793
2.085365015E9	NaN
2.0898409845E9	NaN
2.0975954965E9	NaN
2.1053500085E9	163.49144286694397
2.1131045205E9	191.12256264256374
2.1208590325E9	213.99476046347584
2.1286135445E9	193.11931614479437
2.1363680565E9	190.394648708163
2.1441225685E9	176.7684127837704
2.1518770805E9	168.85196391400436
2.1596315925E9	184.4543044531398
2.1673861045E9	187.2319083661688
2.1751406165E9	174.30181118109283
2.1828951285E9	207.4838293404488
2.1906496405E9	201.37002048623344
2.197231538E9	214.86131174998766
2.201108794E9	NaN
2.2061586645E9	NaN
2.2139131765E9	NaN
2.2216676885E9	203.88532107589415
2.2294222005E9	199.73432389262882
2.2371767125E9	185.69124944603362
2.2449312245E9	178.95054802283528
2.2526857365E9	203.86522439324784
2.2604402485E9	197.27633534672006
2.2681947605E9	207.18853810471194
2.2759492725E9	215.46799549897523
2.2837037845E9	185.97600386206958
2.2914582965E9	207.95296670109497
2.2992128085E9	212.68744084107666
2.305187892E9	164.86759971741415
2.309065148E9	NaN
2.3147218325E9	NaN
2.3224763445E9	NaN
2.3302308565E9	138.6597664969125
2.3379853685E9	187.96309310780478
2.3457398805E9	207.21768906750196
2.3534943925E9	206.8153188214094
2.3612489045E9	199.1930359371159
2.3690034165E9	208.61751401351106
2.3767579285E9	203.0695569580366
2.3845124405E9	191.64467971747365
2.3922669525E9	196.47901084082545
2.4000214645E9	204.89282815410544
2.406857916E9	188.07434087831894
2.410735172E9	210.09455053135304
2.4155304885E9	205.40877523665665
2.4232850005E9	186.57145557142033
2.4310395125E9	201.5001093385244
2.4387940245E9	189.24939017656976
2.4465485365E9	122.39697890435251
2.4543030485E9	207.71694908370586
2.4620575605E9	195.78287006858875
2.4698120725E9	206.77478373814668
2.4775665845E9	206.2451070157857
2.4853210965E9	191.59344159806452
2.4930756085E9	209.1244957035407
2.4985623645E9	199.52324091944368
2.5024396205E9	207.1933465257184
2.5085846325E9	217.96389487388316
2.5163391445E9	185.39405204646252
2.5240936565E9	177.24948862333542
2.5318481685E9	189.44710821313794
2.5396026805E9	207.10925121382905
2.5473571925E9	198.09191925408962
2.5551117045E9	192.5569153215656
2.5628662165E9	184.7030677720964
2.5706207285E9	210.24147897427454
2.5779325295E9	213.33567782228303
2.5818097855E9	196.88424656356986
2.5861297525E9	204.1593936148359
2.5938842645E9	176.14573833584228
2.6016387765E9	208.2369609748857
2.6093932885E9	195.69950452520104
2.6171478005E9	206.28898637175732
2.6249023125E9	209.22665131045005
2.6326568245E9	207.70816599834677
2.6404113365E9	198.56479066825958
2.6481658485E9	194.45186070556574
2.6557437135E9	203.1106248303593
2.6596209695E9	204.31890462563842
2.6636748725E9	201.7258476231097
2.6714293845E9	191.4742530368439
2.6791838965E9	173.8442646749693
2.6869384085E9	165.0577856852664
2.6946929205E9	204.79068317985372
2.7024474325E9	183.3293444270809
2.7102019445E9	177.0733482836398
2.716326253E9	184.805117806397
2.720203509E9	216.29946799102322
2.7257109685E9	199.93174088278607
2.7334654805E9	201.0764392277585
2.7412199925E9	191.91057610526838
2.7489745045E9	207.57964749345334
2.7567290165E9	211.52561070231008
2.7644835285E9	212.48996102215915
2.7722380405E9	201.21729648400185
2.778857061E9	215.57776336999214
2.782734317E9	NaN
2.7877470645E9	100.63375116245562
2.7955015765E9	125.55678120509076
2.8032560885E9	185.30807515299665
2.8110106005E9	193.84148397755283
2.8187651125E9	202.57619642888542
2.8261855445E9	211.27892208258478
2.8300628005E9	NaN
2.8342741365E9	NaN
2.8420286485E9	94.18879755304913
2.8497831605E9	180.8232100794709
2.8575376725E9	202.88660987152696
2.8652921845E9	206.03503575834426
2.8730466965E9	203.99069114005874
2.8789786195E9	206.24341562662613
2.8828558755E9	166.64160336644707
2.8885557205E9	184.35456201835365
2.8963102325E9	212.53704377993904
2.9040647445E9	206.42286418696796
2.9118192565E9	192.82268532964594
2.9195737685E9	183.8164975650968
2.9273282805E9	172.62556677271473
2.9350827925E9	177.64929340432414
2.9428373045E9	174.0941223713386
2.9505918165E9	193.30826041367433
2.9583463285E9	181.4098852138569
2.9661008405E9	187.27773156454836
2.9738553525E9	152.30982553175252
2.9816098645E9	185.12166478989488
2.9893643765E9	212.23613245323713
2.9971188885E9	198.49739387831085
3.0048734005E9	191.8513685278208
3.0126279125E9	193.5851289930434
3.0203824245E9	183.90567192053751
3.0281369365E9	185.9839278219844
3.0341590195E9	206.76482358558107
3.0380362755E9	153.72384497239557
3.0436459605E9	159.38705066088787
3.0514004725E9	147.41105320362456
3.0591549845E9	172.77853551042017
3.0669094965E9	160.31083162782508
3.0746640085E9	NaN
3.0824185205E9	NaN
3.0901730325E9	NaN
3.0948638505E9	128.99113066051342
3.095685697E9	110.81196270966262
3.0956961125E9	243.0097087378641
3.0957057475E9	89.25950329447542
3.095723208E9	83.18906922342529
3.0957468575E9	63.65545697789044
3.0957743915E9	192.11651196873473
3.0958051445E9	91.63258785942492
3.0958392935E9	101.4888197377195
3.0958746045E9	44.947565543071164
3.0959108895E9	188.55421686746988
3.095947426E9	148.4296875
3.095984339E9	201.87322714379226
3.0960216755E9	182.29783869267263
3.0960595015E9	155.44879027203208
3.0960978295E9	151.31962025316454
3.0961365375E9	183.27498408656908
3.0961758875E9	103.42337461300309
3.096215745E9	175.51408450704224
3.096255679E9	180.24943470023834
3.0962957E9	98.94232749742534
3.096336017E9	117.35930914421843
3.0963766085E9	139.00488354620586
3.096417435E9	139.4918699186992
3.096458902E9	97.4376130198915
3.0965008355E9	68.19022316684378
3.0965428785E9	66.11424889801803
3.096585625E9	73.49954421148587
3.096629057E9	49.792465086066905
3.096672664E9	91.7289619958635
3.096717443E9	90.65381834613646
3.096763347E9	147.56983429151165
3.0968269725E9	176.57650075613122
3.09691267E9	152.49864889209152
3.097004057E9	145.84029703856132
3.097103618E9	60.57125676488274
3.0972210215E9	128.45853365384616
3.0973497685E9	47.11004825922096
3.0974831875E9	65.82728002482062
3.097629745E9	53.08679622570768
3.097787028E9	80.13404620227827
3.097947186E9	73.60157693322776
3.0981086605E9	137.23712414117284
3.098271681E9	139.73721525359736
3.0984370835E9	68.02387981406736
3.0986053035E9	72.86570179251797
3.098776315E9	125.23321418751719
3.0989485365E9	119.89533204541516
3.099120956E9	61.43301235084781
3.0992945225E9	130.61922949824398
3.0994714155E9	72.44406863915707
3.099650861E9	92.60921475404005
3.099830935E9	182.9808340170015
3.1000126105E9	128.36809495340543
3.1001974875E9	73.3247708683328
3.100384347E9	91.00532907195303
3.100571295E9	32.16314779270633
3.100759707E9	104.78919097739124
3.100950336E9	64.64584021129086
3.101151657E9	115.38659333420483
3.1015309915E9	64.07257830788095
